Place,Name,CyrillicName,Sex,BirthDate,Division,WeightClassKg,BodyweightKg,Bench1Kg,Bench2Kg,Bench3Kg,Best3BenchKg,TotalKg,Tested,Event,Equipment,Deadlift1Kg,Deadlift2Kg,Deadlift3Kg,Best3DeadliftKg,Squat1Kg,Squat2Kg,Squat3Kg,Best3SquatKg,Squat4Kg,Bench4Kg,Deadlift4Kg
1,Leonid Smirnov,Леонид Смирнов,M,1957-09-26,Masters 60-64,100,95.80,117.5,-122.5,122.5,122.5,122.5,No,B,Raw,,,,,,,,,,,
1,Aleksandr Andronov,Александр Андронов,M,1977-11-03,Masters 40-44,110,108.80,175,-182.5,182.5,182.5,182.5,No,B,Raw,,,,,,,,,,,
1,Igor Rybalchenko,Игорь Рыбальченко,M,1966-03-22,Masters 50-54,110,104.00,150,160,165,165.0,165.0,No,B,Raw,,,,,,,,,,,
1,Artur Khorev,Артур Хорев,M,1986-10-14,Open,80,79.60,90,95,100,100.0,100.0,No,B,Raw,,,,,,,,,,,
1,Aleksandr Rubtsov,Александр Рубцов,M,1987-08-25,Open,90,88.80,90,-92.5,92.5,92.5,92.5,No,B,Raw,,,,,,,,,,,
2,Nikita Ruban,Никита Рубан,M,1990-12-12,Open,90,88.90,75,-80,80,80.0,80.0,No,B,Raw,,,,,,,,,,,
1,Mikhail Kublikov,Михаил Кубликов,M,1970-08-12,Masters 45-49,90,82.00,75,80,-82.5,80.0,80.0,No,B,Raw,,,,,,,,,,,
1,Timur Malikov,Тимур Маликов,M,1988-06-11,Open,100,94.70,-75,75,80,80.0,80.0,No,B,Raw,,,,,,,,,,,
1,Ivan Arsentev,Иван Арсентьев,M,1976-06-04,Open,120,118.70,100,110,120,120.0,120.0,No,B,Raw,,,,,,,,,,,
1,Alikhan Elmurziev,Алихан Эльмурзиев,M,1975-05-06,Masters 40-44,100,99.20,105,120,-130,120.0,120.0,No,B,Raw,,,,,,,,,,,
1,Artem Yakovlev,Артем Яковлев,M,1979-12-06,Open,120,116.40,105,-115,-115,105.0,105.0,No,B,Raw,,,,,,,,,,,
1,Varvara Antonova,Варвара Антонова,F,1999-10-09,Teen 18-19,70,66.20,70,75,-80,75.0,75.0,No,B,Raw,,,,,,,,,,,
1,Sergey Toming,Сергей Томинг,M,1968-12-09,Masters 50-54,70,69.00,112.5,-117.5,-117.5,112.5,112.5,No,B,Raw,,,,,,,,,,,
1,Aleksandr Tarasenko,Александр Тарасенко,M,1996-02-09,Juniors 20-23,80,76.50,110,115,-117.5,115.0,115.0,No,B,Raw,,,,,,,,,,,
1,Aleksandr Gamaev,Александр Гамаев,M,1983-02-06,Open,100,92.80,125,127.5,-130,127.5,127.5,No,B,Raw,,,,,,,,,,,
1,Leonid Smirnov,Леонид Смирнов,M,1957-09-26,Masters 60-64,100,95.80,117.5,-122.5,122.5,122.5,122.5,No,B,Raw,,,,,,,,,,,
1,Yuriy Gorbanyov,Юрий Горбанёв,M,1981-08-17,Open,110,108.90,142.5,-147.5,-147.5,142.5,142.5,No,B,Raw,,,,,,,,,,,
1,Viktor Tkachev,Виктор Ткачев,M,1944-11-15,Masters 70-74,70,67.80,60,65,-70,65.0,65.0,No,B,Raw,,,,,,,,,,,
1,Dmitriy Tkachev,Дмитрий Ткачев,M,2001-06-11,Teen 16-17,80,71.50,95,100,-102.5,100.0,100.0,No,B,Raw,,,,,,,,,,,
1,Igor Rybalchenko,Игорь Рыбальченко,M,1966-03-22,Masters 50-54,110,104.00,150,160,165,165.0,165.0,No,B,Raw,,,,,,,,,,,
1,Maksim Pospelov,Максим Поспелов,M,2001-12-05,Teen 16-17,120,115.20,80,85,-90,85.0,85.0,No,B,Raw,,,,,,,,,,,
1,Dmitriy Chirva,Дмитрий Чирва,M,1952-12-02,Masters 65-69,130,122.50,-75,75,,75.0,75.0,No,B,Raw,,,,,,,,,,,
1,Ilya Ostapenko,Илья Остапенко,M,1987-12-22,Open,110,108.80,-202.5,-212.5,212.5,212.5,212.5,No,B,Single-ply,,,,,,,,,,,
DQ,Vitaliy Gorbanyov,Виталий Горбанёв,M,1987-09-28,Open,110,101.50,-202.5,-207.5,-207.5,,,No,B,Single-ply,,,,,,,,,,,
1,Aleksey Dvoretskiy,Алексей Дворецкий,M,1991-03-31,Open,90,87.10,200,-215,-220,200.0,200.0,No,B,Single-ply,,,,,,,,,,,
1,Mikhail Kublikov,Михаил Кубликов,M,1970-08-12,Masters 45-49,90,82.00,75,80,-82.5,80.0,80.0,No,B,Raw,,,,,,,,,,,
1,Alikhan Elmurziev,Алихан Эльмурзиев,M,1975-05-06,Masters 40-44,100,99.20,,,,,255.0,No,D,Raw,210,255,-280,255.0,,,,,,,
1,Elena Yudina,Елена Юдина,F,1985-05-03,Open,56,54.80,42.5,47.5,-50,47.5,207.5,No,SBD,Raw,75,80,82.5,82.5,72.5,77.5,-82.5,77.5,,,
1,Svetlana Samoylova,Светлана Самойлова,F,1973-07-28,Masters 45-49,56,55.75,45,50,-52.5,50.0,240.0,No,SBD,Raw,95,105,110,110.0,75,80,-85,80.0,,,
1,Mariya Gadetskaya,Мария Гадецкая,F,1987-04-19,Open,60,59.50,62.5,67.5,70,70.0,315.0,No,SBD,Raw,120,125,130,130.0,105,110,115,115.0,,,
2,Irina Panina,Ирина Панина,F,1985-03-04,Open,60,56.80,55,-60,60,60.0,280.0,No,SBD,Raw,107.5,115,120,120.0,90,-97.5,100,100.0,,,
1,Natalya Pyrkova,Наталья Пыркова,F,1985-10-20,Open,67.5,66.45,50,55,60,60.0,247.5,No,SBD,Raw,90,100,110,110.0,70,75,77.5,77.5,,,
1,Olga Bulgakova,Ольга Булгакова,F,1987-04-18,Open,90,87.40,50,57.5,-60,57.5,252.5,No,SBD,Raw,90,95,100,100.0,85,90,95,95.0,,,
1,Irina Yushina,Ирина Юшина,F,1974-07-19,Masters 40-44,90+,90.90,55,57.5,60,60.0,335.0,No,SBD,Raw,-145,145,150,150.0,115,120,125,125.0,,,
1,Aleksandr Gidzenko,Александр Гидзенко,M,1988-11-10,Open,75,72.90,90,97.5,-102.5,97.5,372.5,No,SBD,Raw,140,150,,150.0,110,117.5,125,125.0,,,
1,Nikita Kalinin,Никита Калинин,M,1996-08-06,Juniors 20-23,82.5,81.30,90,95,-100,95.0,400.0,No,SBD,Raw,140,150,155,155.0,140,150,-160,150.0,,,
1,Kirill Tyulkin,Кирилл Тюлькин,M,1982-10-20,Open,82.5,81.70,127.5,132.5,137.5,137.5,510.0,No,SBD,Raw,180,190,200,200.0,150,160,172.5,172.5,,,
2,Rinat Siushev,Ринат Сиушев,M,1990-04-19,Open,82.5,79.90,105,110,-115,110.0,415.0,No,SBD,Raw,150,160,172.5,172.5,120,125,132.5,132.5,,,
1,Aleksey Shlychkov,Алексей Шлычков,M,1996-05-16,Juniors 20-23,90,88.85,117.5,-125,-125,117.5,537.5,No,SBD,Raw,220,-230,237.5,237.5,175,182.5,-190,182.5,,,
2,Sergey Fomenko,Сергей Фоменко,M,1996-06-11,Juniors 20-23,90,85.70,120,125,130,130.0,500.0,No,SBD,Raw,190,195,200,200.0,170,-180,-180,170.0,,,
1,Mikhail Pashev,Михаил Пашев,M,1986-11-09,Open,90,89.00,125,135,-140,135.0,537.5,No,SBD,Raw,195,210,227.5,227.5,-165,165,175,175.0,,,
1,Aleksandr Smirnov,Александр Смирнов,M,1996-02-04,Juniors 20-23,100,95.60,125,135,145,145.0,575.0,No,SBD,Raw,205,222.5,230,230.0,160,180,200,200.0,,,
2,Demyan Ovcharenko,Демьян Овчаренко,M,1997-06-06,Juniors 20-23,100,92.85,85,-95,95,95.0,415.0,No,SBD,Raw,150,180,-200,180.0,120,140,-150,140.0,,,
1,Ruslan Andriyashev,Руслан Андрияшев,M,1992-06-24,Open,100,96.00,145,155,-162.5,155.0,607.5,No,SBD,Raw,220,235,240,240.0,190,205,212.5,212.5,,,
1,Sergey Korneev,Сергей Корнеев,M,1977-12-10,Masters 40-44,90,89.10,125,130,135,135.0,555.0,No,SBD,Raw,205,220,230,230.0,180,190,-200,190.0,,,
DQ,Pavel Pavlov,Павел Павлов,M,1996-02-10,Juniors 20-23,110,107.80,,,,,,No,SBD,Raw,,,,,-230,-230,-230,,,,
1,Nikolay Petrichenko,Николай Петриченко,M,1978-01-12,Masters 40-44,110,109.10,100,105,110,110.0,430.0,No,SBD,Raw,150,170,180,180.0,120,130,140,140.0,,,
1,Olesya Starova,Олеся Старова,F,2000-09-29,Teen 18-19,82.5,81.15,52.5,55,57.5,57.5,320.0,No,SBD,Wraps,120,125,130,130.0,115,125,132.5,132.5,,,
1,Stanislav Vanyukhanov,Станислав Ванюханов,M,1996-10-08,Open,67.5,67.50,117.5,125,-127.5,125.0,540.0,No,SBD,Wraps,190,200,-210,200.0,-215,215,-227.5,215.0,,,
1,Vladimir Oskin,Владимир Оськин,M,1985-09-15,Open,75,74.95,115,-125,125,125.0,550.0,No,SBD,Wraps,200,210,215,215.0,200,-210,210,210.0,,,
1,Vladislav Urzhumtsev,Владислав Уржумцев,M,2000-12-25,Teen 18-19,82.5,80.30,100,110,-120,110.0,495.0,No,SBD,Wraps,180,195,205,205.0,180,-195,-195,180.0,,,
2,Vladimir Vologuzov,Владимир Вологузов,M,2000-10-23,Teen 18-19,82.5,77.65,90,-95,,90.0,425.0,No,SBD,Wraps,160,170,,170.0,150,160,165,165.0,,,
1,Dmitriy Volkov,Дмитрий Волков,M,1996-09-24,Juniors 20-23,82.5,79.40,105,-110,-110,105.0,425.0,No,SBD,Wraps,150,160,170,170.0,-140,140,150,150.0,,,
1,Vladimir Zotov,Владимир Зотов,M,1980-11-19,Open,90,86.70,85,90,97.5,97.5,447.5,No,SBD,Wraps,170,180,190,190.0,-160,160,-170,160.0,,,
2,Aleksey Osipenko,Алексей Осипенко,M,1985-05-09,Open,90,90.00,-135,-135,135,135.0,435.0,No,SBD,Wraps,100,,,100.0,200,-210,-210,200.0,,,
1,Dmitriy Melsitov,Дмитрий Мельситов,M,1978-04-01,Masters 40-44,90,88.30,-117.5,117.5,-120,117.5,515.0,No,SBD,Wraps,185,195,205,205.0,175,185,192.5,192.5,,,-212.5
1,Eduard Vinogradov,Эдуард Виноградов,M,1974-07-20,Open,110,107.70,-170,180,185,185.0,650.0,No,SBD,Wraps,210,225,,225.0,220,240,-255,240.0,,,
1,Eduard Vinogradov,Эдуард Виноградов,M,1974-07-20,Masters 40-44,110,107.70,-170,180,185,185.0,650.0,No,SBD,Wraps,210,225,,225.0,220,240,-255,240.0,,,
1,Bogdan Reshetnikov,Богдан Решетников,M,1997-06-04,Juniors 20-23,125,119.60,-125,135,142.5,142.5,610.0,No,SBD,Wraps,220,-235,-247.5,220.0,220,235,247.5,247.5,,,
1,Arina Grushina,Арина Грушина,F,1997-08-14,Juniors 20-23,75,67.60,35,-40,40,40.0,235.0,No,SBD,Wraps,80,90,100,100.0,-90,-95,95,95.0,,,
1,Nikita Burdinskiy,Никита Бурдинский,M,1994-10-07,Open,75,73.60,100,110,-120,110.0,450.0,No,SBD,Wraps,160,180,-185,180.0,160,-180,-180,160.0,,,
1,Vitaliy Nabatchikov,Виталий Набатчиков,M,1994-06-07,Open,82.5,81.50,130,140,145,145.0,640.0,No,SBD,Wraps,230,-250,250,250.0,230,240,245,245.0,,,
2,Valeriy Kuzmichev,Валерий Кузьмичев,M,1980-02-08,Open,82.5,81.20,100,-110,-110,100.0,480.0,No,SBD,Wraps,180,200,210,210.0,-160,170,-180,170.0,,,
1,Stanislav Yarukov,Станислав Яруков,M,1990-07-12,Open,90,89.50,145,152.5,,152.5,685.0,No,SBD,Wraps,295,-310,,295.0,225,237.5,-247.5,237.5,,,
2,Grigoriy Yudin,Григорий Юдин,M,1985-06-06,Open,90,83.10,145,150,155,155.0,605.0,No,SBD,Wraps,185,195,205,205.0,230,245,-255,245.0,,,
1,Aleksandr Venger,Александр Венгер,M,1988-02-22,Open,100,93.00,130,140,-150,140.0,560.0,No,SBD,Wraps,180,195,-210,195.0,190,210,225,225.0,,,
2,Igor Chernyavskiy,Игорь Чернявский,M,1984-08-05,Open,100,97.00,155,162.5,-167.5,162.5,545.0,No,SBD,Wraps,-170,170,192.5,192.5,-190,190,-210,190.0,,,
1,Maksim Derezhovskiy,Максим Дережовский,M,1984-03-20,Open,100,99.80,200,-210,-210,200.0,810.0,No,SBD,Single-ply,-300,300,310,310.0,-300,-300,300,300.0,,,
1,Aleksandr Kosarev-Volodko,Александр Косарев-Володько,M,1974-03-06,Masters 45-49,100,97.00,140,155,-165,155.0,550.0,No,SBD,Multi-ply,190,205,-210,205.0,-180,180,190,190.0,,,
1,Aleksandr Krovikov,Александр Кровиков,M,1961-09-26,Masters 55-59,100,95.40,140,150,155,155.0,575.0,No,SBD,Multi-ply,180,210,240,240.0,180,-190,-190,180.0,,,
DQ,Gennadiy Sidelnikov,Геннадий Сидельников,M,1986-06-28,Open,82.5,81.70,-125,-130,-130,,,No,BD,Raw,-185,,,,,,,,,,
1,Nikita Mizonov,Никита Мизонов,M,1999-05-22,Teen 18-19,90,89.20,120,-127.5,-127.5,120.0,290.0,No,BD,Raw,170,-187.5,-190,170.0,,,,,,,
DQ,Stanislav Kulikov,Станислав Куликов,M,1978-11-29,Open,100,99.55,230,-242.5,-242.5,230.0,,No,BD,Multi-ply,-300,-300,-300,,,,,,,,
1,Darya Vereshchagina,Дарья Верещагина,F,1993-02-03,Open,44,42.90,,,,,75.0,No,S,Raw,,,,,75,-80,-80,75.0,,,
1,Ilya Naroditskiy,Илья Народицкий,M,1989-07-12,Open,125,115.30,,,,,210.0,No,S,Raw,,,,,-210,-210,210,210.0,,,
DQ,Tavallobek Tavallobekov,Таваллобек Таваллобеков,M,1985-09-23,Open,75,72.05,,,,,,No,S,Raw,,,,,-150,-150,,,,,
1,Alesya Vorozheykina,Алеся Ворожейкина,F,1996-07-30,Juniors 20-23,52,51.80,,,,,75.0,No,S,Raw,,,,,65,70,75,75.0,,,
1,Olga Sergeeva,Ольга Сергеева,F,1993-09-16,Open,56,55.60,57.5,62.5,-65,62.5,62.5,No,B,Raw,,,,,,,,,,,
1,Irina Bukhantseva,Ирина Буханцева,F,1971-11-24,Masters 45-49,60,56.60,47.5,52.5,-55,52.5,52.5,No,B,Raw,,,,,,,,,,,
DQ,Darya Bogachyova,Дарья Богачёва,F,1989-12-14,Open,67.5,66.05,-55,-55,-55,,,No,B,Raw,,,,,,,,,,,
1,Vladislav Sitdikov,Владислав Ситдиков,M,1994-12-23,Open,52,50.75,90,-95,-95,90.0,90.0,No,B,Raw,,,,,,,,,,,
1,Maksim Sychev,Максим Сычев,M,2004-01-07,Teen 13-15,60,59.75,55,60,62.5,62.5,62.5,No,B,Raw,,,,,,,,,,,
1,Aleksandr Kuznetsov #9,Александр Кузнецов,M,1993-12-16,Open,60,59.15,130,132.5,135,135.0,135.0,No,B,Raw,,,,,,,,,,,
1,Karim Kolesov,Карим Колесов,M,2003-10-15,Teen 13-15,67.5,66.20,80,87.5,90,90.0,90.0,No,B,Raw,,,,,,,,,,,
2,Artyom Kashnikov,Артём Кашников,M,2003-08-22,Teen 13-15,67.5,65.20,80,82.5,-87.5,82.5,82.5,No,B,Raw,,,,,,,,,,,
1,Daniil Shestakov,Даниил Шестаков,M,2001-08-11,Teen 16-17,67.5,65.95,77.5,-82.5,-82.5,77.5,77.5,No,B,Raw,,,,,,,,,,,
1,Sergey Fedulov,Сергей Федулов,M,1988-10-29,Open,67.5,65.90,142.5,150,160,160.0,160.0,No,B,Raw,,,,,,,,,,,
2,Vyacheslav Lykov,Вячеслав Лыков,M,1994-01-28,Open,67.5,66.70,-120,120,-125,120.0,120.0,No,B,Raw,,,,,,,,,,,
3,Anton Dyuzhilov,Антон Дюжилов,M,1988-08-27,Open,67.5,66.20,110,-115,-115,110.0,110.0,No,B,Raw,,,,,,,,,,,
1,Evgeniy Drobchenko,Евгений Дробченко,M,1981-10-05,Open,75,72.90,-135,140,145,145.0,145.0,No,B,Raw,,,,,,,,,,,
2,Sergey Artyushenko,Сергей Артюшенко,M,1980-03-31,Open,75,73.00,120,127.5,-135,127.5,127.5,No,B,Raw,,,,,,,,,,,
3,Anton Bukhantsev,Антон Буханцев,M,1991-06-22,Open,75,74.65,117.5,125,-127.5,125.0,125.0,No,B,Raw,,,,,,,,,,,
4,Igor Evseev,Игорь Евсеев,M,1988-07-30,Open,75,74.70,112.5,-117.5,117.5,117.5,117.5,No,B,Raw,,,,,,,,,,,
5,Daniil Sushkov,Даниил Сушков,M,1988-05-11,Open,75,73.15,102.5,107.5,110,110.0,110.0,No,B,Raw,,,,,,,,,,,
1,Sergey Kalinin,Сергей Калинин,M,1975-11-19,Masters 40-44,75,74.90,125,130,-132.5,130.0,130.0,No,B,Raw,,,,,,,,,,,
1,Aleksandr Zakharov,Александр Захаров,M,1979-07-03,Open,82.5,80.60,145,-150,,145.0,145.0,No,B,Raw,,,,,,,,,,,
2,Yuriy Emelin,Юрий Емелин,M,1986-03-20,Open,82.5,82.40,-140,140,-145,140.0,140.0,No,B,Raw,,,,,,,,,,,
DQ,Sergey Ivanov,Сергей Иванов,M,1979-12-28,Open,82.5,80.60,-112.5,-120,-120,,,No,B,Raw,,,,,,,,,,,
DQ,Pavel Novikov,Павел Новиков,M,1993-10-16,Open,82.5,81.00,-145,-145,,,,No,B,Raw,,,,,,,,,,,
1,Nikita Mizonov,Никита Мизонов,M,1999-05-22,Teen 18-19,90,89.20,120,-127.5,-127.5,120.0,120.0,No,B,Raw,,,,,,,,,,,
1,Bogdan Polskiy,Богдан Польский,M,1995-08-04,Juniors 20-23,90,87.30,125,132.5,137.5,137.5,137.5,No,B,Raw,,,,,,,,,,,
2,Igor Pimenov,Игорь Пименов,M,1998-12-08,Juniors 20-23,90,87.30,-120,120,-122.5,120.0,120.0,No,B,Raw,,,,,,,,,,,
1,Aleksandr Balyasnikov,Александр Балясников,M,1993-07-20,Open,90,89.10,160,175,180,180.0,180.0,No,B,Raw,,,,,,,,,,,
2,Evgeniy Rodionov,Евгений Родионов,M,1985-10-02,Open,90,87.85,145,-152.5,-152.5,145.0,145.0,No,B,Raw,,,,,,,,,,,
3,Aleksandr Grammatchikov,Александр Грамматчиков,M,1985-02-27,Open,90,85.40,-132.5,132.5,-140,132.5,132.5,No,B,Raw,,,,,,,,,,,
4,Mussa Elmurziev,Мусса Ельмурзиев,M,1981-06-13,Open,90,89.00,132.5,-152.5,-152.5,132.5,132.5,No,B,Raw,,,,,,,,,,,
5,Alim Mamedov,Алим Мамедов,M,1983-12-24,Open,90,86.80,-110,115,120,120.0,120.0,No,B,Raw,,,,,,,,,,,
1,Oleg Dymov,Олег Дымов,M,1970-05-02,Masters 45-49,90,88.45,140,150,-160,150.0,150.0,No,B,Raw,,,,,,,,,,,
1,Aleksandr Sirotkin,Александр Сироткин,M,1986-10-25,Open,100,94.45,155,-162.5,-162.5,155.0,155.0,No,B,Raw,,,,,,,,,,,
2,Vasiliy Sukharev,Василий Сухарев,M,1980-06-24,Open,100,96.90,145,-162.5,-162.5,145.0,145.0,No,B,Raw,,,,,,,,,,,
3,Evgeniy Trofimov,Евгений Трофимов,M,1994-12-15,Open,100,95.40,115,125,140,140.0,140.0,No,B,Raw,,,,,,,,,,,
4,Pavel Miloserdov,Павел Милосердов,M,1993-10-11,Open,100,97.70,115,120,-127.5,120.0,120.0,No,B,Raw,,,,,,,,,,,
1,Aleksandr Dymov,Александр Дымов,M,1973-08-13,Masters 45-49,100,93.70,160,172.5,180,180.0,180.0,No,B,Raw,,,,,,,,,,,
2,Klim Kachanov,Клим Качанов,M,1973-06-19,Masters 45-49,100,99.30,155,162.5,167.5,167.5,167.5,No,B,Raw,,,,,,,,,,,
3,Aleksandr Sychev,Александр Сычев,M,1978-12-10,Masters 40-44,100,99.45,145,-162.5,-162.5,145.0,145.0,No,B,Raw,,,,,,,,,,,
1,Vladimir Stepanov,Владимир Степанов,M,1970-09-15,Open,110,105.75,172.5,175,177.5,177.5,177.5,No,B,Raw,,,,,,,,,,,
2,Pavel Bukhantsev,Павел Буханцев,M,1969-08-02,Open,110,108.30,175,-182.5,-182.5,175.0,175.0,No,B,Raw,,,,,,,,,,,
1,Vladimir Stepanov,Владимир Степанов,M,1970-09-15,Masters 45-49,110,105.75,172.5,175,177.5,177.5,177.5,No,B,Raw,,,,,,,,,,,
2,Pavel Bukhantsev,Павел Буханцев,M,1969-08-02,Masters 45-49,110,108.30,175,-182.5,-182.5,175.0,175.0,No,B,Raw,,,,,,,,,,,
DQ,Ivan Burlov,Иван Бурлов,M,1970-01-20,Masters 45-49,110,109.35,-175,-180,-180,,,No,B,Raw,,,,,,,,,,,
1,Aleksey Donskikh,Алексей Донских,M,1985-12-17,Open,125,122.50,177.5,182.5,190,190.0,190.0,No,B,Raw,,,,,,,,,,,
1,Rustam Bagitov,Рустам Багитов,M,1985-01-18,Open,82.5,78.25,155,160,-167.5,160.0,160.0,No,B,Raw,,,,,,,,,,,
DQ,Ruslan Iskhakov,Руслан Исхаков,M,1986-12-15,Open,82.5,81.80,-130,-130,,,,No,B,Raw,,,,,,,,,,,
1,Fil Skvortsov,Фил Скворцов,M,2003-07-07,Teen 13-15,90,88.70,80,85,-90,85.0,85.0,No,B,Raw,,,,,,,,,,,
1,Aleksey Kondakov,Алексей Кондаков,M,1970-07-22,Open,90,89.35,175,180,,180.0,180.0,No,B,Raw,,,,,,,,,,,
2,Evgeniy Rumyantsev,Евгений Румянцев,M,1988-08-25,Open,90,88.15,165,175,,175.0,175.0,No,B,Raw,,,,,,,,,,,
1,Anton Naumov,Антон Наумов,M,1995-06-20,Juniors 20-23,100,97.25,210,-215,-215,210.0,210.0,No,B,Raw,,,,,,,,,,,
2,Oleg Krylov,Олег Крылов,M,1996-04-27,Juniors 20-23,100,94.60,152.5,157.5,-162.5,157.5,157.5,No,B,Raw,,,,,,,,,,,
1,Sergey Gavrilyuk,Сергей Гаврилюк,M,1988-09-02,Open,100,97.60,185,-195,-195,185.0,185.0,No,B,Raw,,,,,,,,,,,
1,Aleksandr Melyanovskiy,Александр Мельяновский,M,1978-04-05,Masters 40-44,100,99.20,170,175,180,180.0,180.0,No,B,Raw,,,,,,,,,,,
DQ,Pavel Pavlov,Павел Павлов,M,1996-02-10,Juniors 20-23,110,107.80,-180,-180,,,,No,B,Raw,,,,,,,,,,,
1,Aleksey Solovyev #1,Алексей Соловьев,M,1990-07-01,Open,110,109.90,255,265,273,273.0,273.0,No,B,Raw,,,,,,,,,,,
2,Eldar Agarzaev,Эльдар Агарзаев,M,1993-10-09,Open,110,106.30,205,215,,215.0,215.0,No,B,Raw,,,,,,,,,,,
1,Nodar Tsutskiridze,Нодар Цуцкиридзе,M,1976-09-14,Masters 40-44,110,103.35,170,180,185,185.0,185.0,No,B,Raw,,,,,,,,,,,
1,Andrey Vysotskiy,Андрей Высоцкий,M,1977-11-19,Open,140,134.15,235,-242.5,-242.5,235.0,235.0,No,B,Raw,,,,,,,,,,,
1,Andrey Vysotskiy,Андрей Высоцкий,M,1977-11-19,Masters 40-44,140,134.15,235,-242.5,-242.5,235.0,235.0,No,B,Raw,,,,,,,,,,,
1,Tatyana Samsonova,Татьяна Самсонова,F,1983-10-03,Open,67.5,66.20,82.5,85,-87.5,85.0,85.0,No,B,Single-ply,,,,,,,,,,,
DQ,Valeriy Ruban,Валерий Рубан,M,1990-02-14,Open,82.5,82.15,-210,-215,-215,,,No,B,Single-ply,,,,,,,,,,,
1,Maksim Maslennikov,Максим Масленников,M,1988-03-04,Open,100,98.35,-205,205,-215,205.0,205.0,No,B,Single-ply,,,,,,,,,,,
1,Stanislav Kulikov,Станислав Куликов,M,1978-11-29,Open,100,99.55,230,-242.5,-242.5,230.0,230.0,No,B,Single-ply,,,,,,,,,,,
1,Stanislav Kulikov,Станислав Куликов,M,1978-11-29,Masters 40-44,100,99.55,230,-242.5,-242.5,230.0,230.0,No,B,Single-ply,,,,,,,,,,,
1,Anatoliy Kirillov,Анатолий Кириллов,M,1981-09-08,Open,90,87.05,160,172.5,185,185.0,185.0,No,B,Multi-ply,,,,,,,,,,,
1,Elena Kolpakova,Елена Колпакова,F,1978-06-16,Open,56,56.00,-85,85,-90,85.0,85.0,No,B,Multi-ply,,,,,,,,,,,
1,Nikolay Belikov,Николай Беликов,M,1989-05-19,Open,75,73.55,-205,205,-220,205.0,205.0,No,B,Multi-ply,,,,,,,,,,,
1,Yuriy Garazha,Юрий Гаража,M,1982-06-02,Open,100,99.05,-232.5,232.5,237.5,237.5,237.5,No,B,Multi-ply,,,,,,,,,,,
2,Oleg Andreyushin,Олег Андреюшин,M,1991-02-19,Open,100,98.40,-180,180,202.5,202.5,202.5,No,B,Multi-ply,,,,,,,,,,,
1,Ilya Ostapenko,Илья Остапенко,M,1987-12-22,Open,110,108.75,-202.5,-212.5,212.5,212.5,212.5,No,B,Multi-ply,,,,,,,,,,,
DQ,Vitaliy Gorbanyov,Виталий Горбанёв,M,1987-09-28,Open,110,101.45,-202.5,-207.5,-207.5,,,No,B,Multi-ply,,,,,,,,,,,
1,Dmitriy Demidov,Дмитрий Демидов,M,1998-10-04,Juniors 20-23,125,124.40,265,275,280,280.0,280.0,No,B,Multi-ply,,,,,,,,,,,
1,Andrey Inyutin,Андрей Инютин,M,1975-05-18,Open,125,122.60,280,290,,290.0,290.0,No,B,Multi-ply,,,,,,,,,,,
2,Dmitriy Demidov,Дмитрий Демидов,M,1998-10-04,Open,125,124.40,265,275,280,280.0,280.0,No,B,Multi-ply,,,,,,,,,,,
1,Anatoliy Smirnov,Анатолий Смирнов,M,1967-04-04,Masters 50-54,125,122.50,180,190,197.5,197.5,197.5,No,B,Multi-ply,,,,,,,,,,,
1,Anton Tukaev,Антон Тукаев,M,1990-07-03,Open,82.5,79.20,-175,-180,180,180.0,180.0,No,B,Multi-ply,,,,,,,,,,,
1,Roman Elovikov,Роман Еловиков,M,1982-07-20,Open,90,89.90,300,320,331,331.0,331.0,No,B,Multi-ply,,,,,,,,,,,
2,Pavel Silushin,Павел Силушин,M,1989-09-17,Open,90,87.55,300,-312.5,-317.5,300.0,300.0,No,B,Multi-ply,,,,,,,,,,,
1,Valeriy Bespalikov,Валерий Беспаликов,M,1981-04-07,Open,100,100.00,280,-300,-313,280.0,280.0,No,B,Multi-ply,,,,,,,,,,,
2,Yuriy Garazha,Юрий Гаража,M,1982-06-02,Open,100,99.05,-232.5,232.5,237.5,237.5,237.5,No,B,Multi-ply,,,,,,,,,,,
1,Aleksandr Samitov,Александр Самитов,M,1975-04-30,Masters 40-44,110,106.15,-280,-280,280,280.0,280.0,No,B,Multi-ply,,,,,,,,,,,
1,Nikolay Emelyanov #1,Николай Емельянов,M,1979-08-30,Open,125,121.00,340,365,380,380.0,380.0,No,B,Multi-ply,,,,,,,,,,,
2,Aleksey Cherstvov,Алексей Черствов,M,1981-04-16,Open,125,117.80,352.5,-360,-370,352.5,352.5,No,B,Multi-ply,,,,,,,,,,,
1,Kirill Vshivtsev,Кирилл Вшивцев,M,1976-04-14,Open,140,131.50,370,390,-400,390.0,390.0,No,B,Multi-ply,,,,,,,,,,,
1,Eva Merzon,Ева Мерзон,F,1991-10-10,Open,48,46.90,35,40,-45,40.0,40.0,No,B,Multi-ply,,,,,,,,,,,
1,Grigoriy Loshchinin,Григорий Лощинин,M,1991-05-05,Open,56,55.90,82.5,87.5,-95,87.5,87.5,No,B,Multi-ply,,,,,,,,,,,
1,Nikita Konstantinov,Никита Константинов,M,1996-12-14,Juniors 20-23,82.5,76.25,90,95,,95.0,95.0,No,B,Multi-ply,,,,,,,,,,,
1,Ekaterina Nevedomskaya,Екатерина Неведомская,F,1990-05-23,Open,52,51.35,,,,,105.0,No,D,Raw,95,105,-112.5,105.0,,,,,,,
2,Dina Karpova,Дина Карпова,F,1980-11-16,Open,52,51.70,,,,,97.5,No,D,Raw,90,-97.5,97.5,97.5,,,,,,,
3,Anna Baranova,Анна Баранова,F,1984-08-13,Open,52,51.10,,,,,90.0,No,D,Raw,80,85,90,90.0,,,,,,,
1,Lyubov Aleksandrova,Любовь Александрова,F,1987-06-14,Open,56,55.40,,,,,130.0,No,D,Raw,115,125,130,130.0,,,,,,,
2,Mariya Nikitochkina,Мария Никиточкина,F,1989-05-25,Open,56,55.95,,,,,95.0,No,D,Raw,85,95,-105,95.0,,,,,,,
1,Darya Fedchenko,Дарья Федченко,F,2003-02-21,Teen 16-17,67.5,66.70,,,,,117.5,No,D,Raw,110,117.5,-122.5,117.5,,,,,,,
1,Nataliya Volkova,Наталия Волкова,F,1985-11-05,Open,67.5,61.25,,,,,95.0,No,D,Raw,90,-95,95,95.0,,,,,,,
1,Irina Yushina,Ирина Юшина,F,1974-07-19,Masters 40-44,90+,90.90,,,,,150.0,No,D,Raw,-145,145,150,150.0,,,,,,,
1,Vladislav Zhurba,Владислав Журба,M,1996-02-15,Open,67.5,65.45,,,,,172.5,No,D,Raw,165,170,172.5,172.5,,,,,,,
1,Vladimir Oskin,Владимир Оськин,M,1985-09-15,Open,75,74.95,,,,,215.0,No,D,Raw,200,210,215,215.0,,,,,,,
1,Mirazor Saidov,Миразор Саидов,M,1998-08-08,Juniors 20-23,82.5,80.40,,,,,220.0,No,D,Raw,220,-235,-235,220.0,,,,,,,
1,Vyacheslav Rozensheyn,Вячеслав Розеншейн,M,1985-06-26,Open,82.5,76.10,,,,,207.5,No,D,Raw,190,200,207.5,207.5,,,,,,,
1,Nikita Mizonov,Никита Мизонов,M,1999-05-22,Teen 18-19,90,89.20,,,,,170.0,No,D,Raw,170,-187.5,-190,170.0,,,,,,,
1,Nikolay Labazov,Николай Лабазов,M,1996-01-13,Juniors 20-23,90,86.10,,,,,210.0,No,D,Raw,190,202.5,210,210.0,,,,,,,
1,Andrey Bazhanov,Андрей Бажанов,M,1983-02-19,Open,90,89.15,,,,,230.0,No,D,Raw,220,230,-237.5,230.0,,,,,,,
2,Sergey Gorkov,Сергей Горьков,M,1991-03-06,Open,90,85.40,,,,,220.0,No,D,Raw,220,-235,-235,220.0,,,,,,,
3,Aleksey Osipenko,Алексей Осипенко,M,1985-05-09,Open,90,90.00,,,,,100.0,No,D,Raw,100,,,100.0,,,,,,,
1,Aleksandr Kornilenko,Александр Корниленко,M,1975-09-27,Masters 40-44,90,88.80,,,,,210.0,No,D,Raw,200,210,,210.0,,,,,,,
1,Mikhail Zhukov,Михаил Жуков,M,1987-02-26,Open,100,98.90,,,,,270.0,No,D,Raw,245,270,-275,270.0,,,,,,,
1,Vladimir Stepanov,Владимир Степанов,M,1970-09-15,Masters 45-49,110,105.80,,,,,250.0,No,D,Raw,230,240,250,250.0,,,,,,,
1,Alena Kulabukhova,Алена Кулабухова,F,1984-09-14,Open,67.5,66.00,,,,,100.0,No,D,Raw,95,97.5,100,100.0,,,,,,,
1,Aleksandr Zhuravlev,Александр Журавлев,M,1997-09-10,Juniors 20-23,60,58.90,,,,,115.0,No,D,Raw,100,115,-130,115.0,,,,,,,
1,Vitaliy Nabatchikov,Виталий Набатчиков,M,1994-06-07,Open,82.5,81.50,,,,,250.0,No,D,Raw,230,-250,250,250.0,,,,,,,
1,Stanislav Yarukov,Станислав Яруков,M,1990-07-12,Open,90,89.50,,,,,295.0,No,D,Raw,295,-310,,295.0,,,,,,,
1,Ivan Kiselev,Иван Киселев,M,1961-10-17,Masters 55-59,100,94.35,,,,,195.0,No,D,Raw,170,185,195,195.0,,,,,,,
1,Aleksandr Bereznikov,Александр Березников,M,1964-01-26,Masters 55-59,125,116.90,,,,,260.0,No,D,Raw,260,-265,,260.0,,,,,,,
1,Lev Shprints,Лев Шпринц,M,1952-06-12,Masters 65-69,125,119.45,,,,,180.0,No,D,Raw,162.5,172.5,180,180.0,,,,,,,
DQ,Stanislav Kulikov,Станислав Куликов,M,1978-11-29,Open,100,99.55,,,,,,No,D,Multi-ply,-300,-300,-300,,,,,,,,
1,Aleksandr Melyanovskiy,Александр Мельяновский,M,1978-04-05,Open,100,99.20,100,110,-120,110.0,110.0,No,B,Raw,,,,,,,,,,,
1,Aleksandr Melyanovskiy,Александр Мельяновский,M,1978-04-05,Masters 40-44,100,99.20,100,110,-120,110.0,110.0,No,B,Raw,,,,,,,,,,,
