Place,Sex,Name,CyrillicName,BodyweightKg,Squat1Kg,Squat2Kg,Squat3Kg,Best3SquatKg,Squat4Kg,Bench1Kg,Bench2Kg,Bench3Kg,Best3BenchKg,Bench4Kg,Deadlift1Kg,Deadlift2Kg,Deadlift3Kg,Best3DeadliftKg,Deadlift4Kg,TotalKg,WeightClassKg,Event,Equipment,Tested,Division,Age,BirthDate
1,F,Mariya Myakisheva,Мария Мякишева,51.9,87.5,-90,90,90,,-50,52.5,-55,52.5,,115,117.5,120,120,,262.5,52,SBD,Raw,Yes,Open,28,1990-12-10
1,F,Lyubov Litomina,Любовь Литомина,55.3,100,105,-107.5,105,,52.5,57.5,-62.5,57.5,,97.5,107.5,-115,107.5,,270,56,SBD,Raw,Yes,Open,20,1999-05-18
1,F,Aleksandra Pavlovskaya,Александра Павловская,56.5,70,75,77.5,77.5,,45,-50,-50,45,,85,90,95,95,,217.5,60,SBD,Raw,Yes,Juniors 20-23,22,1996-11-14
DQ,F,Yuliya Sadovnikova,Юлия Садовникова,58.6,-85,-85,-85,,,,,,,,,,,,,,60,SBD,Raw,Yes,Open,35,1983-06-26
1,F,Yuliya Shishmakova,Юлия Шишмакова,67.4,107.5,-112.5,-115,107.5,,65,-70,-70,65,,120,135,-147.5,135,,307.5,67.5,SBD,Raw,Yes,Open,37,1982-01-20
1,M,Aleksey Malyshev,Алексей Малышев,51.6,105,-112.5,115,115,,82.5,87.5,90,90,,130,140,145,145,,350,52,SBD,Raw,Yes,Teen 13-15,14,2004-07-30
1,M,Egor Pokatovich,Егор Покатович,76.1,-125,-130,130,130,,95,-102.5,-102.5,95,,-160,165,170,170,,395,82.5,SBD,Raw,Yes,Juniors 20-23,22,1997-01-26
1,M,Aleksandr Matveev,Александр Матвеев,80.5,-160,170,180,180,,-135,135,-140,135,,250,-260,-260,250,,565,82.5,SBD,Raw,Yes,Open,19,1999-09-17
2,M,Ilya Kondratov,Илья Кондратов,81.2,160,170,-175,170,,110,117.5,122.5,122.5,,190,200,207.5,207.5,,500,82.5,SBD,Raw,Yes,Open,25,1993-10-30
1,M,Vladimir Kirichatyy,Владимир Киричатый,82.5,170,175,-180,175,,122.5,-125,125,125,,172.5,182.5,187.5,187.5,,487.5,82.5,SBD,Raw,Yes,Masters 50-54,51,1968-03-27
1,M,Aleksandr Brovkov,Александр Бровков,89.2,-200,200,210,210,,130,135,140,140,,200,215,225,225,,575,90,SBD,Raw,Yes,Open,35,1984-02-18
DQ,M,Sergey Golubkov,Сергей Голубков,89.4,180,190,200,200,,140,-147.5,-150,140,,-220,-220,-220,,,,90,SBD,Raw,Yes,Open,28,1990-12-14
1,M,Kirill Trofimov,Кирилл Трофимов,99.3,190,200,-210,200,,150,157.5,-165,157.5,,200,220,-230,220,,577.5,100,SBD,Raw,Yes,Juniors 20-23,22,1997-01-29
1,M,Aleksandr Molodtsov,Александр Молодцов,96.9,-220,-220,225,225,,155,160,-167.5,160,,245,255,-257.5,255,,640,100,SBD,Raw,Yes,Open,40,1978-10-21
2,M,Stanislav Novikov,Станислав Новиков,99.1,-190,190,195,195,,-145,-145,150,150,,220,240,-250,240,,585,100,SBD,Raw,Yes,Open,26,1993-03-17
DQ,M,Sergey Ryzhov,Сергей Рыжов,98.7,-225,-225,-225,,,,,,,,,,,,,,100,SBD,Raw,Yes,Masters 40-44,41,1977-07-28
1,M,Nikolay Shasherin,Николай Шашерин,104.5,260,270,-287.5,270,,170,185,-195,185,,280,290,-300,290,,745,110,SBD,Raw,Yes,Open,32,1987-01-19
2,M,Sergey Gusev,Сергей Гусев,108.2,250,255,,255,,180,190,200,200,,255,265,-275,265,,720,110,SBD,Raw,Yes,Open,31,1988-01-11
3,M,Konstantin Voytenko,Константин Войтенко,100.7,170,180,190,190,,105,110,115,115,,170,180,-190,180,,485,110,SBD,Raw,Yes,Open,25,1993-10-26
4,M,Valentin Prokudin,Валентин Прокудин,103.2,105,110,130,130,,-105,110,122.5,122.5,,120,140,162.5,162.5,,415,110,SBD,Raw,Yes,Open,28,1990-09-02
1,M,Sergey Surkov,Сергей Сурков,90,220,235,245,245,,180,190,-195,190,,285,295,302.5,302.5,,737.5,90,SBD,Raw,No,Open,33,1985-10-14
1,M,Dmitriy Elfimov,Дмитрий Елфимов,99.8,250,-265,-265,250,,180,-185,,180,,280,290,-295,290,,720,100,SBD,Raw,No,Open,32,1986-11-09
2,M,Roman Malyshev,Роман Малышев,93,200,210,220,220,,175,185,,185,,250,260,-270,260,,665,100,SBD,Raw,No,Open,40,1978-08-20
3,M,Vladimir Gustovarov,Владимир Густоваров,97,190,200,210,210,,185,-190,-190,185,,270,-277.5,-277.5,270,,665,100,SBD,Raw,No,Open,26,1992-08-22
4,M,Sergey Moiseev,Сергей Моисеев,100,215,225,-230,225,,150,157.5,-160,157.5,,250,-270,-270,250,,632.5,100,SBD,Raw,No,Open,41,1977-08-24
1,M,Sergey Moiseev,Сергей Моисеев,100,215,225,-230,225,,150,157.5,-160,157.5,,250,-270,-270,250,,632.5,100,SBD,Raw,No,Masters 40-44,41,1977-08-24
DQ,M,Artem Markov,Артем Марков,105.6,230,,,230,,-222.5,-222.5,-222.5,,,,,,,,,110,SBD,Raw,No,Open,32,1986-08-03
1,F,Anastasiya Nesterova,Анастасия Нестерова,59.9,100,107.5,115,115,,55,60,65,65,,-90,97.5,110,110,,290,60,SBD,Wraps,Yes,Open,28,1991-05-19
1,F,Marina Kovalskaya,Марина Ковальская,61.9,77.5,82.5,87.5,87.5,,45,47.5,-50,47.5,,105,115,122.5,122.5,,257.5,67.5,SBD,Wraps,Yes,Teen 13-15,14,2004-06-04
1,F,Yuliya Surinova,Юлия Суринова,75,-110,115,-130,115,,72.5,-77.5,77.5,77.5,,110,120,130,130,,322.5,75,SBD,Wraps,Yes,Open,38,1980-09-13
1,M,Artem Shasherin,Артем Шашерин,81.1,180,195,205,205,,130,135,-140,135,,190,205,220,220,,560,82.5,SBD,Wraps,Yes,Open,34,1984-11-08
2,M,Roman Radzhabov,Роман Раджабов,82,180,190,200,200,,110,115,120,120,,180,190,205,205,,525,82.5,SBD,Wraps,Yes,Open,34,1985-02-23
1,M,Dmitriy Teplyakov,Дмитрий Тепляков,73.4,200,207.5,210,210,,137.5,142.5,-145,142.5,,220,230,-235,230,,582.5,75,SBD,Wraps,No,Open,45,1974-03-04
1,M,Dmitriy Teplyakov,Дмитрий Тепляков,73.4,200,207.5,210,210,,137.5,142.5,-145,142.5,,220,230,-235,230,,582.5,75,SBD,Wraps,No,Masters 45-49,45,1974-03-04
1,M,Elvin Samedov,Эльвин Самедов,81.4,170,180,190,190,,140,145,-150,145,,170,180,195,195,,530,82.5,SBD,Wraps,No,Open,26,1993-02-16
1,M,Andrey Starov,Андрей Старов,87,190,200,210,210,,145,152.5,160,160,,225,235,250,250,,620,90,SBD,Wraps,No,Open,34,1984-11-07
1,M,Dmitriy Pavlov,Дмитрий Павлов,98.4,260,275,292.5,292.5,,182.5,187.5,190,190,,307.5,317.5,-325,317.5,,800,100,SBD,Wraps,No,Juniors 20-23,22,1996-06-11
1,M,Dmitriy Pavlov,Дмитрий Павлов,98.4,260,275,292.5,292.5,,182.5,187.5,190,190,,307.5,317.5,-325,317.5,,800,100,SBD,Wraps,No,Open,22,1996-06-11
1,M,Igor Chayka,Игорь Чайка,108.6,240,-260,260,260,,140,-150,150,150,,250,270,-310,270,,680,110,SBD,Wraps,No,Open,24,1994-06-09
1,F,Nina Ryabinina,Нина Рябинина,54.9,120,130,,130,,-75,77.5,-80,77.5,,120,125,-127.5,125,,332.5,56,SBD,Single-ply,Yes,Masters 45-49,49,1970-03-19
1,M,Aleksey Emelyanov,Алексей Емельянов,79.9,280,300,-307.5,300,,180,187.5,-195,187.5,,-255,260,270,270,,757.5,82.5,SBD,Single-ply,No,Open,36,1983-02-25
1,M,Anton Monakhov,Антон Монахов,106.6,260,270,280,280,,-200,200,205,205,,260,270,-285,270,,755,110,SBD,Single-ply,No,Open,26,1992-11-29
1,F,Elena Nelyubova,Елена Нелюбова,46.8,,,,,,50,52.5,-55,52.5,,100,-105,-105,100,,152.5,48,BD,Raw,Yes,Open,32,1987-05-14
1,F,Anastasiya Dokuchaeva,Анастасия Докучаева,59.2,,,,,,-40,45,50,50,,-90,90,100,100,,150,60,BD,Raw,Yes,Juniors 20-23,22,1996-10-26
1,F,Anastasiya Nesterova,Анастасия Нестерова,59.9,,,,,,55,60,65,65,,-90,97.5,110,110,,175,60,BD,Raw,Yes,Open,28,1991-05-19
DQ,M,Kirill Molochkov,Кирилл Молочков,73.1,,,,,,-62.5,-62.5,-65,,,,,,,,,75,BD,Raw,Yes,Teen 13-15,13,2006-03-14
1,M,Vladislav Bataev,Владислав Батаев,73.6,,,,,,115,120,125,125,,-185,185,-190,185,,310,75,BD,Raw,Yes,Juniors 20-23,21,1997-11-09
1,M,Nikita Igoshev,Никита Игошев,73.5,,,,,,100,107.5,115,115,,170,180,190,190,,305,75,BD,Raw,Yes,Open,26,1992-06-08
2,M,Dmitriy Paunin,Дмитрий Паунин,72.9,,,,,,95,-105,110,110,,-170,-185,190,190,,300,75,BD,Raw,Yes,Open,31,1987-06-29
1,M,Sergey Pesterev,Сергей Пестерев,89.5,,,,,,140,145,-150,145,,190,210,-230,210,,355,90,BD,Raw,Yes,Open,30,1988-09-19
DQ,M,Sergey Golubkov,Сергей Голубков,89.4,,,,,,140,-147.5,-150,140,,-220,-220,-220,,,,90,BD,Raw,Yes,Open,28,1990-12-14
1,M,Viktor Efipov,Виктор Ефипов,105.1,,,,,,135,-140,-140,135,,-170,170,-182.5,170,,305,110,BD,Raw,Yes,Masters 60-64,63,1956-01-19
1,M,Elvin Samedov,Эльвин Самедов,81.4,,,,,,140,145,-150,145,,170,180,195,195,,340,82.5,BD,Raw,No,Open,26,1993-02-16
1,M,Sergey Surkov,Сергей Сурков,90,,,,,,180,190,-195,190,,285,295,302.5,302.5,,492.5,90,BD,Raw,No,Open,33,1985-10-14
2,M,Artem Popov,Артем Попов,90,,,,,,165,170,-175,170,,280,290,-300,290,,460,90,BD,Raw,No,Open,28,1991-04-08
3,M,Andrey Starov,Андрей Старов,87,,,,,,145,152.5,160,160,,225,235,250,250,,410,90,BD,Raw,No,Open,34,1984-11-07
1,M,Dmitriy Pavlov,Дмитрий Павлов,98.4,,,,,,182.5,187.5,190,190,,307.5,317.5,-325,317.5,,507.5,100,BD,Raw,No,Juniors 20-23,22,1996-06-11
1,M,Dmitriy Pavlov,Дмитрий Павлов,98.4,,,,,,182.5,187.5,190,190,,307.5,317.5,-325,317.5,,507.5,100,BD,Raw,No,Open,22,1996-06-11
2,M,Roman Malyshev,Роман Малышев,93,,,,,,175,185,,185,,250,260,-270,260,,445,100,BD,Raw,No,Open,40,1978-08-20
3,M,Evgeniy Zorin,Евгений Зорин,92.8,,,,,,165,170,175,175,,220,230,240,240,,415,100,BD,Raw,No,Open,28,1991-03-15
4,M,Sergey Moiseev,Сергей Моисеев,100,,,,,,150,157.5,-160,157.5,,250,-270,-270,250,,407.5,100,BD,Raw,No,Open,41,1977-08-24
DQ,F,Olga Luferenko,Ольга Луференко,51.9,-75,-82.5,-82.5,,,,,,,,,,,,,,52,S,Raw,Yes,Open,30,1989-03-29
1,F,Regina Vasilyuk,Регина Василюк,59,90,95,100,100,,,,,,,,,,,,100,60,S,Raw,Yes,Juniors 20-23,23,1995-08-03
1,M,Andrey Usanov,Андрей Усанов,30.1,30,35,40,40,,,,,,,,,,,,40,52,S,Raw,Yes,Youth,11,2008-01-02
1,M,Dmitriy Lemekhov,Дмитрий Лемехов,73.2,-137.5,137.5,152.5,152.5,,,,,,,,,,,,152.5,75,S,Raw,Yes,Open,29,1989-07-06
1,M,Kirill Trofimov,Кирилл Трофимов,99.3,190,200,-210,200,,,,,,,,,,,,200,100,S,Raw,Yes,Juniors 20-23,22,1997-01-29
1,F,Anastasiya Nesterova,Анастасия Нестерова,59.9,100,107.5,115,115,,,,,,,,,,,,115,60,S,Wraps,Yes,Open,28,1991-05-19
1,M,Elvin Samedov,Эльвин Самедов,81.4,170,180,190,190,,,,,,,,,,,,190,82.5,S,Wraps,No,Open,26,1993-02-16
1,M,Andrey Starov,Андрей Старов,87,190,200,210,210,,,,,,,,,,,,210,90,S,Wraps,No,Open,34,1984-11-07
1,F,Nadezhda Rybina,Надежда Рыбина,42.3,,,,,,42.5,45,-47.5,45,,,,,,,45,44,B,Raw,Yes,Open,35,1983-06-02
1,F,Tatyana Dmitrieva,Татьяна Дмитриева,54.6,,,,,,47.5,50,-52.5,50,,,,,,,50,56,B,Raw,Yes,Open,27,1991-12-09
2,F,Anna Myakshina,Анна Мякшина,53.5,,,,,,40,42.5,-45,42.5,,,,,,,42.5,56,B,Raw,Yes,Open,30,1989-01-26
1,F,Antonina Voronova,Антонина Воронова,59.4,,,,,,57.5,60,62.5,62.5,,,,,,,62.5,60,B,Raw,Yes,Juniors 20-23,20,1999-03-23
1,F,Elena Ostrenko,Елена Остренко,59.2,,,,,,67.5,72.5,75,75,,,,,,,75,60,B,Raw,Yes,Open,32,1986-06-14
2,F,Yuliya Sadovnikova,Юлия Садовникова,58.6,,,,,,60,65,67.5,67.5,,,,,,,67.5,60,B,Raw,Yes,Open,35,1983-06-26
1,F,Yuliya Trofimova,Юлия Трофимова,61.4,,,,,,47.5,-52.5,-52.5,47.5,,,,,,,47.5,67.5,B,Raw,Yes,Juniors 20-23,20,1998-10-29
1,M,Mikhail Ryzhenkov,Михаил Рыженков,58.4,,,,,,-50,50,55,55,,,,,,,55,60,B,Raw,Yes,Open,28,1990-06-14
1,M,Vardan Ayvazyan,Вардан Айвазян,67,,,,,,90,-95,97.5,97.5,,,,,,,97.5,67.5,B,Raw,Yes,Teen 13-15,15,2003-08-29
1,M,Georgiy Osipov,Георгий Осипов,65.5,,,,,,85,90,-92.5,90,,,,,,,90,67.5,B,Raw,Yes,Teen 16-17,17,2002-03-11
1,M,Mikhail Grebenshchikov,Михаил Гребенщиков,65.8,,,,,,135,142.5,145,145,,,,,,,145,67.5,B,Raw,Yes,Open,31,1987-12-08
2,M,Sergey Belyaev,Сергей Беляев,67.3,,,,,,125,130,-135,130,,,,,,,130,67.5,B,Raw,Yes,Open,33,1986-05-02
3,M,Viktor Shushpanov,Виктор Шушпанов,66.3,,,,,,115,-125,-125,115,,,,,,,115,67.5,B,Raw,Yes,Open,26,1993-04-14
4,M,Pyotr Vasilev,Пётр Васильев,67.2,,,,,,102.5,107.5,-110,107.5,,,,,,,107.5,67.5,B,Raw,Yes,Open,24,1994-10-18
1,M,Anatoliy Vilchitskiy,Анатолий Вильчицкий,64.8,,,,,,100,105,-107.5,105,,,,,,,105,67.5,B,Raw,Yes,Masters 60-64,63,1955-08-24
1,M,Yuriy Tolstikov,Юрий Толстиков,72.7,,,,,,115,-117.5,-117.5,115,,,,,,,115,75,B,Raw,Yes,Teen 18-19,19,1999-12-06
1,M,Nikita Novikov,Никита Новиков,74,,,,,,120,125,-130,125,,,,,,,125,75,B,Raw,Yes,Juniors 20-23,20,1999-02-06
DQ,M,Aleksandr Bondarev,Александр Бондарев,73.3,,,,,,-117.5,-117.5,-117.5,,,,,,,,,75,B,Raw,Yes,Juniors 20-23,20,1998-07-21
1,M,Aleksandr Fetisov,Александр Фетисов,73,,,,,,150,-155,-155,150,,,,,,,150,75,B,Raw,Yes,Open,32,1987-04-30
2,M,Aleksandr Rassokhin,Александр Рассохин,74.9,,,,,,145,150,-152.5,150,,,,,,,150,75,B,Raw,Yes,Open,33,1985-10-08
3,M,Artem Golubka,Артем Голубка,74.6,,,,,,140,145,-147.5,145,,,,,,,145,75,B,Raw,Yes,Open,34,1984-08-27
4,M,Artem Trapeznikov,Артем Трапезников,74.9,,,,,,125,135,-140,135,,,,,,,135,75,B,Raw,Yes,Open,27,1991-05-25
5,M,Artem Shcheglev,Артем Щеглев,75,,,,,,-125,125,-130,125,,,,,,,125,75,B,Raw,Yes,Open,28,1990-06-18
DQ,M,Nikolay Borodin,Николай Бородин,73.9,,,,,,-135,-135,-135,,,,,,,,,75,B,Raw,Yes,Open,34,1985-01-22
1,M,Artyom Belyaev,Артём Беляев,81.9,,,,,,110,115,120,120,,,,,,,120,82.5,B,Raw,Yes,Juniors 20-23,22,1996-08-04
1,M,Ivan Nechay,Иван Нечай,81.9,,,,,,140,-145,145,145,,,,,,,145,82.5,B,Raw,Yes,Open,25,1994-01-27
2,M,Aleksandr Matveev,Александр Матвеев,80.5,,,,,,-135,135,-140,135,,,,,,,135,82.5,B,Raw,Yes,Open,19,1999-09-17
3,M,Yuriy Nechaev,Юрий Нечаев,80.4,,,,,,-127.5,127.5,132.5,132.5,,,,,,,132.5,82.5,B,Raw,Yes,Open,27,1991-09-20
4,M,Aleksandr Antonov,Александр Антонов,80.9,,,,,,120,125,127.5,127.5,,,,,,,127.5,82.5,B,Raw,Yes,Open,29,1990-05-03
5,M,Andrey Pichugin,Андрей Пичугин,79.2,,,,,,95,-100,-100,95,,,,,,,95,82.5,B,Raw,Yes,Open,28,1990-08-04
DQ,M,Vladimir Popov,Владимир Попов,82.4,,,,,,-130,-130,-135,,,,,,,,,82.5,B,Raw,Yes,Open,33,1986-05-08
1,M,Ignat Petryashov,Игнат Петряшов,87.8,,,,,,120,-127.5,127.5,127.5,,,,,,,127.5,90,B,Raw,Yes,Teen 18-19,18,2000-09-08
1,M,Yuriy Smirnov #5,Юрий Смирнов,88.7,,,,,,-170,170,175,175,,,,,,,175,90,B,Raw,Yes,Open,35,1983-07-14
2,M,Boris Zhuravlev,Борис Журавлев,86.4,,,,,,145,152.5,157.5,157.5,,,,,,,157.5,90,B,Raw,Yes,Open,29,1990-03-02
3,M,Sergey Ryumin,Сергей Рюмин,87.7,,,,,,145,-152.5,-152.5,145,,,,,,,145,90,B,Raw,Yes,Open,34,1985-01-14
4,M,Denis Sekanov,Денис Секанов,83.9,,,,,,-132.5,132.5,140,140,,,,,,,140,90,B,Raw,Yes,Open,25,1993-07-23
5,M,Sergey Melnikov,Сергей Мельников,88.7,,,,,,125,132.5,140,140,,,,,,,140,90,B,Raw,Yes,Open,33,1985-10-21
6,M,Mikhail Kuznetsov,Михаил Кузнецов,85.6,,,,,,112.5,-122.5,-122.5,112.5,,,,,,,112.5,90,B,Raw,Yes,Open,24,1995-04-27
1,M,Oleg Kozlovskiy,Олег Козловский,88.5,,,,,,102.5,115,-117.5,115,,,,,,,115,90,B,Raw,Yes,Masters 40-44,42,1976-07-27
1,M,Kirill Trofimov,Кирилл Трофимов,99.3,,,,,,150,157.5,-165,157.5,,,,,,,157.5,100,B,Raw,Yes,Juniors 20-23,22,1997-01-29
1,M,Sergey Shamov,Сергей Шамов,97.5,,,,,,-165,165,-170,165,,,,,,,165,100,B,Raw,Yes,Open,45,1973-08-21
1,M,Sergey Shamov,Сергей Шамов,97.5,,,,,,-165,165,-170,165,,,,,,,165,100,B,Raw,Yes,Masters 45-49,45,1973-08-21
1,M,Sergey Nelaev,Сергей Нелаев,108.5,,,,,,200,-207.5,-207.5,200,,,,,,,200,110,B,Raw,Yes,Open,37,1982-03-01
2,M,Valentin Prokudin,Валентин Прокудин,103.2,,,,,,-105,110,122.5,122.5,,,,,,,122.5,110,B,Raw,Yes,Open,28,1990-09-02
1,M,Egor Lobanov,Егор Лобанов,121.8,,,,,,140,152.5,-155,152.5,,,,,,,152.5,125,B,Raw,Yes,Juniors 20-23,22,1996-08-06
1,M,Timur Shikhmagomedov,Тимур Шихмагомедов,129.3,,,,,,200,215.5,-220,215.5,,,,,,,215,140,B,Raw,Yes,Open,31,1987-07-25
2,M,Aleksandr Pestov,Александр Пестов,136,,,,,,175,182.5,-185,182.5,,,,,,,182.5,140,B,Raw,Yes,Open,33,1986-04-10
1,M,Vladimir Osipov,Владимир Осипов,66.2,,,,,,152.5,-155,-155,152.5,,,,,,,152.5,67.5,B,Raw,No,Open,33,1985-10-27
1,M,Vitaliy Menshikov,Виталий Меньшиков,82.4,,,,,,165,172.5,175,175,,,,,,,175,82.5,B,Raw,No,Open,32,1987-01-12
1,M,Sergey Surkov,Сергей Сурков,90,,,,,,180,190,-195,190,,,,,,,190,90,B,Raw,No,Open,33,1985-10-14
2,M,Aleksandr Ironov,Александр Иронов,86.7,,,,,,160,170,180,180,,,,,,,180,90,B,Raw,No,Open,32,1987-02-17
3,M,Igor Ladochkin,Игорь Ладочкин,89,,,,,,167.5,-175,-175,167.5,,,,,,,167.5,90,B,Raw,No,Open,43,1975-08-17
4,M,Andrey Artemev,Андрей Артемьев,88.5,,,,,,140,147.5,-152.5,147.5,,,,,,,147.5,90,B,Raw,No,Open,32,1986-10-02
1,M,Igor Ladochkin,Игорь Ладочкин,89,,,,,,167.5,-175,-175,167.5,,,,,,,167.5,90,B,Raw,No,Masters 40-44,43,1975-08-17
1,M,Sergey Zarubin,Сергей Зарубин,86.2,,,,,,137.5,145,-152.5,145,,,,,,,145,90,B,Raw,No,Masters 55-59,59,1959-09-13
1,M,Dmitriy Pavlov,Дмитрий Павлов,98.4,,,,,,182.5,187.5,190,190,,,,,,,190,100,B,Raw,No,Juniors 20-23,22,1996-06-11
1,M,Oleg Egorov,Олег Егоров,96.1,,,,,,210,215,-220,215,,,,,,,215,100,B,Raw,No,Open,32,1986-12-23
2,M,Roman Malyshev,Роман Малышев,93,,,,,,175,185,,185,,,,,,,185,100,B,Raw,No,Open,40,1978-08-20
1,M,Nikolay Ivanov,Николай Иванов,96.4,,,,,,177.5,185,-187.5,185,,,,,,,185,100,B,Raw,No,Masters 45-49,45,1974-03-04
1,M,Ilya Kostin,Илья Костин,107.8,,,,,,167.5,175,180,180,,,,,,,180,110,B,Raw,No,Open,36,1982-10-02
DQ,M,Artem Markov,Артем Марков,105.6,,,,,,-222.5,-222.5,-222.5,,,,,,,,,110,B,Raw,No,Open,32,1986-08-03
1,M,Andrey Baybulin,Андрей Байбулин,102.7,,,,,,180,-187.5,187.5,187.5,,,,,,,187.5,110,B,Raw,No,Masters 45-49,45,1973-09-08
1,M,Oleg Khokhlov,Олег Хохлов,121,,,,,,185,-200,-200,185,,,,,,,185,125,B,Raw,No,Open,38,1981-04-18
2,M,Anatoliy Kudryavtsev,Анатолий Кудрявцев,116.8,,,,,,155,165,-170,165,,,,,,,165,125,B,Raw,No,Open,35,1984-02-05
1,M,Nikolay Glazev,Николай Глазьев,122,,,,,,-240,247.5,-267.5,247.5,,,,,,,247.5,125,B,Single-ply,No,Open,35,1983-10-29
1,F,Nina Ryabinina,Нина Рябинина,54.9,,,,,,-75,77.5,-80,77.5,,,,,,,77.5,56,B,Single-ply,Yes,Masters 45-49,49,1970-03-19
1,M,Aleksandr Vasilev,Александр Васильев,79,,,,,,170,180,-187.5,180,,,,,,,180,82.5,B,Single-ply,Yes,Masters 45-49,45,1974-01-30
1,M,Andrey Eliseev,Андрей Елисеев,78,,,,,,165,-175,-175,165,,,,,,,165,82.5,B,Multi-ply,Yes,Open,38,1981-05-03
2,M,Yuriy Nechaev,Юрий Нечаев,80.4,,,,,,155,-175,-175,155,,,,,,,155,82.5,B,Multi-ply,Yes,Open,27,1991-09-20
3,M,Aleksandr Antonov,Александр Антонов,80.9,,,,,,140,145,152.5,152.5,,,,,,,152.5,82.5,B,Multi-ply,Yes,Open,29,1990-05-03
1,M,Evgeniy Sorokin,Евгений Сорокин,81.8,,,,,,215,225,-235,225,,,,,,,225,82.5,B,Multi-ply,Yes,Masters 40-44,42,1977-02-11
1,M,Aleksandr Marchuk,Александр Марчук,106.1,,,,,,-270,-270,270,270,,,,,,,270,110,B,Multi-ply,Yes,Open,37,1982-01-29
1,M,Igor Zvezdin,Игорь Звездин,108.4,,,,,,165,175,-180,175,,,,,,,175,110,B,Multi-ply,Yes,Masters 60-64,60,1958-08-02
1,M,Yuriy Eremin,Юрий Еремин,81.4,,,,,,230,-250,-272.5,230,,,,,,,230,82.5,B,Multi-ply,No,Open,35,1983-11-23
2,M,Anton Tereshichev,Антон Терешичев,81.3,,,,,,220,-230,-237.5,220,,,,,,,220,82.5,B,Multi-ply,No,Open,33,1986-03-31
1,M,Andrey Chebykin,Андрей Чебыкин,99.8,,,,,,300,312.5,-320,312.5,,,,,,,312.5,100,B,Multi-ply,No,Open,43,1976-03-26
2,M,Aleksey Shchigol,Алексей Щиголь,95.2,,,,,,-250,250,-265,250,,,,,,,250,100,B,Multi-ply,No,Open,33,1985-11-05
DQ,M,Valeriy Bespalikov,Валерий Беспаликов,99.3,,,,,,-300,-312.5,-312.5,,,,,,,,,100,B,Multi-ply,No,Open,38,1981-04-07
1,M,Andrey Chebykin,Андрей Чебыкин,99.8,,,,,,300,312.5,-320,312.5,,,,,,,312.5,100,B,Multi-ply,No,Masters 40-44,43,1976-03-26
1,M,Nikolay Emelyanov #1,Николай Емельянов,117.8,,,,,,310,340,350,350,,,,,,,350,125,B,Multi-ply,No,Open,39,1979-08-30
1,M,Anton Vostrikov,Антон Востриков,82.3,,,,,,140,147.5,-152.5,147.5,,,,,,,147.5,82.5,B,Raw,No,Juniors 20-23,23,1995-06-07
1,F,Lyudmila Grushina,Людмила Грушина,51.8,,,,,,,,,,,105,110,117.5,117.5,,117.5,52,D,Raw,Yes,Open,30,1988-12-15
1,F,Tatyana Dmitrieva,Татьяна Дмитриева,54.6,,,,,,,,,,,-87.5,87.5,90,90,,90,56,D,Raw,Yes,Open,27,1991-12-09
1,F,Vera Ovtina,Вера Овтина,59.5,,,,,,,,,,,125,-135,-135,125,,125,60,D,Raw,Yes,Open,24,1994-07-05
2,F,Ekaterina Dityateva,Екатерина Дитятьева,57.3,,,,,,,,,,,-120,120,-127.5,120,,120,60,D,Raw,Yes,Open,34,1984-12-15
3,F,Anastasiya Nesterova,Анастасия Нестерова,59.9,,,,,,,,,,,-90,97.5,110,110,,110,60,D,Raw,Yes,Open,28,1991-05-19
1,F,Marina Kovalskaya,Марина Ковальская,61.9,,,,,,,,,,,105,115,122.5,122.5,,122.5,67.5,D,Raw,Yes,Teen 13-15,14,2004-06-04
1,F,Marina Vlasova,Марина Власова,65.9,,,,,,,,,,,130,-140,-140,130,,130,67.5,D,Raw,Yes,Open,30,1988-10-11
1,M,Nikita Krapivin,Никита Крапивин,45.5,,,,,,,,,,,90,-97.5,100,100,,100,52,D,Raw,Yes,Teen 16-17,16,2003-04-05
1,M,Georgiy Nelaev,Георгий Нелаев,60,,,,,,,,,,,165,170,-175,170,,170,60,D,Raw,Yes,Teen 16-17,16,2003-04-05
DQ,M,Kirill Molochkov,Кирилл Молочков,73.1,,,,,,,,,,,-125,-125,,,,,75,D,Raw,Yes,Teen 13-15,13,2006-03-14
1,M,Daniil Shishkin,Даниил Шишкин,71.3,,,,,,,,,,,175,,190,190,,190,75,D,Raw,Yes,Teen 18-19,19,1999-11-12
1,M,Anton Kuznetsov,Антон Кузнецов,73.3,,,,,,,,,,,175,-182.5,,175,,175,75,D,Raw,Yes,Juniors 20-23,20,1999-04-05
1,M,Nikita Igoshev,Никита Игошев,73.5,,,,,,,,,,,170,180,190,190,,190,75,D,Raw,Yes,Open,26,1992-06-08
1,M,Dmitriy Maltsev,Дмитрий Мальцев,76.4,,,,,,,,,,,170,180,-190,180,,180,82.5,D,Raw,Yes,Teen 18-19,19,1999-07-10
1,M,Aleksandr Matveev,Александр Матвеев,80.5,,,,,,,,,,,250,-260,-260,250,,250,82.5,D,Raw,Yes,Open,19,1999-09-17
2,M,Artem Shasherin,Артем Шашерин,81.1,,,,,,,,,,,190,205,220,220,,220,82.5,D,Raw,Yes,Open,34,1984-11-08
1,M,Sergey Kokovin,Сергей Коковин,88.1,,,,,,,,,,,180,192.5,202.5,202.5,,202.5,90,D,Raw,Yes,Open,29,1990-04-24
2,M,Yuriy Ryabinin,Юрий Рябинин,85.9,,,,,,,,,,,200,-210,-210,200,,200,90,D,Raw,Yes,Open,38,1980-08-03
1,M,Aleksandr Kornilenko,Александр Корниленко,88.5,,,,,,,,,,,205,-217.5,217.5,217.5,,217.5,90,D,Raw,Yes,Masters 40-44,43,1975-09-27
1,M,Denis Nikolaenko,Денис Николаенко,99,,,,,,,,,,,225,240,250,250,,250,100,D,Raw,Yes,Juniors 20-23,21,1997-10-12
1,M,Yuriy Murin,Юрий Мурин,99.6,,,,,,,,,,,200,-215,-217.5,200,,200,100,D,Raw,Yes,Open,29,1989-12-06
1,M,Sergey Ryzhov,Сергей Рыжов,98.7,,,,,,,,,,,-230,-230,240,240,,240,100,D,Raw,Yes,Masters 40-44,41,1977-07-28
1,M,Elvin Samedov,Эльвин Самедов,81.4,,,,,,,,,,,170,180,195,195,,195,82.5,D,Raw,No,Open,26,1993-02-16
1,M,Sergey Surkov,Сергей Сурков,90,,,,,,,,,,,285,295,302.5,302.5,,302.5,90,D,Raw,No,Open,33,1985-10-14
2,M,Artem Popov,Артем Попов,90,,,,,,,,,,,280,290,-300,290,,290,90,D,Raw,No,Open,28,1991-04-08
3,M,Andrey Starov,Андрей Старов,87,,,,,,,,,,,225,235,250,250,,250,90,D,Raw,No,Open,34,1984-11-07
1,M,Dmitriy Pavlov,Дмитрий Павлов,98.4,,,,,,,,,,,307.5,317.5,-325,317.5,,317.5,100,D,Raw,No,Juniors 20-23,22,1996-06-11
1,M,Dmitriy Pavlov,Дмитрий Павлов,98.4,,,,,,,,,,,307.5,317.5,-325,317.5,,317.5,100,D,Raw,No,Open,22,1996-06-11
2,M,Sergey Moiseev,Сергей Моисеев,100,,,,,,,,,,,250,-270,-270,250,,250,100,D,Raw,No,Open,41,1977-08-24
1,M,Artem Krot,Артем Крот,106.4,,,,,,,,,,,340,355,365,365,,365,110,D,Raw,No,Open,23,1995-10-03
