Division,WeightClassKg,Place,Name,Team,BodyweightKg,Best3SquatKg,Best3BenchKg,Best3DeadliftKg,TotalKg,Equipment,Event,Sex
Boys,51.71,1,Michael Vargas,Beaumont West Brook,48.08,113.4,61.23,113.4,288.03,Single-ply,SBD,M
Boys,51.71,2,Tyler Carlson,New Caney,50.44,95.25,43.09,92.99,231.33,Single-ply,SBD,M
Boys,51.71,3,Walker Windt,Shepherd,47.26,92.99,31.75,83.91,208.65,Single-ply,SBD,M
Boys,51.71,4,Rojae Kizzee,Trinity,49.44,68.04,43.09,92.99,204.12,Single-ply,SBD,M
Boys,55.79,1,Ethan Torres,New Caney,54.16,145.15,79.38,129.27,353.8,Single-ply,SBD,M
Boys,55.79,2,Mykal Vera,Corrigan-Camden,54.25,138.35,65.77,136.08,340.19,Single-ply,SBD,M
Boys,55.79,3,Oscar Puente,New Caney,55.07,120.2,74.84,145.15,340.19,Single-ply,SBD,M
Boys,55.79,4,Doriyan Allen,New Caney Porter,53.07,108.86,70.31,120.2,299.37,Single-ply,SBD,M
Boys,55.79,5,Don Dana,Shepherd,53.89,113.4,68.04,104.33,285.76,Single-ply,SBD,M
Boys,59.87,1,Clayton Coogler,Shepherd,59.42,161.03,90.72,151.95,403.7,Single-ply,SBD,M
Boys,59.87,2,Will Whitaker,Shepherd,58.6,129.27,83.91,136.08,349.27,Single-ply,SBD,M
Boys,59.87,3,Dario Santilan,New Caney,56.06,124.74,77.11,136.08,337.93,Single-ply,SBD,M
Boys,59.87,4,Josh Krumrey,New Caney,57.79,108.86,68.04,133.81,310.71,Single-ply,SBD,M
Boys,59.87,5,Casey Avallaneda,Splendora,58.97,106.59,74.84,127.01,308.44,Single-ply,SBD,M
Boys,59.87,6,Alan Ramierez,Beaumont West Brook,59.87,104.33,61.23,124.74,290.3,Single-ply,SBD,M
Boys,59.87,7,James Hight,Corrigan-Camden,59.51,106.59,52.16,115.67,274.42,Single-ply,SBD,M
Boys,59.87,DQ,Ethan Garsee,Livingston,59.87,,,,,Single-ply,SBD,M
Boys,67.13,1,Emmanuel Walker,Corrigan-Camden,65.32,201.85,108.86,226.8,537.51,Single-ply,SBD,M
Boys,67.13,2,DeMarcus Coleman,Beaumont West Brook,67.04,217.72,106.59,183.7,508.02,Single-ply,SBD,M
Boys,67.13,3,Aundrea Holmes,Trinity,60.51,197.31,104.33,183.7,485.34,Single-ply,SBD,M
Boys,67.13,4,DJ Stewart,Crosby,67.04,181.44,113.4,183.7,478.54,Single-ply,SBD,M
Boys,67.13,5,Cameron Collier #2,Willis,67.13,167.83,104.33,190.51,462.66,Single-ply,SBD,M
Boys,67.13,6,Gustavo Heredia,Corrigan-Camden,66.41,145.15,86.18,142.88,374.21,Single-ply,SBD,M
Boys,67.13,7,Enoc Villagomez,Conroe Caney Creek,63.59,133.81,79.38,138.35,351.53,Single-ply,SBD,M
Boys,67.13,8,Geronimo Torres,New Caney,67.13,111.13,77.11,158.76,347,Single-ply,SBD,M
Boys,67.13,9,Damon Claywell,Shepherd,66.32,127.01,77.11,124.74,328.85,Single-ply,SBD,M
Boys,67.13,10,Shelton Vasquez,Shepherd,60.6,124.74,61.23,129.27,315.25,Single-ply,SBD,M
Boys,67.13,11,Joseph Simpson,Beaumont West Brook,60.06,113.4,58.97,138.35,310.71,Single-ply,SBD,M
Boys,67.13,DQ,Erin Esquivel,Conroe Caney Creek,67.13,,,,,Single-ply,SBD,M
Boys,67.13,DQ,Justin Legg,Livingston,67.13,,,,,Single-ply,SBD,M
Boys,67.13,DQ,Aj Walker,Livingston,66.68,,,,,Single-ply,SBD,M
Boys,67.13,DQ,Jace Halbaedier,Willis,67.13,,,,,Single-ply,SBD,M
Boys,67.13,DQ,Cole Goodrum,Splendora,67.13,136.08,,,,Single-ply,SBD,M
Boys,74.84,1,Ivan Fuentes,Willis,70.58,206.38,115.67,208.65,530.7,Single-ply,SBD,M
Boys,74.84,2,Adrian Blanton,Conroe Caney Creek,73.39,204.12,117.93,185.97,508.02,Single-ply,SBD,M
Boys,74.84,3,Malik Griffin,Crosby,72.48,188.24,102.06,204.12,494.42,Single-ply,SBD,M
Boys,74.84,4,Jacob Duncan,Conroe Caney Creek,70.76,190.51,104.33,185.97,480.81,Single-ply,SBD,M
Boys,74.84,5,Joel Dees,Trinity,74.84,156.49,111.13,179.17,446.79,Single-ply,SBD,M
Boys,74.84,6,Kobi Poage,Corrigan-Camden,70.76,158.76,102.06,183.7,444.52,Single-ply,SBD,M
Boys,74.84,7,Ty McCarver,Willis,73.12,188.24,70.31,183.7,442.25,Single-ply,SBD,M
Boys,74.84,8,Spencer Holliman,New Caney Porter,69.76,172.37,106.59,151.95,430.91,Single-ply,SBD,M
Boys,74.84,9,Thomas Paprocki,New Caney Porter,70.03,170.1,83.91,158.76,412.77,Single-ply,SBD,M
Boys,74.84,10,Landen Holman,Crosby,68.76,147.42,90.72,158.76,396.89,Single-ply,SBD,M
Boys,74.84,11,Elizjah Scruggs,Coldspring-Oakhurst,71.94,142.88,95.25,158.76,396.89,Single-ply,SBD,M
Boys,74.84,12,JaMarcus Brown,Livingston,69.58,158.76,72.57,156.49,387.82,Single-ply,SBD,M
Boys,74.84,13,Andrew Hernandez,Splendora,70.31,136.08,90.72,145.15,371.95,Single-ply,SBD,M
Boys,74.84,14,Michael Goodson,Shepherd,70.49,140.61,72.57,151.95,365.14,Single-ply,SBD,M
Boys,74.84,15,Brett Jackson,Beaumont West Brook,73.57,111.13,52.16,165.56,328.85,Single-ply,SBD,M
Boys,74.84,DQ,Chad Currie,Coldspring-Oakhurst,74.84,,,,,Single-ply,SBD,M
Boys,74.84,DQ,Dillon Bronzoulis,New Caney,74.84,,,,,Single-ply,SBD,M
Boys,74.84,DQ,Dounel Esconde,New Caney Porter,74.84,,,,,Single-ply,SBD,M
Boys,74.84,DQ,Austin Tullos,Splendora,69.4,127.01,,,,Single-ply,SBD,M
Boys,74.84,DQ,Tay Dennis,Willis,74.75,136.08,,,,Single-ply,SBD,M
Boys,82.1,1,Dominic Wilson,Livingston,81.37,192.78,129.27,215.46,537.51,Single-ply,SBD,M
Boys,82.1,2,Jonathan Sims,Crosby,81.28,199.58,97.52,204.12,501.22,Single-ply,SBD,M
Boys,82.1,3,Tyler Lindley,Coldspring-Oakhurst,81.01,197.31,102.06,195.04,494.42,Single-ply,SBD,M
Boys,82.1,4,Micah Legg,Livingston,80.01,183.7,102.06,183.7,469.47,Single-ply,SBD,M
Boys,82.1,5,Cameron Carson,Shepherd,75.21,165.56,97.52,170.1,433.18,Single-ply,SBD,M
Boys,82.1,6,Daniel Vasquez,Shepherd,81.28,156.49,106.59,156.49,419.57,Single-ply,SBD,M
Boys,82.1,7,Brice Major,Shepherd,80.01,131.54,90.72,142.88,365.14,Single-ply,SBD,M
Boys,82.1,8,Zachary Seal,Splendora,81.37,111.13,61.23,102.06,274.42,Single-ply,SBD,M
Boys,82.1,DQ,Sebastian Maldonado,Trinity,82.1,,,,,Single-ply,SBD,M
Boys,82.1,DQ,Andy Garcia,Trinity,82.1,,,,,Single-ply,SBD,M
Boys,89.81,1,Darren Muirhead,Coldspring-Oakhurst,89.09,235.87,138.35,219.99,594.21,Single-ply,SBD,M
Boys,89.81,2,Richard Garza,Beaumont West Brook,87.54,208.65,138.35,219.99,566.99,Single-ply,SBD,M
Boys,89.81,3,Alan Casper,Corrigan-Camden,83.91,226.8,106.59,226.8,560.19,Single-ply,SBD,M
Boys,89.81,4,Jaylon Hunt,Corrigan-Camden,87.18,204.12,115.67,226.8,546.58,Single-ply,SBD,M
Boys,89.81,5,Chris Garcia #11,Conroe Caney Creek,88,204.12,102.06,222.26,528.44,Single-ply,SBD,M
Boys,89.81,6,Sean Crabtree,Trinity,86.64,183.7,136.08,206.38,526.17,Single-ply,SBD,M
Boys,89.81,7,Caleb Monroe,Coldspring-Oakhurst,89.27,183.7,108.86,195.04,487.61,Single-ply,SBD,M
Boys,89.81,8,Tim Camp,Crosby,88.36,151.95,108.86,192.78,453.59,Single-ply,SBD,M
Boys,89.81,9,Marco Martínez,Corrigan-Camden,84.73,181.44,90.72,140.61,412.77,Single-ply,SBD,M
Boys,89.81,10,Joshua Flores,Conroe Caney Creek,87.72,158.76,102.06,149.69,410.5,Single-ply,SBD,M
Boys,89.81,11,Logan Brown,Splendora,82.74,145.15,102.06,133.81,381.02,Single-ply,SBD,M
Boys,89.81,12,Collin Rhodes #2,Splendora,85.73,142.88,97.52,138.35,378.75,Single-ply,SBD,M
Boys,99.79,1,Brandon Diaz,Crosby,97.7,272.16,151.95,240.4,664.51,Single-ply,SBD,M
Boys,99.79,2,Gabe Garcia,Conroe Caney Creek,96.43,244.94,151.95,238.14,635.03,Single-ply,SBD,M
Boys,99.79,3,Brandon Phillips,Trinity,98.79,217.72,167.83,204.12,589.67,Single-ply,SBD,M
Boys,99.79,4,Zyhon Bell,New Caney Porter,99.61,226.8,138.35,204.12,569.26,Single-ply,SBD,M
Boys,99.79,5,Leondre Smith,Crosby,94.08,226.8,124.74,192.78,544.31,Single-ply,SBD,M
Boys,99.79,6,Riley Orn,Coldspring-Oakhurst,93.98,199.58,129.27,201.85,530.7,Single-ply,SBD,M
Boys,99.79,7,Tyrese Simpson,Crosby,99.79,170.1,124.74,192.78,487.61,Single-ply,SBD,M
Boys,99.79,8,Jack Jordan,Coldspring-Oakhurst,92.8,199.58,97.52,188.24,485.34,Single-ply,SBD,M
Boys,99.79,9,Zane Nelson,Willis,96.98,174.63,111.13,165.56,451.32,Single-ply,SBD,M
Boys,99.79,10,Aaron Foster,Crosby,94.26,165.56,95.25,181.44,442.25,Single-ply,SBD,M
Boys,99.79,11,Josh Moore,Beaumont West Brook,99.43,172.37,83.91,176.9,433.18,Single-ply,SBD,M
Boys,99.79,12,Jessie Herrera,Willis,98.79,154.22,77.11,167.83,399.16,Single-ply,SBD,M
Boys,99.79,13,Cole Casper,Corrigan-Camden,92.8,145.15,86.18,158.76,390.09,Single-ply,SBD,M
Boys,99.79,14,Jackson Ellingburg,Shepherd,93.35,117.93,58.97,142.88,319.78,Single-ply,SBD,M
Boys,99.79,DQ,Jordan Lewis,New Caney Porter,99.79,,,,,Single-ply,SBD,M
Boys,99.79,DQ,Garrett King,Trinity,99.79,,,,,Single-ply,SBD,M
Boys,99.79,DQ,JaJuan Arnold,Beaumont West Brook,99.79,,,,,Single-ply,SBD,M
Boys,99.79,DQ,Cameron Burleson,Coldspring-Oakhurst,99.7,,,,,Single-ply,SBD,M
Boys,99.79,DQ,Ethan Robins,Conroe Caney Creek,97.34,235.87,,,,Single-ply,SBD,M
Boys,109.77,1,Caleb Richardson,New Caney,101.33,258.55,151.95,244.94,655.44,Single-ply,SBD,M
Boys,109.77,2,Alec Genera,New Caney,108.59,226.8,138.35,195.04,560.19,Single-ply,SBD,M
Boys,109.77,3,Clayton Frank,Splendora,100.7,204.12,113.4,210.92,528.44,Single-ply,SBD,M
Boys,109.77,4,Blaine Berry,Crosby,101.6,142.88,111.13,181.44,435.45,Single-ply,SBD,M
Boys,109.77,5,Orlando Ramirez,Corrigan-Camden,107.5,190.51,79.38,163.29,433.18,Single-ply,SBD,M
Boys,109.77,6,Tyler Thomas,Crosby,103.42,158.76,90.72,181.44,430.91,Single-ply,SBD,M
Boys,109.77,7,Mark Bradley,Coldspring-Oakhurst,105.69,170.1,102.06,158.76,430.91,Single-ply,SBD,M
Boys,109.77,8,Chase Wroten,Willis,108.05,163.29,88.45,158.76,410.5,Single-ply,SBD,M
Boys,109.77,DQ,Devorriay Anderson,Trinity,109.77,,,,,Single-ply,SBD,M
Boys,109.77,DQ,Mario Maldanado,Splendora,109.77,,,,,Single-ply,SBD,M
Boys,109.77,DQ,Shelton Munger,New Caney Porter,109.77,,,,,Single-ply,SBD,M
Boys,109.77,DQ,Daniel Spangler,New Caney Porter,109.77,,,,,Single-ply,SBD,M
Boys,109.77,DQ,David Alsip,Conroe Caney Creek,109.77,,,,,Single-ply,SBD,M
Boys,124.74,1,Marcus Garza,Conroe Caney Creek,114.76,328.85,181.44,260.82,771.11,Single-ply,SBD,M
Boys,124.74,2,Kyle Weber,Splendora,118.57,272.16,181.44,229.06,682.66,Single-ply,SBD,M
Boys,124.74,3,Nathaniel Sandoval,Conroe Caney Creek,120.2,272.16,183.7,224.53,680.39,Single-ply,SBD,M
Boys,124.74,4,Gio Garcia,Trinity,114.76,217.72,170.1,192.78,580.6,Single-ply,SBD,M
Boys,124.74,5,Chayse Todd,Crosby,121.56,204.12,136.08,226.8,566.99,Single-ply,SBD,M
Boys,124.74,6,Tyler Talavera,New Caney Porter,119.29,201.85,142.88,192.78,537.51,Single-ply,SBD,M
Boys,124.74,7,Justin Capps,Shepherd,110.5,183.7,108.86,183.7,476.27,Single-ply,SBD,M
Boys,124.74,8,Kimball Jones,Beaumont West Brook,117.93,183.7,115.67,165.56,464.93,Single-ply,SBD,M
Boys,124.74,9,Tramell White,Crosby,120.56,181.44,102.06,181.44,464.93,Single-ply,SBD,M
Boys,124.74+,1,Kendall Major,Beaumont West Brook,125.19,285.76,151.95,226.8,664.51,Single-ply,SBD,M
Boys,124.74+,2,Tre'Veon Hitchens,New Caney Porter,131.27,233.6,122.47,215.46,571.53,Single-ply,SBD,M
Boys,124.74+,3,Michael Flores #5,Conroe Caney Creek,150.59,226.8,136.08,154.22,517.1,Single-ply,SBD,M
Boys,124.74+,4,Chris Chavis,Beaumont West Brook,132.18,206.38,111.13,190.51,508.02,Single-ply,SBD,M
Boys,124.74+,5,Cameron Morris,Livingston,146.06,192.78,120.2,192.78,505.76,Single-ply,SBD,M
Boys,124.74+,6,Ben Buruca,New Caney,146.69,147.42,113.4,208.65,469.47,Single-ply,SBD,M
Boys,124.74+,7,Cj Thomas,Livingston,125.19,174.63,120.2,170.1,464.93,Single-ply,SBD,M
Boys,124.74+,DQ,Aaron Smith,Corrigan-Camden,125.19,,,,,Single-ply,SBD,M
Boys,124.74+,DQ,Mason Hicks,Willis,125.19,,,,,Single-ply,SBD,M
