Place,Sex,Name,CyrillicName,BodyweightKg,Deadlift1Kg,Deadlift2Kg,Deadlift3Kg,Best3DeadliftKg,Deadlift4Kg,TotalKg,WeightClassKg,Event,Equipment,Tested,Bench1Kg,Bench2Kg,Bench3Kg,Best3BenchKg,Bench4Kg,Squat1Kg,Squat2Kg,Squat3Kg,Best3SquatKg,Squat4Kg,Division,BirthDate
1,M,Vadim Anishchenko,Вадим Анищенко,100,220,,,220,,220,100,D,Unlimited,No,,,,,,,,,,,Pro Masters 45-49,1971-03-29
1,M,Denis Ryadinskiy,Денис Рядинский,82.5,,,,,,207.5,82.5,B,Unlimited,No,195,202.5,207.5,207.5,,,,,,,Pro Open,1985-07-06
1,M,Vadim Anishchenko,Вадим Анищенко,100,,,,,,205,100,B,Unlimited,No,205,,,205,,,,,,,Pro Masters 45-49,1971-03-29
1,F,Veronika Safonova,Вероника Сафонова,34,50,-55,60,60,62.5,150,44,SBD,Unlimited,No,30,35,-37.5,35,,50,55,-60,55,,Pro Teen 13,2004-08-12
1,M,Vadim Anishchenko,Вадим Анищенко,100,200,210,220,220,,605,100,SBD,Unlimited,No,195,205,-215,205,,160,170,180,180,,Pro Masters 45-49,1971-03-29
1,M,Andrey Vashchuk,Андрей Ващук,97.2,180,195,,195,,515,100,SBD,Unlimited,No,150,-165,-165,150,,-170,170,-185,170,,Pro Masters 55-59,1960-06-28
1,F,Margarita Galaktionova,Маргарита Галактионова,51.45,155,-165,-165,155,,155,52,D,Single-ply,No,,,,,,,,,,,Pro Open,1991-03-01
1,M,Vladimir Tarasov,Владимир Тарасов,78.9,210,220,227.5,227.5,,227.5,82.5,D,Single-ply,No,,,,,,,,,,,Pro Teen 18-19,1998-01-06
1,M,Ramazan Rakhimyanov,Рамазан Рахимьянов,89.3,135,145,150,150,,150,90,D,Single-ply,No,,,,,,,,,,,Pro Teen 14-15,2001-05-06
1,F,Olga Petrichenko,Ольга Петриченко,50.5,,,,,,110,52,S,Raw,No,,,,,,110,,,110,,Pro Open,1985-12-21
1,M,Aleksandr Anichkin,Александр Аничкин,86.1,,,,,,175,90,S,Raw,No,,,,,,175,-180,-180,175,,Pro Open,1991-02-25
1,M,Evgeniy Varshavskiy,Евгений Варшавский,62.2,,,,,,142.5,67.5,B,Single-ply,No,135,142.5,,142.5,,,,,,,Pro Open,1989-08-21
1,M,Vladimr Tarasov,Владимр Тарасов,78.9,,,,,,142.5,82.5,B,Single-ply,No,137.5,142.5,-147.5,142.5,,,,,,,Pro Teen 18-19,1998-01-06
1,M,Aleksey Figol,Алексей Фиголь,96.55,,,,,,182.5,100,B,Single-ply,No,180,-182.5,182.5,182.5,,,,,,,Pro Open,1973-01-26
2,M,Sergey Komkov,Сергей Комков,95,,,,,,180,100,B,Single-ply,No,170,-180,180,180,,,,,,,Pro Open,1987-06-12
1,M,Aleksey Figol,Алексей Фиголь,96.55,,,,,,182.5,100,B,Single-ply,No,180,-182.5,182.5,182.5,,,,,,,Pro Masters 40-44,1973-01-26
1,F,Natalya Krikunova,Наталья Крикунова,47.5,95,-107.5,-107.5,95,,95,48,D,Raw,No,,,,,,,,,,,Pro Open,1986-11-17
1,F,Elizaveta Salasina,Елизавета Саласина,52,120,,,120,,120,52,D,Raw,No,,,,,,,,,,,Pro Teen 14-15,2001-12-28
1,F,Olga Petrichenko,Ольга Петриченко,50.5,110,120,-130,120,,120,52,D,Raw,No,,,,,,,,,,,Pro Open,1985-12-21
1,F,Elina Rikman,Элина Рикман,55.4,115,,,115,,115,56,D,Raw,No,,,,,,,,,,,Pro Teen 16-17,1999-07-03
1,F,Anastasiya Dzhulay,Анастасия Джулай,55,100,107.5,,107.5,,107.5,56,D,Raw,No,,,,,,,,,,,Pro Open,1985-03-25
1,F,Elvira Fettaeva,Эльвира Феттаева,60,-125,125,-135,125,,125,60,D,Raw,No,,,,,,,,,,,Pro Juniors 20-23,1995-08-29
1,F,Elena Pecherskaya,Елена Печерская,64.8,115,120,125,125,,125,67.5,D,Raw,No,,,,,,,,,,,Pro Open,1991-02-08
1,F,Angelina Govorunova,Ангелина Говорунова,77.6,90,100,-105,100,,100,82.5,D,Raw,No,,,,,,,,,,,Pro Teen 16-17,2000-09-04
DQ,M,Evgeniy Varshavskiy,Евгений Варшавский,62.2,-215,-215,,,,,67.5,D,Raw,No,,,,,,,,,,,Pro Open,1989-08-21
DQ,M,Aleksandr Dambinov,Александр Дамбинов,65.9,-150,-150,,,,,67.5,D,Raw,No,,,,,,,,,,,Pro Masters 80+,1936-03-12
1,M,Roman Alyabev,Роман Алябьев,69.7,195,205,212.5,212.5,,212.5,75,D,Raw,No,,,,,,,,,,,Pro Juniors 20-23,1993-12-22
1,M,Andrey Tsyganko,Андрей Цыганко,81.4,80,90,100,100,,100,82.5,D,Raw,No,,,,,,,,,,,Pro Teen 13,2003-09-09
1,M,Evgeniy Beskhlebnyy,Евгений Бесхлебный,78,165,170,180,180,,180,82.5,D,Raw,No,,,,,,,,,,,Pro Juniors 20-23,1993-08-30
1,M,Maksim Berdnikov,Максим Бердников,85.5,205,225,230,230,,230,90,D,Raw,No,,,,,,,,,,,Pro Teen 16-17,2000-01-14
1,M,Konstantin Musienko,Константин Мусиенко,87.9,247.5,,,247.5,,247.5,90,D,Raw,No,,,,,,,,,,,Pro Open,1989-07-19
2,M,Dmitriy Marchenko,Дмитрий Марченко,86.9,170,180,-197.5,180,,180,90,D,Raw,No,,,,,,,,,,,Pro Open,1986-11-21
3,M,Aleksey Stepkin,Алексей Степкин,87.1,180,-190,,180,,180,90,D,Raw,No,,,,,,,,,,,Pro Open,1978-04-24
1,M,Viktor Samoylov,Виктор Самойлов,99.4,275,290,-305,290,,290,100,D,Raw,No,,,,,,,,,,,Pro Teen 18-19,1997-09-25
1,M,Andrey Nefedov,Андрей Нефедов,104.4,-230,242.5,-260,242.5,,242.5,110,D,Raw,No,,,,,,,,,,,Pro Open,1975-03-16
2,M,Aleksandr Tyutyunnik,Александр Тютюнник,105,205,215,225,225,,225,110,D,Raw,No,,,,,,,,,,,Pro Open,1984-05-16
1,M,Sergey Kirilenko,Сергей Кириленко,115.9,210,220,230,230,,230,125,D,Raw,No,,,,,,,,,,,Pro Juniors 20-23,1995-05-25
1,M,Maksim Ochkalov,Максим Очкалов,121.2,250,,,250,,250,125,D,Raw,No,,,,,,,,,,,Pro Open,1989-05-03
1,F,Elizaveta Voronova,Елизавета Воронова,42.5,,,,,,62.5,44,B,Raw,No,55,62.5,-65,62.5,,,,,,,Pro Teen 16-17,2000-06-09
1,F,Irina Ernandes,Ирина Эрнандес,50.75,,,,,,62.5,52,B,Raw,No,55,60,62.5,62.5,,,,,,,Pro Juniors 20-23,1994-01-24
1,F,Marina Mamatova,Марина Маматова,51.5,,,,,,47.5,52,B,Raw,No,42.5,47.5,-50,47.5,,,,,,,Pro Masters 40-44,1976-08-14
1,F,Sofya Korobitsina,Софья Коробицина,56,,,,,,57.5,56,B,Raw,No,-52.5,52.5,57.5,57.5,,,,,,,Pro Teen 18-19,1999-04-28
2,F,Anna Mikhaylova,Анна Михайлова,53.8,,,,,,50,56,B,Raw,No,45,50,-57.5,50,,,,,,,Pro Teen 16-17,2000-03-28
1,F,Irina Morozova,Ирина Морозова,55.4,,,,,,70,56,B,Raw,No,70,-75,,70,,,,,,,Pro Open,1987-01-24
2,F,Shakhnoza Goncharova,Шахноза Гончарова,55.6,,,,,,62.5,56,B,Raw,No,57.5,62.5,-67.5,62.5,,,,,,,Pro Open,1990-11-08
1,F,Yuliya Aksenova,Юлия Аксенова,64.1,,,,,,60,67.5,B,Raw,No,57.5,60,-62.5,60,,,,,,,Pro Teen 16-17,1999-06-25
1,F,Kseniya Davydova,Ксения Давыдова,65.2,,,,,,57.5,67.5,B,Raw,No,55,57.5,-60,57.5,,,,,,,Pro Juniors 20-23,1995-09-04
DQ,F,Alla Kalinichenko,Алла Калиниченко,67.2,,,,,,,67.5,B,Raw,No,-90,-95,,,,,,,,,Pro Masters 45-49,1971-04-08
1,M,Georgiy Pavlyk,Георгий Павлык,65.15,,,,,,55,67.5,B,Raw,No,47.5,52.5,55,55,,,,,,,Pro Teen 13,2003-06-18
1,M,Vladimir Dranev,Владимир Дранев,64.95,,,,,,125,67.5,B,Raw,No,117.5,125,-127.5,125,,,,,,,Pro Teen 18-19,1997-07-24
2,M,Alik Khoshimov,Алик Хошимов,67.45,,,,,,100,67.5,B,Raw,No,-100,100,-105,100,,,,,,,Pro Teen 18-19,1998-05-22
1,M,Dmitriy Tryastsin,Дмитрий Трясцин,66.7,,,,,,120,67.5,B,Raw,No,120,-125,-125,120,,,,,,,Pro Juniors 20-23,1996-01-16
1,M,Evgeniy Varshavskiy,Евгений Варшавский,62.2,,,,,,115,67.5,B,Raw,No,115,-122.5,-127.5,115,,,,,,,Pro Open,1989-08-21
1,M,Aleksandr Dambinov,Александр Дамбинов,65.9,,,,,,65,67.5,B,Raw,No,65,,,65,,,,,,,Pro Masters 80+,1936-03-12
1,M,Evgeniy Shuteev,Евгений Шутеев,72.1,,,,,,75,75,B,Raw,No,75,-85,-85,75,,,,,,,Pro Teen 14-15,2002-10-30
1,M,Dmitriy Yanenko,Дмитрий Яненко,68.75,,,,,,82.5,75,B,Raw,No,75,82.5,-85,82.5,,,,,,,Pro Teen 16-17,2000-01-16
1,M,Vladislav Vashchenko,Владислав Ващенко,72.15,,,,,,120,75,B,Raw,No,110,120,-125,120,,,,,,,Pro Juniors 20-23,1996-08-05
2,M,Petr Belov,Петр Белов,69.85,,,,,,80,75,B,Raw,No,80,-90,-90,80,,,,,,,Pro Juniors 20-23,1994-03-08
1,M,Aleksandr Volodko,Александр Володько,73.55,,,,,,125,75,B,Raw,No,125,-137.5,-137.5,125,,,,,,,Pro Open,1980-07-12
2,M,Ruslan Aslanov,Руслан Асланов,74.5,,,,,,125,75,B,Raw,No,-125,125,-127.5,125,,,,,,,Pro Open,1992-05-05
1,M,Sergey Rudychev,Сергей Рудычев,72.1,,,,,,125,75,B,Raw,No,-120,125,-130,125,,,,,,,Pro Masters 40-44,1974-06-08
1,M,Aleksandr Tatarkin,Александр Татаркин,73,,,,,,130,75,B,Raw,No,120,125,130,130,,,,,,,Pro Masters 60-64,1955-08-16
1,M,Andrey Shushpanov,Андрей Шушпанов,79.35,,,,,,147.5,82.5,B,Raw,No,145,147.5,-150,147.5,,,,,,,Pro Open,1979-06-01
2,M,Aleksandr Eremenko,Александр Еременко,80,,,,,,130,82.5,B,Raw,No,120,-130,130,130,,,,,,,Pro Open,1991-03-27
3,M,Maksim Olegov,Максим Олегов,82.2,,,,,,120,82.5,B,Raw,No,110,-120,120,120,,,,,,,Pro Open,1985-04-14
1,M,Ramazan Rakhimyanov,Рамазан Рахимьянов,89.3,,,,,,125,90,B,Raw,No,-125,125,-130,125,,,,,,,Pro Teen 14-15,2001-05-06
1,M,Dmitriy Musatov,Дмитрий Мусатов,88.55,,,,,,125,90,B,Raw,No,115,-120,125,125,,,,,,,Pro Teen 16-17,1999-08-17
1,M,Roman Shipilov,Роман Шипилов,84.35,,,,,,150,90,B,Raw,No,140,150,-155,150,,,,,,,Pro Teen 18-19,1998-06-04
1,M,Andrey Konovalov #5,Андрей Коновалов,85.85,,,,,,130,90,B,Raw,No,130,-135,-135,130,,,,,,,Pro Juniors 20-23,1996-10-31
1,M,Mikhail Kulikov,Михаил Куликов,88.9,,,,,,147.5,90,B,Raw,No,140,147.5,-155,147.5,,,,,,,Pro Open,1989-10-09
2,M,Sergey Myulgaupt,Сергей Мюльгаупт,89.4,,,,,,135,90,B,Raw,No,125,135,-145,135,,,,,,,Pro Open,1984-11-27
3,M,Valeriy Kovalev,Валерий Ковалев,83.7,,,,,,122.5,90,B,Raw,No,115,122.5,-125,122.5,,,,,,,Pro Open,1981-02-04
DQ,M,Aleksandr Anichkin,Александр Аничкин,86.1,,,,,,,90,B,Raw,No,-130,-130,-130,,,,,,,,Pro Open,1991-02-25
DQ,M,Dmitriy Marchenko,Дмитрий Марченко,86.85,,,,,,,90,B,Raw,No,-130,-130,-130,,,,,,,,Pro Open,1986-11-21
DQ,M,Roman Anisimov,Роман Анисимов,88,,,,,,,90,B,Raw,No,-125,-135,-135,,,,,,,,Pro Open,1984-02-05
1,M,Evgeniy Beltyukov,Евгений Бельтюков,89.25,,,,,,150,90,B,Raw,No,150,,,150,,,,,,,Pro Masters 40-44,1976-07-30
1,M,Evgeniy Gritskov,Евгений Грицков,97,,,,,,155,100,B,Raw,No,145,155,-162.5,155,,,,,,,Pro Open,1984-06-28
2,M,Vasiliy Shekhovtsov,Василий Шеховцов,95,,,,,,142.5,100,B,Raw,No,142.5,-150,-150,142.5,,,,,,,Pro Open,1986-08-28
3,M,Sergey Komkov,Сергей Комков,95,,,,,,140,100,B,Raw,No,125,132.5,140,140,,,,,,,Pro Open,1987-06-12
1,M,Dmitriy Timofeev,Дмитрий Тимофеев,97.75,,,,,,172.5,100,B,Raw,No,167.5,172.5,-177.5,172.5,,,,,,,Pro Masters 40-44,1976-08-29
2,M,Yuriy Glushchenko,Юрий Глущенко,98.7,,,,,,150,100,B,Raw,No,150,-155,-155,150,,,,,,,Pro Masters 45-49,1972-04-02
1,M,Viktor Ishchenko,Виктор Ищенко,98.4,,,,,,115,100,B,Raw,No,100,110,115,115,,,,,,,Pro Masters 70-74,1947-02-12
1,M,Dmitriy Tkalenko,Дмитрий Ткаленко,106.3,,,,,,180,110,B,Raw,No,180,-187.5,-187.5,180,,,,,,,Pro Juniors 20-23,1996-09-17
1,M,Igor Drozdov,Игорь Дроздов,109,,,,,,167.5,110,B,Raw,No,160,167.5,-172.5,167.5,,,,,,,Pro Masters 40-44,1977-02-14
2,M,Evgeniy Dobrolezha,Евгений Добролежа,107.5,,,,,,145,110,B,Raw,No,140,145,-152.5,145,,,,,,,Pro Masters 40-44,1976-06-28
DQ,M,Valentin Prokopev,Валентин Прокопьев,109.9,,,,,,,110,B,Raw,No,-167.5,-167.5,-167.5,,,,,,,,Pro Masters 40-44,1973-08-30
1,M,Viktor Tolstykh,Виктор Толстых,107.2,,,,,,150,110,B,Raw,No,-150,-150,150,150,,,,,,,Pro Masters 50-54,1965-06-07
1,M,Yuriy Komanov,Юрій Команов,104.9,,,,,,120,110,B,Raw,No,115,120,-125,120,,,,,,,Pro Masters 55-59,1961-06-28
1,M,Dmytro Gosman,Дмитро Госман,124.7,,,,,,197.5,125,B,Raw,No,190,197.5,-202.5,197.5,,,,,,,Pro Juniors 20-23,1993-05-22
1,M,Petr Savitskikh,Петр Савицких,125,,,,,,160,125,B,Raw,No,145,155,160,160,,,,,,,Pro Open,1983-05-24
2,M,Maksim Ochkalov,Максим Очкалов,121.2,,,,,,155,125,B,Raw,No,155,,,155,,,,,,,Pro Open,1989-05-03
1,M,Vladimir Chubarov,Владимир Чубаров,121.1,,,,,,170,125,B,Raw,No,162.5,170,-177.5,170,,,,,,,Pro Masters 50-54,1964-04-03
DQ,F,Olga Petrichenko,Ольга Петриченко,50.5,-110,,,,,,52,SBD,Raw,No,-57.5,-57.5,-57.5,,,100,-110,110,110,,Pro Open,1985-12-21
1,F,Elina Rikman,Элина Рикман,55.4,100,110,115,115,,255,56,SBD,Raw,No,50,55,-57.5,55,,-80,80,85,85,,Pro Teen 16-17,1999-07-03
1,F,Anastasiya Bryleva,Анастасия Брылева,54.6,90,100,105,105,,225,56,SBD,Raw,No,45,-47.5,-47.5,45,,60,-70,75,75,,Pro Open,1984-08-16
1,F,Elena Zhilina,Елена Жилина,67.5,70,75,80,80,,182.5,67.5,SBD,Raw,No,-37.5,-37.5,37.5,37.5,,60,62.5,65,65,,Pro Open,1978-11-29
1,M,Andrey Dyu,Андрей Дю,66.15,175,185,195,195,,455,67.5,SBD,Raw,No,95,-100,100,100,,160,-170,-170,160,,Pro Open,1991-08-20
1,M,Edgar Nepobedimyy,Эдгар Непобедимый,82.35,190,205,,205,,490,82.5,SBD,Raw,No,125,135,-147.5,135,,130,150,,150,,Pro Open,1982-08-08
1,M,Vadim Shchesnyak,Вадим Щесняк,89.8,190,200,210,210,,540,90,SBD,Raw,No,140,145,150,150,,-175,175,180,180,,Pro Juniors 20-23,1997-03-17
1,M,Konstantin Musienko,Константин Мусиенко,87.85,225,247.5,-257.5,247.5,,542.5,90,SBD,Raw,No,120,-125,125,125,,170,-180,-180,170,,Pro Open,1989-07-19
2,M,Sergey Zhilin,Сергей Жилин,88.6,130,140,150,150,,390,90,SBD,Raw,No,100,-105,105,105,,120,130,135,135,,Pro Open,1987-04-09
1,M,Evgeniy Beltyukov,Евгений Бельтюков,89.25,190,200,205,205,,522.5,90,SBD,Raw,No,140,147.5,150,150,,155,162.5,167.5,167.5,,Pro Masters 40-44,1976-07-30
1,M,Yuriy Kulikov,Юрій Куліков,88.2,170,190,-205,190,,430,90,SBD,Raw,No,105,115,-122.5,115,,100,115,125,125,,Pro Masters 55-59,1959-08-01
1,M,Ivan Eremenko,Иван Еременко,94.35,180,190,195,195,,495,100,SBD,Raw,No,120,130,-140,130,,-160,170,-180,170,,Pro Open,1991-02-18
1,M,Evgeniy Sheyko,Евгений Шейко,107.4,180,200,215,215,,560,110,SBD,Raw,No,135,-147.5,-147.5,135,,180,200,210,210,,Pro Open,1993-03-17
1,M,Shamil Chamsaev,Шамиль Чамсаев,107,270,-280,-280,270,,740,110,SBD,Raw,No,-180,180,-185,180,,-280,280,290,290,,Pro Open,1979-12-29
1,M,Maksim Ochkalov,Максим Очкалов,121.2,217.5,235,250,250,,620,125,SBD,Raw,No,140,155,-175,155,,180,200,215,215,,Pro Open,1989-05-03
1,M,Yuriy Knyazev,Юрий Князев,75,,,,,,192.5,75,B,Unlimited,No,192.5,-200,,192.5,,,,,,,Pro Open,1983-12-07
1,M,Andrey Yakushin,Андрей Якушин,88.75,,,,,,270,90,B,Unlimited,No,250,260,270,270,,,,,,,Pro Open,1973-12-19
DQ,M,Oleg Sokolov,Олег Соколов,105,,,,,,,110,B,Unlimited,No,-220,-220,-220,,,,,,,,Pro Masters 40-44,1972-08-14
1,M,Anton Navolokin,Антон Наволокин,130,,,,,,275,140,B,Unlimited,No,250,267.5,275,275,,,,,,,Pro Open,1986-01-01
1,M,Dmitriy Grinev,Дмитрий Гринев,96,-275,-275,275,275,,725,100,SBD,Unlimited,No,190,200,205,205,,230,240,245,245,,Pro Open,1977-05-16
DQ,M,Roman Belousov,Роман Белоусов,55.85,,,,,,,56,B,Single-ply,No,-182.5,-182.5,-182.5,,,,,,,,Pro Open,1991-10-19
1,M,Yuriy Knyazev,Юрий Князев,75,,,,,,187.5,75,B,Single-ply,No,-187.5,-187.5,187.5,187.5,,,,,,,Pro Open,1983-12-07
1,F,Alesya Goncharova,Алеся Гончарова,54.6,80,85,-87.5,85,,85,56,D,Raw,No,,,,,,,,,,,Pro Open,1992-03-27
1,F,Anastasiya Teterina,Анастасия Тетерина,67.5,85,92.5,100,100,,100,67.5,D,Raw,No,,,,,,,,,,,Pro Teen 16-17,1999-10-25
1,F,Mariya Vaganova,Мария Ваганова,79.7,117.5,125,-130,125,,125,82.5,D,Raw,No,,,,,,,,,,,Pro Teen 16-17,2000-05-30
1,M,Pavel Tishin,Павел Тишин,88.1,180,190,200,200,,200,90,D,Raw,No,,,,,,,,,,,Pro Open,1987-05-23
1,M,Aleksandr Nemchinov,Александр Немчинов,89.35,225,-247.5,-247.5,225,,225,90,D,Raw,No,,,,,,,,,,,Pro Masters 65-69,1951-11-10
1,M,Sergey Krapivin,Сергей Крапивин,98.55,260,275,,275,,275,100,D,Raw,No,,,,,,,,,,,Pro Juniors 20-23,1996-06-12
1,M,Andrey Malyshko,Андрей Малышко,95.9,200,230,-235,230,,230,100,D,Raw,No,,,,,,,,,,,Pro Open,1978-03-30
1,M,Vyacheslav Gorbunov #1,В'ячеслав Горбунов,97,200,-220,,200,,200,100,D,Raw,No,,,,,,,,,,,Pro Masters 45-49,1967-12-20
1,M,Anton Navolokin,Антон Наволокин,130,280,300,307.5,307.5,,307.5,140,D,Raw,No,,,,,,,,,,,Pro Open,1986-01-01
1,F,Olga Lazurenko,Ольга Лазуренко,58.55,,,,,,112.5,60,B,Raw,No,-110,110,112.5,112.5,-115,,,,,,Pro Masters 45-49,1971-09-05
1,F,Alla Kalinichenko,Алла Калиниченко,67.2,,,,,,95,67.5,B,Raw,No,95,,,95,,,,,,,Pro Masters 45-49,1971-04-08
1,M,Ivan Bugorskiy,Иван Бугорский,84.5,,,,,,115,90,B,Raw,No,100,110,115,115,,,,,,,Pro Juniors 20-23,1997-04-18
1,M,Sergey Lazurenko,Сергей Лазуренко,84.9,,,,,,167.5,90,B,Raw,No,167.5,-175,,167.5,,,,,,,Pro Open,1989-03-12
1,M,Dmitriy Tipikin,Дмитрий Типикин,97.1,,,,,,185,100,B,Raw,No,-185,185,-195,185,,,,,,,Pro Masters 40-44,1973-07-17
1,M,Arman Grigoryan,Арман Григорян,106.6,,,,,,220,110,B,Raw,No,220,-230,-230,220,,,,,,,Pro Juniors 20-23,1994-06-01
1,M,Nikita Taranin,Никита Таранин,105,,,,,,177.5,110,B,Raw,No,170,177.5,-185,177.5,,,,,,,Pro Open,1989-05-29
DQ,M,Konstantin Shapovalov,Константин Шаповалов,113.8,,,,,,,125,B,Raw,No,-160,,,,,,,,,,Pro Open,1983-03-01
1,M,Sergey Zimin,Сергей Зимин,132.3,,,,,,235,140,B,Raw,No,215,225,235,235,,,,,,,Pro Masters 45-49,1972-01-14
1,M,Aleksandr Malinovskiy,Александр Малиновский,73.05,200,215,-230,215,,520,75,SBD,Raw,No,130,135,142.5,142.5,,150,155,162.5,162.5,,Pro Juniors 20-23,1995-06-28
1,F,Elizaveta Salasina,Елизавета Саласина,52,105,115,120,120,,120,52,D,Raw,No,,,,,,,,,,,Pro Teen 14-15,2001-12-28
1,M,Aleksandr Nemchinov,Александр Немчинов,89.35,225,-247.5,-247.5,225,,225,90,D,Raw,No,,,,,,,,,,,Pro Masters 65-69,1951-11-10
1,M,Aleksey Papanov,Алексей Папанов,71,80,90,102.5,102.5,,200,75,SBD,Raw,No,-40,40,47.5,47.5,,40,50,-60,50,,Pro Open,1985-09-14
1,M,Denis Novikov,Денис Новиков,80.95,170,185,,185,,452.5,82.5,SBD,Raw,No,100,105,107.5,107.5,,160,-170,-170,160,,Pro Teen 18-19,1997-09-25
