Place,Name,CyrillicName,Sex,BirthDate,Division,WeightClassKg,BodyweightKg,Squat1Kg,Squat2Kg,Squat3Kg,Best3SquatKg,Bench1Kg,Bench2Kg,Bench3Kg,Best3BenchKg,Bench4Kg,Deadlift1Kg,Deadlift2Kg,Deadlift3Kg,Best3DeadliftKg,Deadlift4Kg,TotalKg,Event,Equipment,Tested
1,Margarita Kolesnikova,Маргарита Колеснікова,F,1988-11-30,Open,48,47.46,77.5,85,90,90,37.5,42.5,-45,42.5,,80,87.5,92.5,92.5,,225,SBD,Wraps,Yes
1,Nataliya Sokurenko,Наталія Сокуренко,F,1981-01-12,Open,56,55.84,-150,150,155,155,70,75,-77.5,75,,145,155,-157.5,155,,385,SBD,Wraps,Yes
2,Tetyana Shtembulyak,Тетяна Штембуляк,F,1988-01-01,Open,56,52.06,110,-125,125,125,55,62.5,-67.5,62.5,,110,-120,120,120,,307.5,SBD,Wraps,Yes
3,Alina Guseva,Аліна Гусева,F,1987-07-16,Open,56,54.68,-90,90,100,100,-50,55,57.5,57.5,,90,95,105,105,,262.5,SBD,Wraps,Yes
4,Tetyana Dzherelyuk,Тетяна Джерелюк,F,1983-07-08,Open,56,55.26,-82.5,-85,85,85,47.5,-52.5,-52.5,47.5,,120,127.5,-132.5,127.5,,260,SBD,Wraps,Yes
DQ,Tetyana Stronska,Тетяна Стронська,F,1984-09-19,Open,56,55.74,-110,-110,-112.5,,,,,,,,,,,,,SBD,Wraps,Yes
1,Svitlana Kravchenko,Світлана Кравченко,F,1971-05-11,Masters 40-49,56,53.16,85,92.5,-95,92.5,47.5,-50,-50,47.5,,90,97.5,-100,97.5,,237.5,SBD,Wraps,Yes
1,Liliya Timofiїva,Лілія Тимофіїва,F,1999-09-27,Teen 18-19,60,59.48,80,-85,-85,80,35,40,-42.5,40,,90,-100,-100,90,,210,SBD,Wraps,Yes
1,Olena Boyko,Олена Бойко,F,1986-10-24,Open,60,57.62,-120,-120,120,120,55,62.5,67.5,67.5,,110,117.5,-125,117.5,,305,SBD,Wraps,Yes
1,Renata Ignatova,Рената Ігнатова,F,2004-11-05,Teen 13-15,67.5,63.6,65,70,75,75,52.5,55,-57.5,55,,65,70,75,75,,205,SBD,Wraps,Yes
1,Tetyana Vladimirenko,Тетяна Владимиренко,F,1999-05-18,Teen 18-19,67.5,60.75,-117.5,117.5,-122.5,117.5,57.5,-62.5,62.5,62.5,,100,-105,,100,,280,SBD,Wraps,Yes
1,Oksana Ostroushko,Оксана Остроушко,F,1992-06-26,Open,67.5,60.6,105,110,-112.5,110,65,-67.5,-67.5,65,,120,130,135,135,,310,SBD,Wraps,Yes
2,Kseniya Ryabenko,Ксенія Рябенко,F,1990-06-04,Open,67.5,63.55,-100,100,110,110,60,65,-67.5,65,,110,120,125,125,,300,SBD,Wraps,Yes
DQ,Yuliya Yur'eva,Юлія Юр'єва,F,1980-10-04,Open,67.5,66.95,-105,-105,-110,,,,,,,,,,,,,SBD,Wraps,Yes
1,Vita Rudakova,Віта Рудакова,F,1980-02-03,Open,75,72.5,-95,95,102.5,102.5,47.5,-52.5,-52.5,47.5,,127.5,137.5,147.5,147.5,,297.5,SBD,Wraps,Yes
2,Katerina Bondarenko,Катерина Бондаренко,F,1990-12-06,Open,75,73.1,105,115,125,125,52.5,-55,-55,52.5,,-110,115,120,120,,297.5,SBD,Wraps,Yes
3,Nataliya Balabanova,Наталія Балабанова,F,1984-11-07,Open,75,68.8,110,-122.5,-122.5,110,60,-65,-65,60,,112.5,120,-127.5,120,,290,SBD,Wraps,Yes
4,Dariya Zdorovtsova,Дарія Здоровцова,F,1989-07-30,Open,75,69.45,-85,85,-90,85,50,52.5,55,55,,100,110,115,115,,255,SBD,Wraps,Yes
1,Inna Zhovta,Інна Жовта,F,1981-04-07,Open,90,88.6,130,140,-150,140,70,75,77.5,77.5,,140,150,157.5,157.5,,375,SBD,Wraps,Yes
DQ,Andriy Kovalenko,Андрій Коваленко,M,2002-01-10,Teen 16-17,56,54.18,90,100,-110,100,,,,,,,,,,,,SBD,Wraps,Yes
1,Dmitro Ardashov,Дмитро Ардашов,M,2001-10-21,Teen 16-17,60,57.14,130,140,-150,140,70,75,77.5,77.5,,135,-145,-145,135,,352.5,SBD,Wraps,Yes
1,Bogdan Savosta,Богдан Савоста,M,1999-07-09,Teen 18-19,60,58.08,120,130,-140,130,60,-65,65,65,,110,120,-130,120,,315,SBD,Wraps,Yes
1,Yaroslav Tarchinskiy,Ярослав Тарчинський,M,1992-09-28,Open,60,59.42,120,-130,-130,120,90,-95,-95,90,,-150,-150,150,150,,360,SBD,Wraps,Yes
1,Yaroslav Krot,Ярослав Крот,M,1998-09-15,Juniors 20-23,67.5,66.3,180,190,200,200,100,107.5,-110,107.5,,190,200,210,210,,517.5,SBD,Wraps,Yes
2,Oleksandr Onischenko #2,Олександр Оніщенко,M,1996-03-05,Juniors 20-23,67.5,65.05,135,-145,-145,135,90,97.5,100,100,,150,170,-175,170,,405,SBD,Wraps,Yes
3,Maksim Gayoviy,Максим Гайовий,M,1995-10-02,Juniors 20-23,67.5,64.2,125,130,-135,130,-100,100,-102.5,100,,-160,-160,160,160,,390,SBD,Wraps,Yes
1,Andriy Timoshik,Андрій Тимошик,M,1990-03-22,Open,67.5,65.8,165,-175,-181,165,95,-102.5,-102.5,95,,170,-185,185,185,,445,SBD,Wraps,Yes
2,Oleksandr Nalegach,Олександр Налегач,M,1986-09-14,Open,67.5,65.1,-87.5,87.5,95,95,72.5,-77.5,-77.5,72.5,,140,150,157.5,157.5,,325,SBD,Wraps,Yes
1,Dmitro Miroshnichenko,Дмитро Мірошніченко,M,2001-12-08,Teen 16-17,75,70.95,120,130,-135,130,92.5,-95,-95,92.5,,-150,150,-155,150,,372.5,SBD,Wraps,Yes
1,Maksim Gurinenko,Максим Гуриненко,M,1998-11-16,Teen 18-19,75,75,200,210,-220,210,-130,130,-145,130,,190,-205,,190,,530,SBD,Wraps,Yes
1,Erik Kupriev,Ерік Купрієв,M,1992-04-03,Open,75,75,-190,190,200,200,105,-112.5,112.5,112.5,,240,-260,260,260,,572.5,SBD,Wraps,Yes
2,Valentin Nesin,Валентин Несин,M,1994-03-14,Open,75,70.75,-180,180,215,215,125,132.5,-137.5,132.5,,200,220,-230,220,,567.5,SBD,Wraps,Yes
1,Yuriy Mikhnenko,Юрій Міхненко,M,1974-04-12,Masters 40-49,75,73.9,-180,190,205,205,112.5,-125,-125,112.5,,190,205,-210,205,,522.5,SBD,Wraps,Yes
1,Vladislav Vishnya,Владислав Вишня,M,2002-06-17,Teen 16-17,82.5,79.15,170,180,-185,180,110,-120,,110,,-190,200,220,220,,510,SBD,Wraps,Yes
2,Yaroslav Slutskiy,Ярослав Слуцький,M,2001-01-24,Teen 16-17,82.5,80.7,130,140,150,150,100,-110,110,110,,140,150,-155,150,,410,SBD,Wraps,Yes
1,Vasil Zvizdaryuk,Василь Звіздарюк,M,2000-01-27,Teen 18-19,82.5,81.65,200,220,-230,220,110,120,-125,120,,205,-220,220,220,,560,SBD,Wraps,Yes
1,Sergiy Sklyaruk,Сергій Склярук,M,1998-07-09,Juniors 20-23,82.5,81.55,-215,-215,215,215,125,130,-135,130,,215,227.5,237.5,237.5,,582.5,SBD,Wraps,Yes
2,Vladislav Pavlyuk,Владислав Павлюк,M,1995-05-30,Juniors 20-23,82.5,80.85,190,200,-210,200,-110,-120,120,120,,190,-210,215,215,,535,SBD,Wraps,Yes
1,Valentin Gontar,Валентин Гонтар,M,1987-09-26,Open,82.5,79.6,230,-240,240,240,140,-147.5,147.5,147.5,,247.5,255,262.5,262.5,,650,SBD,Wraps,Yes
2,Volodimir Voronov,Володимир Воронов,M,1983-02-03,Open,82.5,81.15,190,200,210,210,-150,-150,150,150,,190,200,212.5,212.5,,572.5,SBD,Wraps,Yes
3,Oleksandr Khursa,Олександр Хурса,M,1985-09-09,Open,82.5,79.05,-120,120,130,130,90,-92.5,,90,,150,170,-190,170,,390,SBD,Wraps,Yes
1,Valeriy Lanko,Валерій Ланько,M,1965-01-25,Masters 50-59,82.5,81.45,-150,150,160,160,135,-140,-140,135,,185,195,-200,195,,490,SBD,Wraps,Yes
1,Andriy Ruban,Андрій Рубан,M,1999-01-27,Teen 18-19,90,88.9,210,230,-240,230,120,-130,-130,120,,220,240,-262.5,240,,590,SBD,Wraps,Yes
1,Sergiy Seleznov,Сергій Селезньов,M,1996-04-13,Juniors 20-23,90,88.6,180,190,200,200,120,127.5,135,135,,160,175,190,190,,525,SBD,Wraps,Yes
1,Boris Stashuk,Борис Сташук,M,1985-10-29,Open,90,88.05,240,260,-280,260,160,170,175,175,,260,280,,280,,715,SBD,Wraps,Yes
2,Dmitro Goropakha,Дмитро Горопаха,M,1992-06-13,Open,90,89.55,265,280,-290,280,140,145,150,150,,-245,250,-260,250,,680,SBD,Wraps,Yes
3,Yuriy Yaremiy,Юрій Яремій,M,1993-05-14,Open,90,88.95,210,-220,220,220,130,135,-140,135,,210,220,230,230,,585,SBD,Wraps,Yes
4,Ruslan Kornutich,Руслан Корнутич,M,1989-07-18,Open,90,87.65,-210,220,-227.5,220,120,130,-135,130,,200,210,217.5,217.5,,567.5,SBD,Wraps,Yes
5,Oleksandr Lisitsya,Олександр Лисиця,M,1986-03-03,Open,90,87.25,190,205,-215,205,115,-122.5,125,125,,195,222.5,232.5,232.5,,562.5,SBD,Wraps,Yes
6,Oleg Polishchuk,Олег Поліщук,M,1991-12-27,Open,90,83.7,-185,185,-200,185,-130,135,-142.5,135,,-210,215,225,225,,545,SBD,Wraps,Yes
1,Oleksandr Denisov #2,Олександр Денисов,M,1972-12-05,Masters 40-49,90,89.8,-200,-210,210,210,125,135,-140,135,,180,190,200,200,,545,SBD,Wraps,Yes
2,Valentin Gostev,Валентин Гостєв,M,1975-02-28,Masters 40-49,90,88.8,185,195,205,205,127.5,-135,-135,127.5,,180,190,-200,190,,522.5,SBD,Wraps,Yes
1,Gennadiy Ostrovskiy,Геннадій Островський,M,1965-01-08,Masters 50-59,90,87.75,187.5,197.5,205,205,107.5,115,-122.5,115,,205,212.5,-217.5,212.5,,532.5,SBD,Wraps,Yes
1,Mikolay Rudiy,Микола Рудий,M,2000-12-19,Teen 16-17,100,93.3,160,175,180,180,107.5,115,-120,115,,180,190,-200,190,,485,SBD,Wraps,Yes
1,Artur Medvedev,Артур Медведєв,M,2000-04-17,Teen 18-19,100,94,-207.5,207.5,-217.5,207.5,110,115,120,120,,210,217.5,225,225,,552.5,SBD,Wraps,Yes
1,Mikita Ivanchenko,Микита Іванченко,M,1997-11-19,Juniors 20-23,100,98.25,240,250,260,260,160,170,-176,170,,265,-275,280,280,286,710,SBD,Wraps,Yes
2,Maksim Moskalenko,Максим Москаленко,M,1996-04-03,Juniors 20-23,100,95.35,190,-205,205,205,115,-122.5,122.5,122.5,,210,220,-227.5,220,,547.5,SBD,Wraps,Yes
1,Mikita Ivanchenko,Микита Іванченко,M,1997-11-19,Open,100,98.25,240,250,260,260,160,170,-176,170,,265,-275,280,280,,710,SBD,Wraps,Yes
2,Evgen Levkovskiy,Євген Левковський,M,1990-02-19,Open,100,96.5,190,210,-230,210,150,160,165,165,,220,245,262.5,262.5,,637.5,SBD,Wraps,Yes
3,Oleksiy Zhadko,Олексій Жадько,M,1991-03-30,Open,100,96.35,170,180,190,190,120,130,135,135,,220,230,-240,230,,555,SBD,Wraps,Yes
1,Pavlo Semkovich,Павло Семкович,M,1980-05-12,Open,110,107.5,235,-245,-250,235,155,165,170,170,,230,240,252.5,252.5,,657.5,SBD,Wraps,Yes
2,Viktor Kamenetskiy,Віктор Каменецький,M,1982-05-01,Open,110,107.75,-200,220,-240,220,140,155,167.5,167.5,,230,270,-287.5,270,,657.5,SBD,Wraps,Yes
3,Denis Glibishin,Денис Глибишин,M,1983-10-17,Open,110,108.1,240,-255,-255,240,130,140,145,145,,220,235,-240,235,,620,SBD,Wraps,Yes
4,Roman Radchuk,Роман Радчук,M,1989-08-30,Open,110,110,55,,,55,120,135,-145,135,,150,200,215,215,,405,SBD,Wraps,Yes
DQ,Denis Palyukh,Денис Палюх,M,1984-09-27,Open,110,105.4,200,-220,-230,200,-150,-150,-150,,,,,,,,,SBD,Wraps,Yes
1,Bogdan Malginov,Богдан Мальгінов,M,1998-01-19,Juniors 20-23,125,122,210,230,-245,230,145,155,-160,155,,210,230,-252.5,230,,615,SBD,Wraps,Yes
1,Sergiy Pavelev,Сергій Павєльєв,M,1983-11-27,Open,140,138.4,185,-190,-190,185,145,150,-155,150,,195,200,210,210,,545,SBD,Wraps,Yes
1,Volodimir Ivasyutin,Володимир Івасютин,M,1995-07-27,Juniors 20-23,75,71.05,170,180,-190,180,110,120,-130,120,,-210,-210,210,210,,510,SBD,Single-ply,Yes
1,Olena Valegova,Олена Валегова,F,1987-05-01,Open,52,50.52,,,,,52.5,-55,-55,52.5,,112.5,117.5,120,120,,172.5,BD,Raw,Yes
1,Alla Lanko,Алла Ланько,F,1965-01-19,Masters 50-59,52,51.38,,,,,50,52.5,-55,52.5,,-110,115,120,120,,172.5,BD,Raw,Yes
1,Tetyana Sironska,Тетяна Сиронська,F,1984-09-19,Open,56,55.74,,,,,-47.5,50,-55,50,,105,122.5,130,130,,180,BD,Raw,Yes
2,Oksana Osmakova,Оксана Осмакова,F,1983-02-10,Open,56,52.72,,,,,45,47.5,-50,47.5,,110,-115,-115,110,,157.5,BD,Raw,Yes
1,Anfisa Urivkova,Анфіса Уривкова,F,1995-07-19,Juniors 20-23,60,58.48,,,,,45,50,-52.5,50,,92.5,97.5,102.5,102.5,,152.5,BD,Raw,Yes
1,Olena Boyko,Олена Бойко,F,1986-10-24,Open,60,57.62,,,,,55,62.5,67.5,67.5,,110,117.5,-125,117.5,,185,BD,Raw,Yes
1,Margarita Molyaka,Маргарита Моляка,F,1994-11-29,Juniors 20-23,67.5,61.4,,,,,-55,-55,55,55,,115,122.5,-130,122.5,,177.5,BD,Raw,Yes
1,Yuliya Yur'eva,Юлія Юр'єва,F,1980-10-04,Open,67.5,66.5,,,,,52.5,-57.5,-57.5,52.5,,100,115,125,125,,177.5,BD,Raw,Yes
1,Oleksiy Korobko,Олексій Коробко,M,2002-12-21,Teen 13-15,56,55.56,,,,,50,55,60,60,,-110,110,-120,110,,170,BD,Raw,Yes
DQ,Oleksiy Kotov,Олексій Котов,M,1996-03-30,Juniors 20-23,75,72.4,,,,,105,110,-115,110,,-180,-180,-180,,,,BD,Raw,Yes
DQ,Oleksiy Kotov,Олексій Котов,M,1996-03-30,Open,75,72.4,,,,,105,110,-115,110,,-180,-180,-180,,,,BD,Raw,Yes
1,Pavlo Belka,Павло Бєлка,M,1994-02-03,Open,82.5,79.5,,,,,125,-135,135,135,,170,180,190,190,,325,BD,Raw,Yes
1,Boris Stashuk,Борис Сташук,M,1985-10-29,Open,90,88.05,,,,,160,170,175,175,,260,280,,280,,455,BD,Raw,Yes
2,Yuriy Yaremiy,Юрій Яремій,M,1993-05-14,Open,90,88.95,,,,,130,135,-140,135,,210,220,230,230,,365,BD,Raw,Yes
3,Viktor Sherganov,Віктор Шерганов,M,1986-09-11,Open,90,85.8,,,,,90,110,-120,110,,180,200,215,215,,325,BD,Raw,Yes
1,Mikita Polishchuk,Микита Поліщук,M,1997-08-26,Juniors 20-23,100,97.4,,,,,-142.5,145,-152.5,145,,230,240,-250,240,,385,BD,Raw,Yes
1,Srgiy Gavrilenko,Сргій Гавриленко,M,1986-06-28,Open,100,99.1,,,,,-140,150,-155,150,,210,225,242.5,242.5,,392.5,BD,Raw,Yes
2,Denis Dashkovich,Денис Дашкович,M,1988-01-19,Open,100,97.75,,,,,140,150,-155,150,,210,220,240,240,,390,BD,Raw,Yes
3,Oleksandr Surmay,Олександр Сурмай,M,1980-11-13,Open,100,98.35,,,,,140,145,150,150,,-215,215,230,230,,380,BD,Raw,Yes
1,Sergiy Radchenko,Сергій Радченко,M,1989-03-27,Open,110,107.2,,,,,170,-180,-180,170,,240,-265,-285,240,,410,BD,Raw,Yes
2,Roman Radchuk,Роман Радчук,M,1989-08-30,Open,110,110,,,,,120,135,-145,135,,150,200,215,215,,350,BD,Raw,Yes
1,Igor Furmanov,Ігор Фурманов,M,1968-04-24,Masters 50-59,125,111.8,,,,,140,147.5,150,150,,212.5,220,225,225,,375,BD,Raw,Yes
DQ,Tetyana Stronska,Тетяна Стронська,F,1984-09-19,Open,56,55.74,-110,-110,-112.5,,,,,,,,,,,,,S,Wraps,Yes
1,Anna Eysmont,Анна Эйсмонт,F,1988-11-23,Open,60,58.1,100,110,-120,110,,,,,,,,,,,110,S,Wraps,Yes
1,Tetyana Vladimirenko,Тетяна Владимиренко,F,1999-05-18,Teen 18-19,67.5,60.75,-117.5,117.5,-122.5,117.5,,,,,,,,,,,117.5,S,Wraps,Yes
1,Inna Zhovta,Інна Жовта,F,1981-04-07,Open,90,88.6,130,140,-150,140,,,,,,,,,,,140,S,Wraps,Yes
1,Andriy Kovalenko,Андрій Коваленко,M,2002-01-10,Teen 16-17,56,54.18,90,100,-110,100,,,,,,,,,,,100,S,Wraps,Yes
1,Vasil Zvizdaryuk,Василь Звіздарюк,M,2000-01-27,Teen 18-19,82.5,81.65,200,220,-230,220,,,,,,,,,,,220,S,Wraps,Yes
1,Ruslan Kornutich,Руслан Корнутич,M,1989-07-18,Open,90,87.65,-210,220,-227.5,220,,,,,,,,,,,220,S,Wraps,Yes
1,Yuriy Yaremiy,Юрій Яремій,M,1993-05-14,Open,90,88.95,210,-220,220,220,,,,,,,,,,,220,S,Wraps,Yes
1,Mikolay Rudiy,Микола Рудий,M,2000-12-19,Teen 16-17,100,93.3,160,175,180,180,,,,,,,,,,,180,S,Wraps,Yes
1,Denis Glibishin,Денис Глибишин,M,1983-10-17,Open,110,108.1,240,-255,-255,240,,,,,,,,,,,240,S,Wraps,Yes
2,Pavlo Semkovich,Павло Семкович,M,1980-05-12,Open,110,107.5,235,-245,-250,235,,,,,,,,,,,235,S,Wraps,Yes
3,Denis Palyukh,Денис Палюх,M,1984-09-27,Open,110,105.4,200,-220,-230,200,,,,,,,,,,,200,S,Wraps,Yes
1,Nataliya Nimchuk,Наталія Німчук,F,1997-05-22,Juniors 20-23,52,50,,,,,65,-72.5,-72.5,65,,,,,,,65,B,Raw,Yes
1,Olena Valegova,Олена Валегова,F,1987-05-01,Open,52,50.52,,,,,52.5,-55,-55,52.5,,,,,,,52.5,B,Raw,Yes
2,Dar'ya Solokha,Дар'я Солоха,F,1986-12-10,Open,52,49.16,,,,,25,27.5,-30,27.5,,,,,,,27.5,B,Raw,Yes
1,Nataliya Sokurenko,Наталія Сокуренко,F,1981-01-12,Open,56,55.84,,,,,70,75,-77.5,75,,,,,,,75,B,Raw,Yes
2,Liliya Likhnovska,Лілія Ліхновська,F,1983-08-10,Open,56,55.02,,,,,55,-62.5,-62.5,55,,,,,,,55,B,Raw,Yes
3,Yuliya Vasilyuk,Юлія Василюк,F,1993-02-04,Open,56,56,,,,,47.5,50,-52.5,50,,,,,,,50,B,Raw,Yes
4,Alona Bokach,Альона Бокач,F,1990-03-02,Open,56,56,,,,,35,40,42.5,42.5,,,,,,,42.5,B,Raw,Yes
DQ,Yana Nechaeva,Яна Нечаєва,F,1991-05-07,Open,56,54.48,,,,,-65,-65,-65,,,,,,,,,B,Raw,Yes
1,Olena Boyko,Олена Бойко,F,1986-10-24,Open,60,57.62,,,,,55,62.5,67.5,67.5,,,,,,,67.5,B,Raw,Yes
1,Margarita Molyaka,Маргарита Моляка,F,1994-11-29,Juniors 20-23,67.5,61.4,,,,,-55,-55,55,55,,,,,,,55,B,Raw,Yes
1,Yana Shimko,Яна Шимко,F,1989-05-05,Open,67.5,65.75,,,,,-70,-75,75,75,,,,,,,75,B,Raw,Yes
2,Tetyana Tkachenko,Тетяна Ткаченко,F,1983-07-26,Open,67.5,65.95,,,,,62.5,67.5,70,70,,,,,,,70,B,Raw,Yes
3,Oksana Ostroushko,Оксана Остроушко,F,1982-06-26,Open,67.5,60.6,,,,,65,-67.5,-67.5,65,,,,,,,65,B,Raw,Yes
1,Nikita Bosak,Нікіта Босак,M,2007-10-05,Youth,52,52,,,,,50,52.5,-57.5,52.5,,,,,,,52.5,B,Raw,Yes
2,Makar Semkovich,Макар Семкович,M,2010-02-19,Youth,52,42.76,,,,,-20,25,27.5,27.5,,,,,,,27.5,B,Raw,Yes
1,Mikita Naumovich,Микита Наумович,M,2005-07-22,Teen 13-15,52,41.46,,,,,30,32.5,35,35,,,,,,,35,B,Raw,Yes
1,Vadim Korenkov,Вадим Коренков,M,2004-06-05,Teen 13-15,60,59.84,,,,,75,80,-87.5,80,,,,,,,80,B,Raw,Yes
2,Andriy Sitnikov,Андрій Сітніков,M,2003-01-08,Teen 13-15,60,56.56,,,,,-70,70,72.5,72.5,,,,,,,72.5,B,Raw,Yes
1,Valeriy Rozhanskiy,Валерій Рожанський,M,2003-09-24,Teen 13-15,67.5,64.4,,,,,-75,75,-80,75,,,,,,,75,B,Raw,Yes
2,Ivan Nemchenko,Іван Немченко,M,2003-04-27,Teen 13-15,67.5,65.6,,,,,67.5,-72.5,-72.5,67.5,,,,,,,67.5,B,Raw,Yes
3,Mikhaylo Babenko,Михайло Бабенко,M,2005-05-19,Teen 13-15,67.5,65.75,,,,,40,45,-50,45,,,,,,,45,B,Raw,Yes
1,Oleksandr Popel,Олександр Попєль,M,1994-12-01,Juniors 20-23,67.5,66.5,,,,,107.5,-110,-110,107.5,,,,,,,107.5,B,Raw,Yes
2,Dmitro Beskishchenko,Дмитро Бескищенко,M,1995-05-30,Juniors 20-23,67.5,66.2,,,,,77.5,82.5,87.5,87.5,,,,,,,87.5,B,Raw,Yes
1,Oleksandr Svitlichniy,Олександр Світличний,M,1988-10-28,Open,67.5,66.95,,,,,-125,125,-130,125,,,,,,,125,B,Raw,Yes
2,Oleksandr Metikhatko,Олександр Метіхатко,M,1987-08-10,Open,67.5,66.45,,,,,-110,115,-125,115,,,,,,,115,B,Raw,Yes
3,Evgeniy Kamenev,Євгеній Каменев,M,1992-06-08,Open,67.5,62.25,,,,,85,-90,-90,85,,,,,,,85,B,Raw,Yes
4,Boris Kovtun,Борис Ковтун,M,1994-01-30,Open,67.5,65.35,,,,,75,80,82.5,82.5,,,,,,,82.5,B,Raw,Yes
1,Valeriy Babich #2,Валерій Бабич,M,1999-07-30,Teen 18-19,75,72.6,,,,,100,105,110,110,,,,,,,110,B,Raw,Yes
DQ,Oleksandr Ignatenko,Олександр Ігнатенко,M,2000-04-26,Teen 18-19,75,74.2,,,,,-125,-125,-125,,,,,,,,,B,Raw,Yes
1,Dmitro Domnu,Дмитро Домну,M,1983-07-31,Open,75,72.45,,,,,130,135,-140,135,,,,,,,135,B,Raw,Yes
2,Andrey Tsitson,Андрей Цицонь,M,1983-03-31,Open,75,74.55,,,,,125,135,-140,135,,,,,,,135,B,Raw,Yes
3,Sergiy Vertsov,Сергій Верцов,M,1989-02-25,Open,75,72.95,,,,,-105,-105,105,105,,,,,,,105,B,Raw,Yes
4,Vitaliy Kulishenko,Віталій Кулішенко,M,1991-01-04,Open,75,73.45,,,,,95,100,105,105,,,,,,,105,B,Raw,Yes
1,Igor Epishev,Ігор Єпішев,M,1969-12-04,Masters 40-49,75,74.45,,,,,117.5,125,130,130,,,,,,,130,B,Raw,Yes
2,Vadim Koverznev,Вадим Коверзнев,M,1970-02-07,Masters 40-49,75,73.8,,,,,105,-107.5,107.5,107.5,,,,,,,107.5,B,Raw,Yes
1,Artem Kovtun,Артем Ковтун,M,2001-11-12,Teen 16-17,82.5,81.1,,,,,120,127.5,132.5,132.5,,,,,,,132.5,B,Raw,Yes
2,Kirilo Omelchenko,Кирило Омельченко,M,2002-09-19,Teen 16-17,82.5,76.55,,,,,107.5,-110,-110,107.5,,,,,,,107.5,B,Raw,Yes
3,Dmitro Maer,Дмитро Маєр,M,2002-05-30,Teen 16-17,82.5,80.45,,,,,65,67.5,70,70,,,,,,,70,B,Raw,Yes
1,Yaroslav Khodko,Ярослав Ходько,M,2000-04-21,Teen 18-19,82.5,81.35,,,,,-127.5,127.5,-135,127.5,,,,,,,127.5,B,Raw,Yes
1,Evgeniy Boloban,Євгеній Болобан,M,1996-08-28,Juniors 20-23,82.5,75.9,,,,,167.5,175,180.5,180.5,,,,,,,180.5,B,Raw,Yes
2,Andriy Kurskiy,Андрій Курський,M,1996-11-09,Juniors 20-23,82.5,80.6,,,,,135,140,-145,140,,,,,,,140,B,Raw,Yes
1,Evgeniy Boloban,Євгеній Болобан,M,1996-08-28,Open,82.5,75.9,,,,,167.5,175,180.5,180.5,,,,,,,180.5,B,Raw,Yes
2,Maksim Smolyak,Максим Смоляк,M,1982-06-06,Open,82.5,80.95,,,,,160,-165,-165,160,,,,,,,160,B,Raw,Yes
3,Oleksiy Grechukha,Олексій Гречуха,M,1979-11-24,Open,82.5,79.45,,,,,135,-140,140,140,,,,,,,140,B,Raw,Yes
4,Sergiy Necheporenko,Сергій Нечепоренко,M,1981-11-09,Open,82.5,79.7,,,,,125,130,-132.5,130,,,,,,,130,B,Raw,Yes
5,Sergiy Titov,Сергій Тітов,M,1985-12-09,Open,82.5,76.85,,,,,-107.5,,112.5,112.5,,,,,,,112.5,B,Raw,Yes
DQ,Nazar Solyan,Назар Солян,M,1993-10-29,Open,82.5,82.3,,,,,-185,-185,-185,,,,,,,,,B,Raw,Yes
1,Oleg Tkach,Олег Ткач,M,1977-04-05,Masters 40-49,82.5,80.2,,,,,90,-100,-100,90,,,,,,,90,B,Raw,Yes
1,Vadim Melnik,Вадим Мельник,M,1965-08-14,Masters 50-59,82.5,80.05,,,,,140,145,-152.5,145,,,,,,,145,B,Raw,Yes
1,Danilo Denisenko,Данило Денисенко,M,2000-07-28,Teen 18-19,90,89.95,,,,,127.5,-132.5,132.5,132.5,,,,,,,132.5,B,Raw,Yes
1,Roman Nikolin,Роман Ніколін,M,1994-12-05,Juniors 20-23,90,85.2,,,,,165,170,-175,170,,,,,,,170,B,Raw,Yes
2,Bogdan Andriychenko,Богдан Андрійченко,M,1995-07-27,Juniors 20-23,90,88.95,,,,,135,145,-152.5,145,,,,,,,145,B,Raw,Yes
1,Andriy Kosyak,Андрій Косяк,M,1992-12-29,Open,90,89.7,,,,,170,177.5,-185,177.5,,,,,,,177.5,B,Raw,Yes
2,Boris Stashuk,Борис Сташук,M,1985-10-29,Open,90,88.05,,,,,160,170,175,175,,,,,,,175,B,Raw,Yes
3,Artem Shitiy,Артем Шитий,M,1992-08-07,Open,90,89.7,,,,,170,175,-180,175,,,,,,,175,B,Raw,Yes
4,Sergiy Kakhanchik,Сергій Каханчік,M,1986-09-19,Open,90,87.95,,,,,165,170,172.5,172.5,,,,,,,172.5,B,Raw,Yes
5,Roman Nikolin,Роман Ніколін,M,1994-12-05,Open,90,85.2,,,,,165,170,-175,170,,,,,,,170,B,Raw,Yes
6,Yuriy Yaremiy,Юрій Яремій,M,1993-05-14,Open,90,88.95,,,,,130,135,-140,135,,,,,,,135,B,Raw,Yes
1,Oleksandr Lisovskiy #2,Олександр Лісовський,M,1975-09-02,Masters 40-49,90,86.75,,,,,140,145,-150,145,,,,,,,145,B,Raw,Yes
2,Oleksandr Ploskiy,Олександр Плоский,M,1974-08-30,Masters 40-49,90,87.9,,,,,140,145,-152.5,145,,,,,,,145,B,Raw,Yes
3,Vitaliy Konarchuk,Віталій Конарчук,M,1975-05-21,Masters 40-49,90,87.9,,,,,120,125,130,130,,,,,,,130,B,Raw,Yes
4,Valentin Gostev,Валентин Гостєв,M,1975-02-28,Masters 40-49,90,88.8,,,,,127.5,-135,-135,127.5,,,,,,,127.5,B,Raw,Yes
1,Yuriy Digtyar,Юрій Дігтяр,M,1962-09-20,Masters 50-59,90,88.15,,,,,125,127.5,-130,127.5,,,,,,,127.5,B,Raw,Yes
1,Eduard Bilik,Едуард Білик,M,1995-11-01,Juniors 20-23,100,94.85,,,,,155,-162.5,162.5,162.5,,,,,,,162.5,B,Raw,Yes
2,Igor Kartash,Ігор Карташ,M,1997-11-29,Juniors 20-23,100,93.5,,,,,120,-130,-130,120,,,,,,,120,B,Raw,Yes
1,Andriy Levitskiy,Андрій Левицький,M,1988-06-04,Open,100,98.95,,,,,175,185,-187.5,185,,,,,,,185,B,Raw,Yes
2,Gennadiy Golembivskiy,Геннадій Голембівський,M,1982-01-16,Open,100,96.55,,,,,165,170,180,180,,,,,,,180,B,Raw,Yes
3,Oleksandr Karvas,Олександр Карвась,M,1985-10-11,Open,100,93.25,,,,,170,172.5,-177.5,172.5,,,,,,,172.5,B,Raw,Yes
4,Vadim Dodonov,Вадим Додонов,M,1987-02-03,Open,100,95.6,,,,,140,147.5,155,155,,,,,,,155,B,Raw,Yes
5,Ivan Shtolts,Іван Штольц,M,1994-09-18,Open,100,96.95,,,,,155,-162.5,-162.5,155,,,,,,,155,B,Raw,Yes
6,Sergiy Gavrilenko,Сергій Гавриленко,M,1986-06-28,Open,100,99.1,,,,,-140,150,-155,150,,,,,,,150,B,Raw,Yes
7,Oleg Murga,Олег Мурга,M,1991-06-10,Open,100,92.15,,,,,115,122.5,-127.5,122.5,,,,,,,122.5,B,Raw,Yes
8,Dmitro Pashkov,Дмитро Пашков,M,1986-02-24,Open,100,91.55,,,,,115,-120,-120,115,,,,,,,115,B,Raw,Yes
DQ,Andriy Simonchuk,Андрій Сімончук,M,1985-08-26,Open,100,98.55,,,,,-135,-135,-140,,,,,,,,,B,Raw,Yes
1,Sergiy Grechukha,Сергій Гречуха,M,1972-06-20,Masters 40-49,100,91.65,,,,,160,170,175,175,,,,,,,175,B,Raw,Yes
1,Sergiy Radchenko,Сергій Радченко,M,1989-03-27,Open,110,107.2,,,,,170,-180,-180,170,,,,,,,170,B,Raw,Yes
2,Yaroslav Savchuk,Ярослав Савчук,M,1984-07-25,Open,110,105.95,,,,,162.5,167.5,-170,167.5,,,,,,,167.5,B,Raw,Yes
3,Roman Khokhlov,Роман Хохлов,M,1987-05-18,Open,110,108.3,,,,,-157.5,162.5,-167.5,162.5,,,,,,,162.5,B,Raw,Yes
4,Roman Yur'ev,Роман Юр'єв,M,1980-10-14,Open,110,108.7,,,,,150,-160,160,160,,,,,,,160,B,Raw,Yes
5,Dmitro Bondarev #2,Дмитро Бондарєв,M,1984-11-19,Open,110,107.15,,,,,142.5,147.5,150,150,,,,,,,150,B,Raw,Yes
1,Dmitro Sviridenko,Дмитро Свириденко,M,1977-04-11,Masters 40-49,110,106.7,,,,,-185,185,195,195,,,,,,,195,B,Raw,Yes
1,Olena Valegova,Олена Валегова,F,1987-05-01,Open,52,50.52,,,,,,,,,,112.5,117.5,120,120,,120,D,Raw,Yes
1,Karina Khanagyan,Каріна Ханагян,F,1997-07-06,Juniors 20-23,56,55.15,,,,,,,,,,105,115,-125,115,,115,D,Raw,Yes
1,Nataliya Sokurenko,Наталія Сокуренко,F,1981-01-12,Open,56,55.84,,,,,,,,,,145,155,-157.5,155,,155,D,Raw,Yes
2,Tetyana Dzherelyuk,Тетяна Джерелюк,F,1983-07-08,Open,56,55.26,,,,,,,,,,120,127.5,-132.5,127.5,,127.5,D,Raw,Yes
3,Olesya Kiyan,Олеся Киян,F,1990-04-10,Open,56,55.58,,,,,,,,,,110,120,-130,120,,120,D,Raw,Yes
DQ,Liliya Likhnovska,Лілія Ліхновська,F,1983-08-10,Open,56,55.02,,,,,,,,,,-100,-100,-100,,,,D,Raw,Yes
1,Olena Boyko,Олена Бойко,F,1986-10-24,Open,60,57.62,,,,,,,,,,110,117.5,-125,117.5,,117.5,D,Raw,Yes
1,Margarita Molyaka,Маргарита Моляка,F,1994-11-29,Juniors 20-23,67.5,61.4,,,,,,,,,,115,122.5,,122.5,,122.5,D,Raw,Yes
1,Tetyana Tkachenko,Тетяна Ткаченко,F,1983-07-26,Open,67.5,65.95,,,,,,,,,,140,145,150,150,,150,D,Raw,Yes
2,Oksana Ostroushko,Оксана Остроушко,F,1982-06-26,Open,67.5,60.6,,,,,,,,,,120,130,135,135,,135,D,Raw,Yes
3,Margarita Molyaka,Маргарита Моляка,F,1994-11-29,Open,67.5,61.4,,,,,,,,,,115,122.5,,122.5,,122.5,D,Raw,Yes
1,Vita Rudakova,Віта Рудакова,F,1980-02-03,Open,75,72.5,,,,,,,,,,127.5,137.5,147.5,147.5,,147.5,D,Raw,Yes
1,Inna Zhovta,Інна Жовта,F,1981-04-07,Open,90,88.6,,,,,,,,,,140,150,157.5,157.5,,157.5,D,Raw,Yes
1,Bogdan Shulepov,Богдан Шулепов,M,2000-01-05,Teen 18-19,56,56,,,,,,,,,,145,-150,-150,145,,145,D,Raw,Yes
1,Denis Tariverdiev,Денис Тарівердієв,M,1995-08-21,Juniors 20-23,60,58.74,,,,,,,,,,170,180,185,185,,185,D,Raw,Yes
1,Andriy Timoshik,Андрій Тимошик,M,1990-03-22,Open,67.5,65.8,,,,,,,,,,170,-185,185,185,,185,D,Raw,Yes
1,Maksim Rudiy,Максим Рудий,M,2002-05-21,Teen 16-17,75,73.6,,,,,,,,,,182.5,207.5,221,221,,221,D,Raw,Yes
2,Oleksandr Dovzhenko,Олександр Довженко,M,2001-07-18,Teen 16-17,75,74.55,,,,,,,,,,180,-185,-185,180,,180,D,Raw,Yes
1,Igor Svekolnikov,Ігор Свекольніков,M,1998-12-21,Teen 18-19,75,74.9,,,,,,,,,,210,220,230,230,,230,D,Raw,Yes
2,Oleksandr Burmak,Олександр Бурмак,M,1999-05-26,Teen 18-19,75,71.8,,,,,,,,,,185,200,-207.5,200,,200,D,Raw,Yes
1,Erik Kupriev,Ерік Купрієв,M,1992-04-03,Open,75,75,,,,,,,,,,240,-260,260,260,,260,D,Raw,Yes
2,Vitaliy Dubina,Віталій Дубина,M,1986-04-28,Open,75,72.5,,,,,,,,,,170,190,210,210,,210,D,Raw,Yes
1,Vladislav Vishnya,Владислав Вишня,M,2002-06-17,Teen 16-17,82.5,79.15,,,,,,,,,,-190,200,220,220,,220,D,Raw,Yes
2,Yaroslav Slutskiy,Ярослав Слуцький,M,2001-01-24,Teen 16-17,82.5,80.7,,,,,,,,,,140,150,-155,150,,150,D,Raw,Yes
1,Vasil Zvizdaryuk,Василь Звіздарюк,M,2000-01-27,Teen 18-19,82.5,81.65,,,,,,,,,,205,-220,220,220,,220,D,Raw,Yes
1,Pavlo Samchuk,Павло Самчук,M,1997-08-31,Juniors 20-23,82.5,80.2,,,,,,,,,,220,227.5,235,235,,235,D,Raw,Yes
2,Eduard Buyan,Едуард Буян,M,1998-08-15,Juniors 20-23,82.5,80.05,,,,,,,,,,225,-240,-240,225,,225,D,Raw,Yes
1,Valentin Gontar,Валентин Гонтар,M,1987-09-26,Open,82.5,79.6,,,,,,,,,,247.5,255,262.5,262.5,,262.5,D,Raw,Yes
2,Dmitro Sitnik,Дмитро Ситнік,M,1993-10-04,Open,82.5,79.55,,,,,,,,,,220,-250,-250,220,,220,D,Raw,Yes
3,Maksim Smolyak,Максим Смоляк,M,1982-06-06,Open,82.5,80.95,,,,,,,,,,210,-220,-220,210,,210,D,Raw,Yes
4,Anton Ivashchenko,Антон Іващенко,M,1992-02-14,Open,82.5,82,,,,,,,,,,190,200,210,210,,210,D,Raw,Yes
5,Andriy Oseredko,Андрій Осередько,M,1994-07-24,Open,82.5,82.5,,,,,,,,,,-190,190,205,205,,205,D,Raw,Yes
6,Oleksandr Khursa,Олександр Хурса,M,1985-09-09,Open,82.5,79.05,,,,,,,,,,150,170,-190,170,,170,D,Raw,Yes
1,Andriy Ruban,Андрій Рубан,M,1999-01-27,Teen 18-19,90,88.9,,,,,,,,,,220,240,-262.5,240,,240,D,Raw,Yes
1,Oleg Litvinenko,Олег Литвиненко,M,1995-03-25,Juniors 20-23,90,84.15,,,,,,,,,,220,232.5,-237.5,232.5,,232.5,D,Raw,Yes
1,Boris Stashuk,Борис Сташук,M,1985-10-29,Open,90,88.05,,,,,,,,,,260,280,,280,,280,D,Raw,Yes
2,Oleksandr Drobilko,Олександр Дробілко,M,1972-11-13,Open,90,88,,,,,,,,,,220,230,237.5,237.5,-240,237.5,D,Raw,Yes
3,Oleg Litvinenko,Олег Литвиненко,M,1995-03-25,Open,90,84.15,,,,,,,,,,220,232.5,-237.5,232.5,,232.5,D,Raw,Yes
4,Petro Tolpegin,Петро Телпегін,M,1989-10-24,Open,90,87.45,,,,,,,,,,220,230,-240,230,,230,D,Raw,Yes
5,Yuriy Yaremiy,Юрій Яремій,M,1993-05-14,Open,90,88.95,,,,,,,,,,210,220,230,230,,230,D,Raw,Yes
1,Oleksandr Drobilko,Олександр Дробілко,M,1972-11-13,Masters 40-49,90,88,,,,,,,,,,220,230,237.5,237.5,,237.5,D,Raw,Yes
1,Gennadiy Ostrovskiy,Геннадій Островський,M,1965-01-08,Masters 50-59,90,87.75,,,,,,,,,,205,212.5,-217.5,212.5,,212.5,D,Raw,Yes
1,Artur Medvedev,Артур Медведєв,M,2000-04-17,Teen 18-19,100,94,,,,,,,,,,210,217.5,225,225,,225,D,Raw,Yes
1,Volodimir Urupa,Володимир Урупа,M,1997-10-08,Juniors 20-23,100,99.15,,,,,,,,,,190,210,-240,210,,210,D,Raw,Yes
1,Andriy Levitskiy,Андрій Левицький,M,1988-06-04,Open,100,98.95,,,,,,,,,,255,-265,270,270,,270,D,Raw,Yes
2,Evgen Levkovskiy,Євген Левковський,M,1990-02-19,Open,100,96.5,,,,,,,,,,220,245,262.5,262.5,,262.5,D,Raw,Yes
3,Denis Dashkovskiy,Денис Дашковський,M,1988-01-19,Open,100,97.75,,,,,,,,,,210,220,240,240,,240,D,Raw,Yes
4,Oleksiy Zhadko,Олексій Жадько,M,1991-03-30,Open,100,96.35,,,,,,,,,,220,230,-240,230,,230,D,Raw,Yes
1,Denis Palyukh,Денис Палюх,M,1984-09-27,Open,110,105.4,,,,,,,,,,240,-260,282.5,282.5,,282.5,D,Raw,Yes
2,Sergiy Radchenko,Сергій Радченко,M,1989-03-27,Open,110,107.2,,,,,,,,,,240,-265,-285,240,,240,D,Raw,Yes
3,Dmitro Levashov #1,Дмитро Лєвашов,M,1992-06-07,Open,110,107.45,,,,,,,,,,200,215,,215,,215,D,Raw,Yes
4,Roman Radchuk,Роман Радчук,M,1989-08-30,Open,110,110,,,,,,,,,,150,200,215,215,,215,D,Raw,Yes
1,Igor Furmanov,Ігор Фурманов,M,1968-04-24,Masters 50-59,125,111.8,,,,,,,,,,212.5,220,225,225,,225,D,Raw,Yes
1,Evgen Cherevatiy,Євген Череватий,M,1988-08-27,Open,90,90,,,,,,,,,,265,275,285,285,,285,D,Single-ply,Yes
1,Nazar Solyan,Назар Солян,M,1993-10-29,Open,82.5,82.3,,,,,200,220,230,230,-250,,,,,,230,B,Unlimited,Yes
1,Andriy Goncharov,Андрій Гончаров,M,1981-01-31,Open,100+,107.5,,,,,282.5,292.5,297.5,297.5,,,,,,,297.5,B,Unlimited,Yes
2,Igor Zaychuk,Ігор Зайчук,M,1989-12-02,Open,100+,116,,,,,265,282.5,-300,282.5,,,,,,,282.5,B,Unlimited,Yes
1,Oleksiy Karpenko,Олексій Карпенко,M,1993-08-12,Open,90,82.65,220,230,245,245,140,150,-155,150,,230,250,260,260,,655,SBD,Wraps,No
1,Sergiy Plotnikov,Сергій Плотніков,M,1995-01-08,Juniors 20-23,100,98.45,260,270,280,280,170,180,187.5,187.5,,232.5,245,260,260,,727.5,SBD,Wraps,No
1,Mikhaylo Zhelyazkov,Михайло Желязков,M,1980-09-12,Open,100,98,320,-335,-335,320,170,180,185,185,,-320,320,,320,,825,SBD,Wraps,No
2,Sergiy Plotnikov,Сергій Плотніков,M,1995-01-08,Open,100,98.45,260,270,280,280,170,180,187.5,187.5,,232.5,245,260,260,,727.5,SBD,Wraps,No
3,Dmitro Chumash,Дмитро Чумаш,M,1980-09-06,Open,100,98.5,265,-275,-280,265,150,162.5,-172.5,162.5,,245,255,-262.5,255,,682.5,SBD,Wraps,No
4,Vadim Mikityuk,Вадим Микитюк,M,1983-02-18,Open,100,98.45,220,230,-240,230,130,-140,140,140,,205,215,225,225,,595,SBD,Wraps,No
1,Denis Kiryaev,Денис Кіряев,M,1987-03-16,Open,110,108.4,-230,-230,230,230,145,152.5,,152.5,,260,280,-290,280,,662.5,SBD,Wraps,No
DQ,Sergey Zakharov #1,Сергей Захаров,M,1977-12-17,Masters 40-49,110,104.95,-195,-195,-195,,,,,,,,,,,,,SBD,Wraps,No
1,Vladislav Krat,Владислав Крат,M,1996-01-27,Juniors 20-23,125,120.1,270,280,-295,280,205,215,222.5,222.5,,300,330,-340,330,,832.5,SBD,Wraps,No
1,Dmitro Kravchinskiy,Дмитро Кравчинський,M,1982-05-19,Open,140,125.95,-195,195,205,205,190,197.5,205,205,,270,290,305,305,,715,SBD,Wraps,No
DQ,Nazar Kozub,Назар Козуб,M,1993-08-17,Open,140+,142.1,-290,-290,-300,,,,,,,,,,,,,SBD,Wraps,No
1,Andriy Romanchuk,Андрій Романчук,M,1976-12-27,Masters 40-49,110,104,260,270,,270,155,162.5,,162.5,,260,280,,280,,712.5,SBD,Single-ply,No
1,Yevgen Luk'yanov,Євген Лук'янов,M,1980-08-11,Open,90,88.15,,,,,170,175,-180,175,,220,230,240,240,,415,BD,Raw,No
1,Sergiy Novokhatskiy,Сергій Новохацький,M,1982-10-23,Open,100,93,,,,,130,140,-145,140,,225,230,245,245,,385,BD,Raw,No
1,Sergiy Zakharov,Сергій Захаров,M,1977-12-17,Masters 40-49,110,104.95,,,,,150,155,-157.5,155,,-210,210,230,230,,385,BD,Raw,No
1,Volodimir Lukyanov,Володимир Лук'янов,M,1966-02-18,Masters 50-59,110,101.1,,,,,130,135,,135,,250,260,272.5,272.5,,407.5,BD,Raw,No
1,Oleksandr Tarasov,Олександр Тарасов,M,1991-10-27,Open,125,117.85,,,,,205,212.5,-217.5,212.5,,290,-310,-310,290,,502.5,BD,Raw,No
1,Dmitro Kravchinskiy,Дмитро Кравчинський,M,1982-05-19,Open,140,125.95,,,,,190,197.5,205,205,,270,290,305,305,,510,BD,Raw,No
1,Dmitro Chumash,Дмитро Чумаш,M,1980-09-06,Open,100,98.5,265,-275,-280,265,,,,,,,,,,,265,S,Wraps,No
2,Vadim Mikityuk,Вадим Микитюк,M,1983-02-18,Open,100,98.45,220,230,-240,230,,,,,,,,,,,230,S,Wraps,No
DQ,Nazar Kozub,Назар Козуб,M,1993-08-17,Open,140+,142.1,-290,-290,-300,,,,,,,,,,,,,S,Wraps,No
1,Anton Kolesnikov #2,Антон Колесников,M,1997-11-03,Juniors 20-23,75,74.5,,,,,125,-135,-135,125,,,,,,,125,B,Raw,No
1,Stanislav Svirepov,Станіслав Свирепов,M,1986-11-18,Open,82.5,80.2,,,,,-165,165,,165,,,,,,,165,B,Raw,No
2,Ruslan Dragun,Руслан Драгун,M,1989-04-14,Open,82.5,79.9,,,,,155,160,-165,160,,,,,,,160,B,Raw,No
1,Valeriy Zimozdra,Валерій Зімоздра,M,1996-11-16,Juniors 20-23,90,86.45,,,,,160,165,-170,165,,,,,,,165,B,Raw,No
1,Oleksiy Bronishevskiy,Олексій Бронішевський,M,1988-03-26,Open,90,87,,,,,210,-221,-221,210,,,,,,,210,B,Raw,No
2,Pavlo Melnichenko,Павло Мельніченко,M,1989-11-01,Open,90,87.2,,,,,185,187.5,-192.5,187.5,,,,,,,187.5,B,Raw,No
3,Artem Kots,Артем Коц,M,1987-06-20,Open,90,87.3,,,,,187.5,-190,,187.5,,,,,,,187.5,B,Raw,No
4,Oleksandr Valivashenko,Олександр Валівашенко,M,1987-11-16,Open,90,87.75,,,,,180,182.5,-187.5,182.5,,,,,,,182.5,B,Raw,No
5,Yevgen Luk'yanov,Євген Лук'янов,M,1980-08-11,Open,90,88.15,,,,,170,175,-180,175,,,,,,,175,B,Raw,No
DQ,Igor Severin,Ігор Северин,M,1985-04-30,Open,90,84.65,,,,,-125,-125,-125,,,,,,,,,B,Raw,No
1,Yuriy Servetskiy,Юрій Сервецький,M,1977-06-07,Masters 40-49,90,86.45,,,,,150,-155,-155,150,,,,,,,150,B,Raw,No
1,Bogdan Solomakha,Богдан Соломаха,M,1996-05-29,Juniors 20-23,100,91.8,,,,,190,-195,197.5,197.5,,,,,,,197.5,B,Raw,No
2,Sergiy Plotnikov,Сергій Плотніков,M,1995-01-08,Juniors 20-23,100,98.45,,,,,170,180,187.5,187.5,,,,,,,187.5,B,Raw,No
3,Vladislav Boyko,Владислав Бойко,M,1994-11-19,Juniors 20-23,100,100,,,,,165,-175,-175,165,,,,,,,165,B,Raw,No
1,Igor Danilov #1,Ігор Данилов,M,1985-10-27,Open,100,96,,,,,200,210,-215,210,,,,,,,210,B,Raw,No
2,Bogdan Solomakha,Богдан Соломаха,M,1996-05-29,Open,100,91.8,,,,,190,-195,197.5,197.5,,,,,,,197.5,B,Raw,No
3,Sergiy Plotnikov,Сергій Плотніков,M,1995-01-08,Open,100,98.45,,,,,170,180,187.5,187.5,,,,,,,187.5,B,Raw,No
4,Roman Doroshenko,Роман Дорошенко,M,1992-07-23,Open,100,97.15,,,,,165,180,-195,180,,,,,,,180,B,Raw,No
5,Evgen Oponishev,Євген Опьонишев,M,1981-03-21,Open,100,95.4,,,,,150,160,170,170,,,,,,,170,B,Raw,No
1,Evgen Aleksienko,Євген Алексієнко,M,1976-10-11,Masters 40-49,100,94.7,,,,,205,-212.5,-212.5,205,,,,,,,205,B,Raw,No
2,Mikola Rubik,Микола Рубік,M,1972-12-20,Masters 40-49,100,91.75,,,,,160,-170,-175,160,,,,,,,160,B,Raw,No
1,Yuriy Kolesnik,Юрій Колеснік,M,1973-01-04,Open,110,110,,,,,190,200,-210,200,,,,,,,200,B,Raw,No
1,Yuriy Kolesnik,Юрій Колеснік,M,1973-01-04,Masters 40-49,110,110,,,,,190,200,-210,200,,,,,,,200,B,Raw,No
2,Sergey Zakharov #1,Сергей Захаров,M,1977-12-17,Masters 40-49,110,104.95,,,,,150,155,-157.5,155,,,,,,,155,B,Raw,No
1,Oleksandr Tarasov,Олександр Тарасов,M,1991-10-27,Open,125,117.85,,,,,205,212.5,-217.5,212.5,,,,,,,212.5,B,Raw,No
2,Evgeniy Khityaev,Євгеній Хітяєв,M,1984-05-07,Open,125,116.8,,,,,180,-210,-210,180,,,,,,,180,B,Raw,No
3,Igor Atroshchenko,Ігор Атрощенко,M,1987-09-06,Open,125,123.7,,,,,165,175,-190,175,,,,,,,175,B,Raw,No
1,Dmitro Kravchinskiy,Дмитро Кравчинський,M,1982-05-19,Open,140,125.95,,,,,190,197.5,205,205,,,,,,,205,B,Raw,No
1,Vitaliy Menchuk,Віталій Менчук,M,1998-05-27,Juniors 20-23,100,96.6,,,,,242.5,255,270,270,,,,,,,270,B,Single-ply,No
1,Olga Yanovich,Ольга Янович,F,1990-02-17,Open,56,54.06,,,,,,,,,,90,100,,100,,100,D,Raw,No
DQ,Oleksandr Trondyuk,Олександр Трондюк,M,1995-12-28,Juniors 20-23,75,73.9,,,,,,,,,,-250,-250,-250,,,,D,Raw,No
1,Oleg Chernyavskiy #3,Олег Чернявський,M,1983-12-24,Open,75,72,,,,,,,,,,262.5,-272.5,-272.5,262.5,,262.5,D,Raw,No
DQ,Oleksandr Trondyuk,Олександр Трондюк,M,1995-12-28,Open,75,73.9,,,,,,,,,,-250,-250,-250,,,,D,Raw,No
1,Volodimir Vasileko,Володимир Василеко,M,1943-11-11,Masters 70-79,75,73.2,,,,,,,,,,130,145,155,155,,155,D,Raw,No
1,Ruslan Dragun,Руслан Драгун,M,1989-04-14,Open,82.5,79,,,,,,,,,,220,240,250,250,,250,D,Raw,No
2,Dmitro Solonenko,Дмитро Солоненко,M,1994-06-11,Open,82.5,79.8,,,,,,,,,,225,-235,235,235,,235,D,Raw,No
1,Sergiy Plotnikov,Сергій Плотніков,M,1995-01-08,Juniors 20-23,100,98.45,,,,,,,,,,232.5,245,260,260,,260,D,Raw,No
1,Mikhaylo Zhelyazkov,Михайло Желязков,M,1980-09-12,Open,100,98,,,,,,,,,,-320,320,,320,,320,D,Raw,No
2,Viktor Shulgin,Віктор Шульгін,M,1990-04-13,Open,100,91.9,,,,,,,,,,295,310,312.5,312.5,,312.5,D,Raw,No
3,Sergiy Plotnikov,Сергій Плотніков,M,1995-01-08,Open,100,98.45,,,,,,,,,,232.5,245,260,260,,260,D,Raw,No
4,Sergiy Novokhatskiy,Сергій Новохацький,M,1982-10-23,Open,100,93,,,,,,,,,,225,230,245,245,,245,D,Raw,No
5,Oleksandr Bayda,Олександр Байда,M,1982-04-17,Open,100,99.55,,,,,,,,,,230,240,-245,240,,240,D,Raw,No
DQ,Mikhaylo Savenko,Михайло Савенко,M,1996-04-22,Juniors 20-23,110,104.8,,,,,,,,,,-310,-320,-320,,,,D,Raw,No
1,Jorge-Seidu Tologa,Жорж-Сейду Толога,M,1989-04-05,Open,110,110,,,,,,,,,,340,-352.5,-355,340,,340,D,Raw,No
DQ,Mikhaylo Savenko,Михайло Савенко,M,1996-04-22,Open,110,104.8,,,,,,,,,,-310,-320,-320,,,,D,Raw,No
1,Sergey Zakharov #1,Сергей Захаров,M,1977-12-17,Masters 40-49,110,104.95,,,,,,,,,,-210,210,230,230,,230,D,Raw,No
1,Volodimir Lukyanov,Володимир Лук'янов,M,1966-02-18,Masters 50-59,110,101.1,,,,,,,,,,250,260,272.5,272.5,,272.5,D,Raw,No
1,Oleksandr Tarasov,Олександр Тарасов,M,1991-10-27,Open,125,117.85,,,,,,,,,,290,-310,-310,290,,290,D,Raw,No
1,Dmitro Kravchinskiy,Дмитро Кравчинський,M,1982-05-19,Open,140,125.95,,,,,,,,,,270,290,305,305,,305,D,Raw,No
1,Nazar Kozub,Назар Козуб,M,1993-08-17,Open,140+,142.1,,,,,,,,,,270,305,-310,305,,305,D,Raw,No
1,Viktor Shulgin,Віктор Шульгін,M,1990-04-13,Open,100,91.9,,,,,,,,,,295,315,320,320,,320,D,Single-ply,No
1,Oleg Kovbasa,Олег Ковбаса,M,1975-02-06,Masters 40-49,100,96.9,,,,,,,,,,180,200,-220,200,,200,D,Single-ply,No
1,Evgeniy Ivanets,Євгеній Іванець,M,1995-10-02,Juniors 20-23,110,101.85,,,,,,,,,,330,350,360,360,-370,360,D,Single-ply,No
1,Sergiy Kolisnik,Сергій Колісник,M,1963-01-03,Masters 50-59,110,101.75,,,,,,,,,,200,-220,-230,200,,200,D,Single-ply,No
1,Igor Danilov #1,Ігор Данилов,M,1985-10-27,Open,100,96,,,,,250,280,300,300,,,,,,,300,B,Unlimited,No
1,Yuriy Kostenko,Юрій Костенко,M,1971-07-28,Masters 40-49,100+,100.4,,,,,215,230,,230,,,,,,,230,B,Unlimited,No
1,Volodimir Kolomiets,Володимир Коломіець,M,1966-05-09,Masters 50-59,100+,103.3,,,,,195,205,220,220,231,,,,,,220,B,Unlimited,No
