Place,Name,Country,BodyweightKg,Squat1Kg,Squat2Kg,Squat3Kg,Squat4Kg,Bench1Kg,Bench2Kg,Bench3Kg,Bench4Kg,Deadlift1Kg,Deadlift2Kg,Deadlift3Kg,Deadlift4Kg,TotalKg,WeightClassKg,Division,Sex,Event,Equipment,Best3SquatKg,Best3BenchKg,Best3DeadliftKg,BirthYear
1,Dmitro Zaets,Ukraine,37.4,70,75,77.5,,35,40,-42.5,,90,100,-105,,217.5,44,Amateur Sub-Teen 11-12,M,SBD,Wraps,77.5,40,100,2002
1,Mykyta Kravets,Ukraine,52,117.5,125,130,,65,70,-72.5,,105,115,120,,320,52,Amateur Teen 13-15,M,SBD,Wraps,130,70,120,2000
1,Vladyslav Volosyuk,Ukraine,66,145,155,-165,,82.5,90,92.5,,155,167.5,175,,422.5,67.5,Amateur Teen 13-15,M,SBD,Wraps,155,92.5,175,1998
1,Vladislav Sklyarov,Ukraine,73.7,140,150,160,,92.5,100,102.5,,152.5,162.5,-170,,425,75,Amateur Teen 13-15,M,SBD,Wraps,160,102.5,162.5,1998
1,Oleksandr Davydenko,Ukraine,64.6,120,-135,135,,70,82.5,-85,,150,162.5,-167.5,,380,67.5,Amateur Teen 16-17,M,SBD,Wraps,135,82.5,162.5,1997
1,Yaroslav Tarasenko,Ukraine,74.8,155,165,175,,80,85,-90,,160,-170,-170,,420,75,Amateur Teen 16-17,M,SBD,Wraps,175,85,160,1997
1,Dmitro Grigorev #2,Ukraine,98,200,212.5,220,,120,-127.5,-127.5,,200,-212.5,217.5,,557.5,100,Amateur Teen 16-17,M,SBD,Wraps,220,120,217.5,1997
1,Valentyn Smirnov,Ukraine,71.1,140,150,-160,,70,77.5,-82.5,,140,150,160,,387.5,75,Amateur Teen 18-19,M,SBD,Wraps,150,77.5,160,1995
1,Yaroslav Kalugin,Ukraine,64.5,140,150,-160,,80,-85,,,180,195,-205,,425,67.5,Amateur Juniors 20-23,M,SBD,Wraps,150,80,195,1994
1,Denys Pavlyak,Ukraine,74.7,175,-185,185,,115,120,125,,165,175,182.5,,492.5,75,Amateur Juniors 20-23,M,SBD,Wraps,185,125,182.5,1991
2,Sergiy Chalyy,Ukraine,73.1,145,-150,-150,,90,95,-100,,170,-180,180,,420,75,Amateur Juniors 20-23,M,SBD,Wraps,145,95,180,1993
1,Dmytro Chornenkyy,Ukraine,80.2,165,175,182.5,,120,-130,130,,190,205,-230,,517.5,82.5,Amateur Juniors 20-23,M,SBD,Wraps,182.5,130,205,1993
1,Yuriy Masloyan,Ukraine,89,205,220,230,,137.5,142.5,-147.5,,205,212.5,220,,592.5,90,Amateur Juniors 20-23,M,SBD,Wraps,230,142.5,220,1994
2,Maksym Rybalka,Ukraine,87,-190,190,200,,120,127.5,-132.5,,200,220,-242.5,,547.5,90,Amateur Juniors 20-23,M,SBD,Wraps,200,127.5,220,1993
1,Mykola Bortnyk,Ukraine,97.2,210,230,-250,,130,140,,,260,285,,,655,100,Amateur Juniors 20-23,M,SBD,Wraps,230,140,285,1992
2,Danylo Udovyk,Ukraine,98.6,155,165,172.5,,105,115,-117.5,,160,175,-185,,462.5,100,Amateur Juniors 20-23,M,SBD,Wraps,172.5,115,175,1992
1,Mykhaylo Moshkovych,Ukraine,66.3,-100,100,110,,65,70,-75,,150,157.5,-160,,337.5,67.5,Amateur Open,M,SBD,Wraps,110,70,157.5,1984
1,Andriy Besedin,Ukraine,75,175,-190,190,,120,130,-137.5,,190,205,215,,535,75,Amateur Open,M,SBD,Wraps,190,130,215,1984
1,Vitaliy Onyschuk,Ukraine,80.6,-182.5,-182.5,182.5,,122.5,130,135,,182.5,-210,-210,,500,82.5,Amateur Open,M,SBD,Wraps,182.5,135,182.5,1984
1,Eduard Lisovetskyy,Ukraine,85.8,240,255,265,,122.5,127.5,130,,235,-252.5,-252.5,,630,90,Amateur Open,M,SBD,Wraps,265,130,235,1988
2,Nazariy Perkhulin,Ukraine,87.3,200,210,-220,,145,152.5,-157.5,,200,210,-215,,572.5,90,Amateur Open,M,SBD,Wraps,210,152.5,210,1988
3,Yuriy Shyrynskyy,Ukraine,88.1,140,145,152.5,,117.5,122.5,-125,,150,165,172.5,,447.5,90,Amateur Open,M,SBD,Wraps,152.5,122.5,172.5,1977
DQ,Aleksandr Ageenko,Ukraine,99.8,-230,-230,-230,,-155,,,,-230,,,,,100,Amateur Open,M,SBD,Wraps,,,,1976
1,Sergiy Bessel,Ukraine,107.1,230,242.5,250,,170,-180,180,,240,257.5,267.5,,697.5,110,Amateur Open,M,SBD,Wraps,250,180,267.5,1984
1,Sergiy Falchenko,Ukraine,88.5,125,130,135,,90,100,-102.5,,160,165,170,,405,90,Amateur Masters 40-44,M,SBD,Wraps,135,100,170,1972
1,Gasan Garumov,Ukraine,74.3,120,-130,-130,,80,90,-100,,140,150,155,,365,75,Amateur Masters 50-54,M,SBD,Wraps,120,90,155,1963
2,Mykola Kots,Ukraine,73.8,100,105,115,,85,90,-92.5,,125,-135,-135,,330,75,Amateur Masters 50-54,M,SBD,Wraps,115,90,125,1960
1,Sergiy Kolesnyk,Ukraine,97.1,200,215,-220,,135,145,-152.5,,200,220,225,,585,100,Amateur Masters 50-54,M,SBD,Wraps,215,145,225,1963
1,Mykola Golovan,Ukraine,123.7,190,210,230,,155,165,-170,,200,230,-255,,625,125,Amateur Masters 50-54,M,SBD,Wraps,230,165,230,1961
1,Volodymyr Vasylenko,Ukraine,77.2,100,115,125,,60,65,67.5,,130,150,155,,347.5,82.5,Amateur Masters 70-74,M,SBD,Wraps,125,67.5,155,1943
1,Nataliya Dragunova,Ukraine,65.9,50,55,60,,30,35,-37.5,,-80,-85,85,,180,67.5,Amateur Teen 18-19,F,SBD,Wraps,60,35,85,1996
1,Darina Kovalova,Ukraine,54.3,95,100,105,,-45,50,-55,,110,120,125,,280,56,Amateur Juniors 20-23,F,SBD,Wraps,105,50,125,1990
1,Yuliya Gabelko,Ukraine,47.3,85,90,95,,42.5,-47.5,-47.5,,-77.5,77.5,-82.5,,215,48,Amateur Open,F,SBD,Wraps,95,42.5,77.5,1987
2,Yana Khlanta,Ukraine,47.4,70,-75,75,,35,-37.5,-37.5,,85,-90,-90,,195,48,Amateur Open,F,SBD,Wraps,75,35,85,1987
1,Marina Matvienko,Ukraine,50.2,-70,80,85,,40,45,-47.5,,105,115,122.5,,252.5,52,Amateur Open,F,SBD,Wraps,85,45,122.5,1989
2,Bettina Razzouki-Korkis,Poland,50.8,45,50,55,,50,55,60,,80,90,100,,215,52,Amateur Open,F,SBD,Wraps,55,60,100,1965
1,Bettina Razzouki-Korkis,Poland,50.8,45,50,55,,50,55,60,,80,90,100,,215,52,Amateur Masters 45-49,F,SBD,Wraps,55,60,100,1965
1,Oleksiy Ofitsynskyy,Ukraine,87.8,180,-190,-190,,-130,135,-140,,210,217.5,-225,,532.5,90,Pro Teen 16-17,M,SBD,Wraps,180,135,217.5,1997
1,Bogdan Degtyarenko,Ukraine,85.9,165,175,185,,90,95,-100,,185,195,210,,490,90,Pro Teen 18-19,M,SBD,Wraps,185,95,210,1996
1,Ivan Tymchak,Ukraine,81.6,180,190,-200,,120,125,-127.5,,210,220,-227.5,,535,82.5,Pro Juniors 20-23,M,SBD,Wraps,190,125,220,1993
1,Grzegorz Soska,Poland,99.6,-190,190,202.5,,170,-177.5,-180,,255,265,272.5,,645,100,Pro Juniors 20-23,M,SBD,Wraps,202.5,170,272.5,1991
1,Givi Marvgelashvili,Georgia,66.8,150,170,186,-190,135,-145,,,180,200,211,220,532,67.5,Pro Open,M,SBD,Wraps,186,135,211,1989
1,Arkadiy Shalokha,Ukraine,82.5,300,312.5,322.5,,175,185,195,,275,285,295,,812.5,82.5,Pro Open,M,SBD,Wraps,322.5,195,295,1983
1,Vasyl' Mykhalskyy,Ukraine,89.3,210,-220,-230,,130,140,147.5,,230,245,255,,612.5,90,Pro Open,M,SBD,Wraps,210,147.5,255,1980
2,Igor Zhuk #1,Ukraine,89.9,200,230,-245,,135,150,-155,,190,210,-225,,590,90,Pro Open,M,SBD,Wraps,230,150,210,1988
1,Pavlo Gaysha,Ukraine,108.5,265,285,295,,185,-192.5,192.5,,260,280,290,,777.5,110,Pro Open,M,SBD,Wraps,295,192.5,290,1988
2,Kyrylo Potapov,Ukraine,101.6,-240,-240,240,,130,140,145,,250,270,275,,660,110,Pro Open,M,SBD,Wraps,240,145,275,1982
3,Vadym Grachov,Ukraine,103.6,200,-220,-220,,180,190,-200,,240,250,-270,,640,110,Pro Open,M,SBD,Wraps,200,190,250,1988
1,Oleksandr Burda,Ukraine,111,230,250,-260,,190,200,205,,290,300,315,,770,125,Pro Open,M,SBD,Wraps,250,205,315,1988
1,Yuriy Pavlenko,Ukraine,96.8,150,160,-170,,-120,-120,125,,200,227.5,-235,,512.5,100,Pro Submasters 33-39,M,SBD,Wraps,160,125,227.5,1978
1,Oleksandr Popovych,Ukraine,67.5,130,150,165,-175,125,135,-140,,150,170,180,,480,67.5,Pro Masters 40-44,M,SBD,Wraps,165,135,180,1972
1,Aleksey Tarasenko,Russia,122.3,285,305,320,,220,227.5,235,,265,285,-300,,840,125,Pro Masters 40-44,M,SBD,Wraps,320,235,285,1971
DQ,Pavlo Kipnyak,Ukraine,108.8,-220,-230,-230,,-150,,,,-190,-190,,,,110,Pro Masters 45-49,M,SBD,Wraps,,,,1969
1,Oleksandr Kalkutin,Ukraine,133.5,-240,-240,240,,190,-200,,,220,-240,,,650,140,Pro Masters 45-49,M,SBD,Wraps,240,190,220,1965
1,Oleksandr Popovych,Ukraine,67.5,130,150,165,-175,125,135,-140,,150,170,180,,480,67.5,Pro Military/Fire/Police,M,SBD,Wraps,165,135,180,1972
1,Yuriy Pavlenko,Ukraine,96.8,150,160,-170,,-120,-120,125,,200,227.5,-235,,512.5,100,Pro Military/Fire/Police,M,SBD,Wraps,160,125,227.5,1978
1,Kyrylo Potapov,Ukraine,101.6,-240,-240,240,,130,140,145,,250,270,275,,660,110,Pro Military/Fire/Police,M,SBD,Wraps,240,145,275,1982
1,Yuriy Malygin,Ukraine,104.8,180,210,-240,,120,170,,,180,200,220,,600,110,Pro Masters 45-49,M,SBD,Multi-ply,210,170,220,1967
1,Yuriy Malygin,Ukraine,104.8,180,210,-240,,120,170,,,180,200,220,,600,110,Pro Military/Fire/Police,M,SBD,Multi-ply,210,170,220,1967
1,Dmitro Zaets,Ukraine,37.4,,,,,35,40,-42.5,,,,,,40,44,Amateur Sub-Teen 11-12,M,B,Raw,,40,,2002
1,Mykhaylo Malkush,Ukraine,58.7,,,,,92.5,-102.5,102.5,,,,,,102.5,60,Amateur Teen 16-17,M,B,Raw,,102.5,,1996
2,Pavlo Pidtoptaniy,Ukraine,59.6,,,,,-90,90,-95,,,,,,90,60,Amateur Teen 16-17,M,B,Raw,,90,,1997
1,Stanislaw Kotsaga,Poland,64.9,,,,,82.5,87.5,-92.5,,,,,,87.5,67.5,Amateur Teen 16-17,M,B,Raw,,87.5,,1998
1,Dmytro Chadov,Ukraine,74.7,,,,,120,125,-130,,,,,,125,75,Amateur Teen 16-17,M,B,Raw,,125,,1996
2,Artur Sozinov,Ukraine,72.7,,,,,90,95,-100,,,,,,95,75,Amateur Teen 16-17,M,B,Raw,,95,,1998
3,Artem Bezus,Ukraine,74.1,,,,,80,85,-90,,,,,,85,75,Amateur Teen 16-17,M,B,Raw,,85,,1997
1,Vladyslav Lytvyn,Ukraine,88.2,,,,,115,-125,125,,,,,,125,90,Amateur Teen 16-17,M,B,Raw,,125,,
1,Borys Mydlyk,Ukraine,73.3,,,,,-115,115,-125,,,,,,115,75,Amateur Teen 18-19,M,B,Raw,,115,,1995
1,Oleksandr Romenchuk,Ukraine,66.6,,,,,120,130,-135,,,,,,130,67.5,Amateur Juniors 20-23,M,B,Raw,,130,,1992
1,Bogdan Sidoruk,Ukraine,73.5,,,,,120,125,-130,,,,,,125,75,Amateur Juniors 20-23,M,B,Raw,,125,,1992
1,Volodymyr Nazarko,Ukraine,86.7,,,,,130,-140,-140,,,,,,130,90,Amateur Juniors 20-23,M,B,Raw,,130,,1993
1,Lev Boyko,Ukraine,64.7,,,,,-110,110,-115,,,,,,110,67.5,Amateur Open,M,B,Raw,,110,,1987
1,Artur Bakanov,Ukraine,88.8,,,,,160,-165,-165,,,,,,160,90,Amateur Open,M,B,Raw,,160,,1989
2,Oleksandr Lisovskiy #1,Ukraine,89,,,,,145,152.5,-157.5,,,,,,152.5,90,Amateur Open,M,B,Raw,,152.5,,1990
3,Yuriy Telychko,Ukraine,83.7,,,,,-145,150,-152.5,,,,,,150,90,Amateur Open,M,B,Raw,,150,,1988
4,Sergiy Maksymenko,Ukraine,90,,,,,-150,150,-157.5,,,,,,150,90,Amateur Open,M,B,Raw,,150,,1985
DQ,Andriy Avramenko,Ukraine,89.4,,,,,-152.5,-152.5,-152.5,,,,,,,90,Amateur Open,M,B,Raw,,,,1977
1,Ivan Klyok,Ukraine,98.6,,,,,170,175,,,,,,,175,100,Amateur Open,M,B,Raw,,175,,1978
2,Mikheil Bodaveli,Georgia,99.9,,,,,160,170,-175,,,,,,170,100,Amateur Open,M,B,Raw,,170,,1989
3,Oleg Khvedun,Ukraine,95.2,,,,,155,-162.5,167.5,,,,,,167.5,100,Amateur Open,M,B,Raw,,167.5,,1986
1,Andriy Mazanovych,Ukraine,102.1,,,,,175,-185,185,,,,,,185,110,Amateur Open,M,B,Raw,,185,,1987
2,Yuriy Shynkaruk,Ukraine,106.8,,,,,145,165,-175,,,,,,165,110,Amateur Open,M,B,Raw,,165,,1976
1,Yuriy Bezhynets,Ukraine,75.8,,,,,95,-100,-102.5,,,,,,95,82.5,Amateur Submasters 33-39,M,B,Raw,,95,,1974
1,Ivan Klyok,Ukraine,98.6,,,,,170,175,,,,,,,175,100,Amateur Submasters 33-39,M,B,Raw,,175,,1978
1,Yuriy Shynkaruk,Ukraine,106.8,,,,,145,165,-175,,,,,,165,110,Amateur Submasters 33-39,M,B,Raw,,165,,1976
1,Albert Izotkov,Ukraine,75,,,,,110,115,117.5,,,,,,117.5,75,Amateur Masters 40-44,M,B,Raw,,117.5,,1971
1,Dmytro Lutsenko,Ukraine,87.8,,,,,-90,90,-95,,,,,,90,90,Amateur Masters 40-44,M,B,Raw,,90,,1971
1,Eugene Krashanovskyy,Ukraine,99.9,,,,,177.5,182.5,-185,,,,,,182.5,100,Amateur Masters 40-44,M,B,Raw,,182.5,,1970
2,Volodymyr Melnyk,Ukraine,99.7,,,,,115,120,122.5,,,,,,122.5,100,Amateur Masters 40-44,M,B,Raw,,122.5,,1970
1,Ruslan Pylypchuk,Ukraine,100.4,,,,,140,145,,,,,,,145,110,Amateur Masters 40-44,M,B,Raw,,145,,1970
1,Sergiy Bludov,Ukraine,78,,,,,-105,110,-117.5,,,,,,110,82.5,Amateur Masters 45-49,M,B,Raw,,110,,1967
1,Vladislav Marchenko,Ukraine,121.9,,,,,160,165,170,,,,,,170,125,Amateur Masters 45-49,M,B,Raw,,170,,1967
1,Gasan Garumov,Ukraine,74.3,,,,,80,90,-100,,,,,,90,75,Amateur Masters 50-54,M,B,Raw,,90,,1963
1,Mykola Gorbachov,Ukraine,94.1,,,,,140,145,150,,,,,,150,100,Amateur Masters 50-54,M,B,Raw,,150,,1962
1,Yuriy Eleva,Ukraine,104,,,,,-125,125,135,,,,,,135,110,Amateur Masters 50-54,M,B,Raw,,135,,1963
1,Petro Lonyuk,Ukraine,86.6,,,,,122.5,127.5,132.5,,,,,,132.5,90,Amateur Masters 55-59,M,B,Raw,,132.5,,1956
1,Andriy Laytan,Ukraine,124.8,,,,,135,145,-147.5,,,,,,145,125,Amateur Masters 55-59,M,B,Raw,,145,,1957
1,Yuriy Filonenko,Ukraine,89.7,,,,,117.5,122.5,-125,,,,,,122.5,90,Amateur Masters 60-64,M,B,Raw,,122.5,,1954
1,Stanislaw Kotsaga,Poland,64.9,,,,,82.5,87.5,-92.5,,,,,,87.5,67.5,Amateur Military/Fire/Police,M,B,Raw,,87.5,,1998
DQ,Yana Shyspanova,Ukraine,57.1,,,,,-55,-55,-55,,,,,,,60,Amateur Teen 13-15,F,B,Raw,,,,1999
1,Yuliya Gamurar,Ukraine,67,,,,,65,70,72.5,,,,,,72.5,67.5,Amateur Teen 13-15,F,B,Raw,,72.5,,1998
1,Nataliya Melnychuk,Ukraine,51.8,,,,,60,65,-67.5,,,,,,65,52,Amateur Open,F,B,Raw,,65,,1975
2,Bettina Razzouki-Korkis,Poland,50.8,,,,,52.5,57.5,-62.5,,,,,,57.5,52,Amateur Open,F,B,Raw,,57.5,,1965
1,Valita Gorelchaniki,Georgia,55.8,,,,,70,75,-80,,,,,,75,56,Amateur Open,F,B,Raw,,75,,1986
2,Irina Ternova,Ukraine,55.3,,,,,65,70,72.5,,,,,,72.5,56,Amateur Open,F,B,Raw,,72.5,,1974
3,Yulia Bazilevich,Ukraine,56,,,,,50,55,-60,,,,,,55,56,Amateur Open,F,B,Raw,,55,,1983
4,Olga Synytska,Ukraine,55.4,,,,,47.5,52.5,-55,,,,,,52.5,56,Amateur Open,F,B,Raw,,52.5,,1989
1,Narina Kocharyan,Ukraine,60,,,,,60,65,67.5,,,,,,67.5,60,Amateur Open,F,B,Raw,,67.5,,1985
1,Yulia Pyatnytsya,Ukraine,62.4,,,,,80,87.5,90,,,,,,90,67.5,Amateur Open,F,B,Raw,,90,,1986
2,Nataliya Mavdrik,Ukraine,60.9,,,,,70,-72.5,-72.5,,,,,,70,67.5,Amateur Open,F,B,Raw,,70,,1984
3,Olga Khoroshko,Ukraine,66.3,,,,,65,-70,-70,,,,,,65,67.5,Amateur Open,F,B,Raw,,65,,1984
4,Olena Scherbinina,Ukraine,65.7,,,,,-55,57.5,-60,,,,,,57.5,67.5,Amateur Open,F,B,Raw,,57.5,,1982
1,Tetyana Shavidze,Ukraine,64,,,,,-65,65,-70,,,,,,65,67.5,Amateur Submasters 33-39,F,B,Raw,,65,,1977
1,Irina Ternova,Ukraine,55.3,,,,,65,70,72.5,,,,,,72.5,56,Amateur Masters 40-44,F,B,Raw,,72.5,,1974
1,Oksana Muzyka,Ukraine,66.5,,,,,60,-65,-65,,,,,,60,67.5,Amateur Masters 40-44,F,B,Raw,,60,,1969
1,Bettina Razzouki-Korkis,Poland,50.8,,,,,52.5,57.5,-62.5,,,,,,57.5,52,Amateur Masters 45-49,F,B,Raw,,57.5,,1965
1,Irina Ternova,Ukraine,55.3,,,,,65,70,72.5,,,,,,72.5,56,Amateur Military/Fire/Police,F,B,Raw,,72.5,,1974
1,Vladyslav Bondarenko,Ukraine,45.5,,,,,65,70,71,,,,,,71,48,Pro Teen 13-15,M,B,Raw,,71,,1999
2,Mykyta Lutsenko,Ukraine,46.7,,,,,60,65,-67.5,,,,,,65,48,Pro Teen 13-15,M,B,Raw,,65,,2000
1,Dmytro Bodrov,Ukraine,54.1,,,,,40,45,-50,,,,,,45,56,Pro Teen 13-15,M,B,Raw,,45,,2000
1,Sergiy Pavlenko,Ukraine,70.9,,,,,100,110,-117.5,,,,,,110,75,Pro Teen 18-19,M,B,Raw,,110,,1995
2,Vitaliy Galyant,Ukraine,72.3,,,,,-95,95,97.5,,,,,,97.5,75,Pro Teen 18-19,M,B,Raw,,97.5,,1996
1,Mykyta Kolomyza,Ukraine,87,,,,,160,165,-175,,,,,,165,90,Pro Teen 18-19,M,B,Raw,,165,,1994
2,Rostyslav Kim,Ukraine,88.9,,,,,-140,150,160,,,,,,160,90,Pro Teen 18-19,M,B,Raw,,160,,1996
1,Anton Mykhaylenko,Ukraine,96.2,,,,,130,135,-140,,,,,,135,100,Pro Teen 18-19,M,B,Raw,,135,,1994
DQ,Oleksandr Fedoriv,Ukraine,73.2,,,,,-115,-115,-115,,,,,,,75,Pro Juniors 20-23,M,B,Raw,,,,1993
1,Andriy Gurichev,Ukraine,88.4,,,,,180,-185,-185,,,,,,180,90,Pro Juniors 20-23,M,B,Raw,,180,,1991
1,Michał Różycki,Poland,65.5,,,,,130,135,137.5,,,,,,137.5,67.5,Pro Open,M,B,Raw,,137.5,,1985
1,Dominik Skrzyňski,Poland,71.1,,,,,160,170,180,-185,,,,,180,75,Pro Open,M,B,Raw,,180,,1975
1,Robert Wrzawiński,Poland,82.5,,,,,195,200,205,,,,,,205,82.5,Pro Open,M,B,Raw,,205,,1982
2,Volodymyr Galyga,Ukraine,81.8,,,,,180,-185,185,,,,,,185,82.5,Pro Open,M,B,Raw,,185,,1993
1,Kostiantyn Grabovskyi,Ukraine,89.5,,,,,200,205,207.5,210,,,,,207.5,90,Pro Open,M,B,Raw,,207.5,,1976
2,Andriy Gurichev,Ukraine,88.4,,,,,180,-185,-185,,,,,,180,90,Pro Open,M,B,Raw,,180,,1991
3,Vyacheslav Perekhrest,Ukraine,89.5,,,,,-170,-170,170,,,,,,170,90,Pro Open,M,B,Raw,,170,,1984
1,Patryk Szypuła,Poland,91.6,,,,,200,205,210,,,,,,210,100,Pro Open,M,B,Raw,,210,,1979
2,Hovhannes Yazichyan,Armenia,92.1,,,,,-197.5,197.5,202.5,205,,,,,202.5,100,Pro Open,M,B,Raw,,202.5,,1971
3,Dmytro Gak,Ukraine,96.5,,,,,190,-200,200,,,,,,200,100,Pro Open,M,B,Raw,,200,,1983
4,Eugene Aleksienko,Ukraine,100,,,,,200,-207.5,-207.5,,,,,,200,100,Pro Open,M,B,Raw,,200,,1976
5,Oleksandr Karnaukh,Ukraine,98.9,,,,,-180,190,-200,,,,,,190,100,Pro Open,M,B,Raw,,190,,1980
6,Igor Vinyarskyy,Ukraine,99.5,,,,,190,-195,-195,,,,,,190,100,Pro Open,M,B,Raw,,190,,1983
7,Sergiy Faktulin,Ukraine,96,,,,,175,185,-187.5,,,,,,185,100,Pro Open,M,B,Raw,,185,,1982
1,Miroslav Reshetnikov,Ukraine,107.9,,,,,207.5,217.5,-222.5,,,,,,217.5,110,Pro Open,M,B,Raw,,217.5,,1988
2,Oleg Palamarchuk,Ukraine,109.3,,,,,210,-217.5,-217.5,,,,,,210,110,Pro Open,M,B,Raw,,210,,1972
3,Sergiy Vereschak,Ukraine,104.7,,,,,175,180,-185,,,,,,180,110,Pro Open,M,B,Raw,,180,,1975
1,Igor Pober,Ukraine,125,,,,,215,225,-230,,,,,,225,125,Pro Open,M,B,Raw,,225,,1968
2,Sergiy Shumskyy,Ukraine,114,,,,,155,165,-175,,,,,,165,125,Pro Open,M,B,Raw,,165,,1985
1,Oleksandr Gensitskyy,Ukraine,138,,,,,210,220,230,,,,,,230,140,Pro Open,M,B,Raw,,230,,1975
1,Dominik Skrzyňski,Poland,71.1,,,,,160,170,180,-185,,,,,180,75,Pro Submasters 33-39,M,B,Raw,,180,,1975
1,Oleksandr Yakovlev #3,Ukraine,87.9,,,,,165,175,-180,,,,,,175,90,Pro Submasters 33-39,M,B,Raw,,175,,1978
1,Patryk Szypuła,Poland,91.6,,,,,200,205,210,,,,,,210,100,Pro Submasters 33-39,M,B,Raw,,210,,1979
1,Sergiy Vereschak,Ukraine,104.7,,,,,175,180,-185,,,,,,180,110,Pro Submasters 33-39,M,B,Raw,,180,,1975
2,Andriy Bodrov,Ukraine,107.6,,,,,120,125,-130,,,,,,125,110,Pro Submasters 33-39,M,B,Raw,,125,,1975
1,Tomasz Andrzejczak,Poland,125.3,,,,,190,200,-205,,,,,,200,140,Pro Submasters 33-39,M,B,Raw,,200,,1978
1,Oleksandr Zhariy,Ukraine,58.9,,,,,-125,125,-127.5,,,,,,125,60,Pro Masters 40-44,M,B,Raw,,125,,1972
1,Oleksandr Popovych,Ukraine,67.5,,,,,125,135,-140,,,,,,135,67.5,Pro Masters 40-44,M,B,Raw,,135,,1972
1,Rostyslav Bondarenko,Ukraine,87.7,,,,,170,177.5,180,,,,,,180,90,Pro Masters 40-44,M,B,Raw,,180,,1972
1,Hovhannes Yazichyan,Armenia,92.1,,,,,-197.5,197.5,202.5,205,,,,,202.5,100,Pro Masters 40-44,M,B,Raw,,202.5,,1971
2,Oleksandr Shapoval,Ukraine,99.5,,,,,-165,165,170,,,,,,170,100,Pro Masters 40-44,M,B,Raw,,170,,1971
1,Oleg Palamarchuk,Ukraine,109.3,,,,,210,-217.5,-217.5,,,,,,210,110,Pro Masters 40-44,M,B,Raw,,210,,1972
1,Aleksey Tarasenko,Russia,122.3,,,,,225,232.5,-237.5,,,,,,232.5,125,Pro Masters 40-44,M,B,Raw,,232.5,,1971
2,Mikhaylo Pitinov,Ukraine,121.9,,,,,140,150,-160,,,,,,150,125,Pro Masters 40-44,M,B,Raw,,150,,1971
1,Viktor Kochmar,Ukraine,141.2,,,,,200,210,-220,,,,,,210,155,Pro Masters 40-44,M,B,Raw,,210,,1970
1,Igor Chumak,Ukraine,75,,,,,115,125,130,,,,,,130,75,Pro Masters 45-49,M,B,Raw,,130,,1965
1,Igor Pober,Ukraine,125,,,,,215,225,-230,,,,,,225,125,Pro Masters 45-49,M,B,Raw,,225,,1968
1,Oleksandr Kalkutin,Ukraine,133.5,,,,,190,-200,,,,,,,190,140,Pro Masters 45-49,M,B,Raw,,190,,1965
1,Jerzy Kot,Poland,141.2,,,,,150,160,-170,,,,,,160,155,Pro Masters 45-49,M,B,Raw,,160,,1968
1,Genadiy Vasyliev,Ukraine,72,,,,,90,95,100,,,,,,100,75,Pro Masters 60-64,M,B,Raw,,100,,1952
1,Anatoliy Bolyukh,Ukraine,99.2,,,,,160,165,-170,,,,,,165,100,Pro Masters 60-64,M,B,Raw,,165,,1950
1,Valeriy Kolyadyuk,Ukraine,106.9,,,,,140,145,152.5,,,,,,152.5,110,Pro Masters 60-64,M,B,Raw,,152.5,,1949
1,Vyacheslav Tsyganok,Ukraine,97,,,,,-132.5,132.5,137.5,,,,,,137.5,100,Pro Masters 75-79,M,B,Raw,,137.5,,1938
1,Oleksandr Popovych,Ukraine,67.5,,,,,125,135,-140,,,,,,135,67.5,Pro Military/Fire/Police,M,B,Raw,,135,,1972
1,Kostiantyn Grabovskyi,Ukraine,89.5,,,,,200,205,207.5,210,,,,,207.5,90,Pro Military/Fire/Police,M,B,Raw,,207.5,,1976
1,Anzhela Movchan,Ukraine,49,,,,,40,-45,-45,,,,,,40,52,Pro Teen 16-17,F,B,Raw,,40,,1998
1,Olga Grabovska,Ukraine,58.5,,,,,42.5,45,-47.5,,,,,,45,60,Pro Open,F,B,Raw,,45,,1976
1,Svitlana Stsiapanova,Belarus,64.6,,,,,82.5,85,87.5,,,,,,87.5,67.5,Pro Open,F,B,Raw,,87.5,,1983
1,Anna Kurkurina,Ukraine,77.5,,,,,135,140,-145,,,,,,140,82.5,Pro Open,F,B,Raw,,140,,1966
1,Svitlana Miskevych,Ukraine,54.4,,,,,45,-47.5,-50,,,,,,45,56,Pro Submasters 33-39,F,B,Raw,,45,,1981
1,Olga Grabovska,Ukraine,58.5,,,,,42.5,45,-47.5,,,,,,45,60,Pro Military/Fire/Police,F,B,Raw,,45,,1976
1,Volodymyr Mygas,Ukraine,88.8,,,,,215,225,230,,,,,,230,90,Amateur Open,M,B,Multi-ply,,230,,1975
DQ,Sergiy Sydorchuk,Ukraine,95,,,,,-190,,,,,,,,,100,Amateur Open,M,B,Multi-ply,,,,1981
1,Volodymyr Mygas,Ukraine,88.8,,,,,215,225,230,,,,,,230,90,Amateur Submasters 33-39,M,B,Multi-ply,,230,,1975
1,Andriy Goncharov,Ukraine,99.6,,,,,200,210,-225,,,,,,210,100,Amateur Submasters 33-39,M,B,Multi-ply,,210,,1981
1,Vladyslav Bondarenko,Ukraine,45.5,,,,,-75,80,-85,,,,,,80,48,Pro Teen 13-15,M,B,Multi-ply,,80,,1999
1,Sergiy Pavlenko,Ukraine,70.9,,,,,130,150,-160,,,,,,150,75,Pro Teen 18-19,M,B,Multi-ply,,150,,1995
1,Mykyta Kolomyza,Ukraine,87,,,,,180,-190,-190,,,,,,180,90,Pro Teen 18-19,M,B,Multi-ply,,180,,
1,Vitaliy Sobkovskiy,Ukraine,87.1,,,,,195,-210,210,,,,,,210,90,Pro Juniors 20-23,M,B,Multi-ply,,210,,1991
1,Vladyslav Bondarenko,Ukraine,45.5,,,,,-75,80,-85,,,,,,80,48,Pro Open,M,B,Raw,,80,,1999
1,Arkadiy Shalokha,Ukraine,82.5,,,,,175,185,195,,,,,,195,82.5,Pro Open,M,B,Raw,,195,,1983
1,Volodymyr Galyga,Ukraine,82.8,,,,,225,230,-240,,,,,,230,90,Pro Open,M,B,Multi-ply,,230,,1983
DQ,Irakli Tskhovrebashvili,Georgia,89.9,,,,,-212.5,-212.5,-212.5,,,,,,,90,Pro Open,M,B,Multi-ply,,,,1981
1,Miroslav Reshetnikov,Ukraine,107.9,,,,,200,220,230,,,,,,230,110,Pro Open,M,B,Multi-ply,,230,,1988
DQ,Irakli Tskhovrebashvili,Georgia,89.9,,,,,-212.5,-212.5,-212.5,,,,,,,90,Pro Submasters 33-39,M,B,Multi-ply,,,,1981
1,Rostyslav Bondarenko,Ukraine,87.7,,,,,200,215,225,,,,,,225,90,Pro Masters 40-44,M,B,Multi-ply,,225,,1972
DQ,Franciszek Szabluk,Poland,89.9,,,,,-220,-220,-220,,,,,,,90,Pro Masters 55-59,M,B,Multi-ply,,,,1956
1,Vyacheslav Tsyganok,Ukraine,97,,,,,150,160,-170,,,,,,160,100,Pro Masters 75-79,M,B,Multi-ply,,160,,1938
1,Dmitro Zaets,Ukraine,37.4,,,,,,,,,90,100,-105,,100,44,Amateur Sub-Teen 11-12,M,D,Raw,,,100,2002
1,Vladyslav Volosyuk,Ukraine,66,,,,,,,,,155,167.5,175,,175,67.5,Amateur Teen 13-15,M,D,Raw,,,175,1998
1,Mykola Bortnyk,Ukraine,97.2,,,,,,,,,260,285,,,285,100,Amateur Juniors 20-23,M,D,Raw,,,285,1992
1,Vadim Omelchuk,Ukraine,89,,,,,,,,,225,235,240,,240,90,Amateur Open,M,D,Raw,,,240,1989
1,Anatoliy Shostatskyy,Ukraine,102.9,,,,,,,,,200,-230,255,,255,110,Amateur Open,M,D,Raw,,,255,1981
1,Sergiy Yakubyshyn,Ukraine,88.7,,,,,,,,,150,,,,150,90,Amateur Submasters 33-39,M,D,Raw,,,150,1978
1,Vladislav Marchenko,Ukraine,121.9,,,,,,,,,230,240,245,,245,125,Amateur Masters 45-49,M,D,Raw,,,245,1967
1,Gasan Garumov,Ukraine,74.3,,,,,,,,,140,150,155,,155,75,Amateur Masters 50-54,M,D,Raw,,,155,1963
1,Bettina Razzouki-Korkis,Poland,50.8,,,,,,,,,80,90,100,,100,52,Amateur Open,F,D,Raw,,,100,1965
1,Bettina Razzouki-Korkis,Poland,50.8,,,,,,,,,80,90,100,,100,52,Amateur Masters 45-49,F,D,Raw,,,100,1965
1,Romen Pavlenko,Ukraine,80.6,,,,,,,,,185,200,210,,210,82.5,Pro Teen 18-19,M,D,Raw,,,210,1994
1,Givi Marvgelashvili,Georgia,66.8,,,,,,,,,180,200,225,-230,225,67.5,Pro Open,M,D,Raw,,,225,1989
1,Dmytro Cherkay,Ukraine,74.3,,,,,,,,,245,250,260,,260,75,Pro Open,M,D,Raw,,,260,1985
1,Aris Eyubov,Azerbaijan,99.9,,,,,,,,,260,282.5,290,295,290,100,Pro Open,M,D,Raw,,,290,1979
1,Kyrylo Potapov,Ukraine,101.6,,,,,,,,,250,270,275,,275,110,Pro Open,M,D,Raw,,,275,1982
1,Aris Eyubov,Azerbaijan,99.9,,,,,,,,,260,282.5,290,295,290,100,Pro Submasters 33-39,M,D,Raw,,,290,1979
2,Yuriy Pavlenko,Ukraine,96.8,,,,,,,,,200,227.5,-235,,227.5,100,Pro Submasters 33-39,M,D,Raw,,,227.5,1978
1,Mikhaylo Pitinov,Ukraine,121.9,,,,,,,,,180,190,,,190,125,Pro Masters 40-44,M,D,Raw,,,190,1971
1,Pavlo Kipnyak,Ukraine,108.8,,,,,,,,,190,205,,,205,110,Pro Masters 45-49,M,D,Raw,,,205,1969
1,Yuriy Pavlenko,Ukraine,96.8,,,,,,,,,200,227.5,-235,,227.5,100,Pro Military/Fire/Police,M,D,Raw,,,227.5,1978
1,Kyrylo Potapov,Ukraine,101.6,,,,,,,,,250,270,275,,275,110,Pro Military/Fire/Police,M,D,Raw,,,275,1982
1,Illya Simchuk,Ukraine,104.4,,,,,,,,,235,247.5,-255,,247.5,110,Amateur Juniors 20-23,M,D,Multi-ply,,,247.5,1990
1,Arkadiy Shalokha,Ukraine,82.5,,,,,,,,,280,300,315,-325,315,82.5,Pro Open,M,D,Single-ply,,,315,1983
1,Efym Stepatskyy,Ukraine,88.1,,,,,,,,,200,220,-230,,220,90,Pro Open,M,D,Multi-ply,,,220,1987
