Place,Name,CyrillicName,BirthYear,Sex,WeightClassKg,BodyweightKg,Best3SquatKg,Best3BenchKg,Best3DeadliftKg,TotalKg,Event,Equipment,Division
1,Kseniya Pushkareva,Ксения Пушкарева,1998,F,47,46.45,60,30,95,185,SBD,Raw,Open
1,Alyona Malova,Алёна Малова,1993,F,52,52,100,55,122.5,277.5,SBD,Raw,Open
2,Olga Platova,Ольга Платова,1991,F,52,52,87.5,57.5,117.5,262.5,SBD,Raw,Open
3,Inna Shlyagova,Инна Шлягова,1978,F,52,51.4,92.5,45,95,232.5,SBD,Raw,Open
4,Natalya Sulima,Наталья Сулима,1995,F,52,51.25,60,45,97.5,202.5,SBD,Raw,Open
DQ,Olga Kuchaeva,Ольга Кучаева,1982,F,52,51.8,80,,,,SBD,Raw,Open
1,Olga Trishch,Ольга Трищ,1992,F,57,56.35,100,50,102.5,252.5,SBD,Raw,Open
2,Olga Ermakova,Ольга Ермакова,1993,F,57,52.7,102.5,42.5,95,240,SBD,Raw,Open
3,Darya Makarova,Дарья Макарова,1996,F,57,54.6,70,35,92.5,197.5,SBD,Raw,Open
4,Elizaveta Klimenko,Елизавета Клименко,1997,F,57,55.4,77.5,40,80,197.5,SBD,Raw,Open
1,Anna Konkova,Анна Конькова,1981,F,63,61.9,80,50,115,245,SBD,Raw,Open
2,Anna Grazhdankina,Анна Гражданкина,1991,F,63,57.3,77.5,40,107.5,225,SBD,Raw,Open
3,Rukhsara Ibragimova,Рухсара Ибрагимова,1991,F,63,59.85,77.5,52.5,95,225,SBD,Raw,Open
4,Elizaveta Lutsenko,Елизавета Луценко,1994,F,63,61.45,85,50,90,225,SBD,Raw,Open
5,Anastasiya Zaytseva,Анастасия Зайцева,1996,F,63,61.55,55,40,80,175,SBD,Raw,Open
1,Yana Kuznetsova,Яна Кузнецова,1992,F,72,70.3,85,55,95,235,SBD,Raw,Open
2,Evgeniya Rezyapkina,Евгения Резяпкина,1998,F,72,69.8,72.5,47.5,102.5,222.5,SBD,Raw,Open
1,Ekaterina Salabay,Екатерина Салабай,1992,F,72,63.4,,70,,70,B,Raw,Open
DQ,Anna Rogusova,Анна Рогусова,1994,F,72,72,82.5,,,,SBD,Raw,Open
1,Anna Zavgorodnyaya,Анна Завгородняя,1995,F,84,83.6,105,70,145,320,SBD,Raw,Open
1,Sergey Fedosienko,Сергей Федосиенко,1982,M,59,58.1,200,150,230,580,SBD,Raw,Open
1,Konstantin Makarov,Константин Макаров,1991,M,66,63.3,170,100,150,420,SBD,Raw,Open
2,Reshad Suleymanov,Решад Сулейманов,1993,M,66,65.8,135,102.5,180,417.5,SBD,Raw,Open
DQ,Sergey Zuzenkov,Сергей Зузенков,1992,M,66,66,,,,,SBD,Raw,Open
1,Mikhail Dolgopolov,Михаил Долгополов,1991,M,74,69.4,175,125,215,515,SBD,Raw,Open
2,Sergey Kanzyuba,Сергей Канзюба,1984,M,74,73.6,162.5,145,190,497.5,SBD,Raw,Open
3,Vladislav Medvedev,Владислав Медведев,1986,M,74,73.5,180,115,200,495,SBD,Raw,Open
4,Maksim Gorshteyn,Максим Горштейн,1983,M,74,73.9,172.5,120,195,487.5,SBD,Raw,Open
5,Alymzhan Raziev,Алымжан Разиев,1993,M,74,72.3,115,80,155,350,SBD,Raw,Open
6,Pavel Tomilov,Павел Томилов,1997,M,74,70.6,120,85,130,335,SBD,Raw,Open
7,Donner Muftoydinov,Доннер Муфтойдинов,1996,M,74,70.7,115,85,130,330,SBD,Raw,Open
8,Vyacheslav Puzakov,Вячеслав Пузаков,1994,M,74,69.05,110,65,140,315,SBD,Raw,Open
9,Nikita Prosenkov,Никита Просенков,1998,M,74,72.1,100,67.5,135,302.5,SBD,Raw,Open
10,Markel Martynov,Маркел Мартынов,1992,M,74,72.5,100,70,120,290,SBD,Raw,Open
11,Sergey Koptel,Сергей Коптель,1996,M,74,69.5,97.5,70,120,287.5,SBD,Raw,Open
12,Vladimir Penkin,Владимир Пенкин,2003,M,74,73.2,70,30,70,170,SBD,Raw,Open
3,Mikhail Bologov,Михаил Бологов,1986,M,74,71.8,,140,,140,B,Raw,Open
2,Vasiliy Chayka,Василий Чайка,1988,M,74,72.95,,142.5,,142.5,B,Raw,Open
1,Evgeniy Russu,Евгений Руссу,1989,M,74,74,,162.5,,162.5,B,Raw,Open
DQ,Roman Kozhevnikov,Роман Кожевников,1990,M,74,73.6,,,,,SBD,Raw,Open
1,Vladimir Mironenko,Владимир Мироненко,1981,M,83,79.15,240,165,260,665,SBD,Raw,Open
2,Yuriy Stepanov,Юрий Степанов,1990,M,83,77.5,220,147.5,242.5,610,SBD,Raw,Open
3,Maksim Dergachev,Максим Дергачев,1987,M,83,83,210,150,250,610,SBD,Raw,Open
4,Denis Makeev #2,Денис Макеев,1986,M,83,82.1,210,177.5,220,607.5,SBD,Raw,Open
5,Ivan Gorelik,Иван Горелик,1988,M,83,78.9,170,142.5,195,507.5,SBD,Raw,Open
6,Stanislav Musatkin,Станислав Мусаткин,1986,M,83,81.5,185,130,170,485,SBD,Raw,Open
7,Ivan Shevchenko #5,Иван Шевченко,1984,M,83,76.3,150,100,155,405,SBD,Raw,Open
8,Sergey Rudnev,Сергей Руднев,1990,M,83,81.8,145,110,150,405,SBD,Raw,Open
9,Aleksey Sergeenko,Алексей Сергеенко,1997,M,83,76.5,120,92.5,140,352.5,SBD,Raw,Open
10,Aleksandr Eust,Александр Еуст,1985,M,83,81.6,120,90,140,350,SBD,Raw,Open
11,Ilya Orokhteyuk,Илья Орохтеюк,1997,M,83,78.9,115,87.5,142.5,345,SBD,Raw,Open
12,Dmitriy Filippov,Дмитрий Филиппов,1992,M,83,77.6,115,67.5,145,327.5,SBD,Raw,Open
13,Bogdan Mirkin,Богдан Миркин,1997,M,83,82.3,115,70,142.5,327.5,SBD,Raw,Open
DQ,Roman Pogorelov #1,Роман Погорелов,1986,M,83,82.6,220,140,,,SBD,Raw,Open
1,Aleksey Denisov,Алексей Денисов,1984,M,83,77.5,,140,,140,B,Raw,Open
DQ,Pavel Plakhin,Павел Плахин,1994,M,83,79.4,160,,,,SBD,Raw,Open
1,Yuriy Mirkin,Юрий Миркин,1971,M,93,92.9,252.5,175,280,707.5,SBD,Raw,Open
2,Maksim Unt,Максим Унт,1981,M,93,91.65,240,170,280,690,SBD,Raw,Open
3,Albert Kokorin,Альберт Кокорин,1986,M,93,88.4,200,135,242.5,577.5,SBD,Raw,Open
4,Pavel Yakubov,Павел Якубов,1988,M,93,90.8,190,157.5,230,577.5,SBD,Raw,Open
5,Vitaliy Mukha,Виталий Муха,1985,M,93,89.3,160,160,215,535,SBD,Raw,Open
6,Sergey Shcherbakov,Сергей Щербаков,1992,M,93,86.3,180,125,220,525,SBD,Raw,Open
7,Andrey Vereshchagin,Андрей Верещагин,1985,M,93,90.7,180,122.5,217.5,520,SBD,Raw,Open
8,Daniil Novozhilov,Даниил Новожилов,1992,M,93,90.9,180,150,190,520,SBD,Raw,Open
9,Sergey Starodubtsev,Сергей Стародубцев,1994,M,93,87.3,140,105,180,425,SBD,Raw,Open
10,Leonid Yashnov,Леонид Яшнов,1995,M,93,90.5,137.5,105,165,407.5,SBD,Raw,Open
11,Artem Likhomanenko,Артем Лихоманенко,1988,M,93,90.85,137.5,100,155,392.5,SBD,Raw,Open
12,Denis Chernyshyov,Денис Чернышёв,1996,M,93,90.75,135,100,147.5,382.5,SBD,Raw,Open
2,Marsel Galyautdinov,Марсель Галяутдинов,1987,M,93,87.45,,170,,170,B,Raw,Open
1,Aleksandr Semenov,Александр Семенов,1985,M,93,90.8,,190,,190,B,Raw,Open
3,Aleksandr Gurtsev,Александр Гурцев,1986,M,93,92.85,,140,,140,B,Raw,Open
1,Sergey Bozhnev,Сергей Божнев,1990,M,105,104.2,250,182.5,280,712.5,SBD,Raw,Open
2,Aleksandr Makarov,Александр Макаров,1994,M,105,99.7,230,197.5,240,667.5,SBD,Raw,Open
3,Yuriy Burkunov,Юрий Буркунов,1989,M,105,102.1,220,165,245,630,SBD,Raw,Open
4,Mikhail Makarov,Михаил Макаров,1985,M,105,97.4,200,157.5,260,617.5,SBD,Raw,Open
5,Daniil Shulgesterov,Даниил Шулгестеров,1982,M,105,102.9,230,132.5,240,602.5,SBD,Raw,Open
6,Vadim Pavlyuchenko,Вадим Павлюченко,1994,M,105,103.7,200,160,220,580,SBD,Raw,Open
7,Nikolay Menshikov,Николай Меньшиков,1994,M,105,94,185,120,215,520,SBD,Raw,Open
8,Pavel Sozinov,Павел Созинов,1984,M,105,97.5,230,175,100,505,SBD,Raw,Open
9,Andrey Sbrodov,Андрей Сбродов,1994,M,105,102.8,175,122.5,170,467.5,SBD,Raw,Open
10,Aleksandr Martynov,Александр Мартынов,1995,M,105,94.1,170,120,170,460,SBD,Raw,Open
1,Anton Rybalov,Антон Рыбалов,1986,M,105,93.25,,220,,220,B,Raw,Open
3,Aleksandr Buleev,Александр Булеев,1990,M,105,100.4,,160,,160,B,Raw,Open
2,Sergey Filchakov,Сергей Фильчаков,1986,M,105,102.6,,190,,190,B,Raw,Open
DQ,Evgeniy Sayler,Евгений Сайлер,1981,M,105,98,,,,,SBD,Raw,Open
DQ,Ruslan Dupplinskiy,Руслан Дупплинский,1982,M,105,98.7,,,,,SBD,Raw,Open
1,Andrey Andronov,Андрей Андронов,1987,M,120,115.7,240,185,290,715,SBD,Raw,Open
2,Aleksey Skachkov,Алексей Скачков,1992,M,120,109.5,230,165,250,645,SBD,Raw,Open
3,Sergey Subbotin,Сергей Субботин,1971,M,120,115.5,190,150,250,590,SBD,Raw,Open
4,Vadim Laptev,Вадим Лаптев,1969,M,120,106.6,,165,,165,B,Raw,Open
2,Mikhail Chalykh,Михаил Чалых,1978,M,120,117.1,,185,,185,B,Raw,Open
1,Maksim Dubovik,Максим Дубовик,1972,M,120,119.3,,190,,190,B,Raw,Open
3,Igor Altshuler,Игорь Альтшулер,1974,M,120,120,,175,,175,B,Raw,Open
1,Aleksey Veritsunov,Алексей Верицунов,1976,M,120+,123.5,200,242.5,250,692.5,SBD,Raw,Open
2,Aleksey Gorobets,Алексей Горобец,1956,M,120+,125.1,190,170,200,560,SBD,Raw,Open
3,Vitaliy Basov,Виталий Басов,1971,M,120+,135,210,100,200,510,SBD,Raw,Open
1,Konstantin Khrebtov,Константин Хребтов,1970,M,120+,122.8,,185,,185,B,Raw,Open
